{"data":[{"name":"Money Time!","code":"money_time","description":"Gold opens many doors. Use 20 bags of gold and enjoy your fortune.","points":2,"type":"use","target":"bag_of_gold","total":20,"rewards":{"gold":2000}},{"name":"Carnivore","code":"carnivore","description":"Only the bravest dare eat hellhound meat. Use 500 cooked hellhound meats and embrace your carnivorous side.","points":2,"type":"use","target":"cooked_hellhound_meat","total":500,"rewards":{"gold":2000}},{"name":"Highway Patrol","code":"highway_patrol","description":"No traveler is safe while highwaymen lurk. Patrol the roads and defeat 2 500 Highwaymen.","points":2,"type":"combat_kill","target":"highwayman","total":2500,"rewards":{"gold":2000}},{"name":"Slimed to None","code":"slimed_to_none","description":"A monstrous slime crowned in the forest. Prove your worth by defeating the King Slime.","points":2,"type":"combat_kill","target":"king_slime","total":1,"rewards":{"gold":2000}},{"name":"Potion Brewer","code":"potion_brewer","description":"The art of alchemy flows through your hands. Craft 100 Enchanted Health Splash Potions.","points":2,"type":"crafting","target":"enchanted_health_splash_potion","total":100,"rewards":{"gold":2000}},{"name":"Scorpion Feast","code":"scorpion_feast","description":"Even venomous beasts can be a delicacy. Consume 500 Cooked Desert Scorpion Meats.","points":2,"type":"use","target":"cooked_desert_scorpion_meat","total":500,"rewards":{"gold":2000}},{"name":"Gourmet Chef","code":"gourmet_chef","description":"Fish soup warms the soul. Use 300 Fish Soups and show your gourmet skills.","points":3,"type":"use","target":"fish_soup","total":300,"rewards":{"gold":3000}},{"name":"Grand Master","code":"grand_master","description":"Few ascend to such heights. Reach level 50 and earn the title of Grand Master.","points":3,"type":"combat_level","target":null,"total":50,"rewards":{"gold":3000}},{"name":"The New King","code":"the_new_king","description":"After defeating the undead monarch, claim the coveted Lich Crown as your own. Drop a Lich Crown.","points":3,"type":"combat_drop","target":"lich_crown","total":1,"rewards":{"gold":3000}},{"name":"Swordbreaker","code":"swordbreaker","description":"Only true warriors can shatter legends. Drop 25 Broken Swords and earn the Swordbreaker name.","points":3,"type":"combat_drop","target":"broken_sword","total":25,"rewards":{"gold":3000}},{"name":"Magic Power","code":"magic_power","description":"Legends whisper of the Magic Shield. Craft it and wield arcane power.","points":3,"type":"crafting","target":"magic_shield","total":1,"rewards":{"gold":3000}},{"name":"Crafted with Honor","code":"crafted_with_honor","description":"A Masterful Necklace is the mark of a true artisan. Craft one and wear your honor.","points":3,"type":"crafting","target":"masterful_necklace","total":1,"rewards":{"gold":3000}},{"name":"Bite! Oh, algae!","code":"bite_oh_algae","description":"Sometimes, all you catch is algae. Gather 2 500 algaes and embrace the surprises of fishing.","points":3,"type":"gathering","target":"algae","total":2500,"rewards":{"gold":3000}},{"name":"Welcome to Hell","code":"welcome_to_hell","description":"A weapon forged from knowledge straight from hell. Craft a Hell Reaper.","points":3,"type":"crafting","target":"hell_reaper","total":1,"rewards":{"gold":3000}},{"name":"Enchanted Alchemist","code":"enchanted_alchemist","description":"Enchanted health potions restore body and soul. Craft 250 enchanted health potions.","points":3,"type":"crafting","target":"enchanted_health_potion","total":250,"rewards":{"gold":3000}},{"name":"Real Canadian","code":"real_canadian","description":"Nothing says Canadian like maple syrup. Craft 250 maple syrups and celebrate the sweet life.","points":3,"type":"crafting","target":"maple_syrup","total":250,"rewards":{"gold":3000}},{"name":"Diamond In The Sky","code":"diamond_in_the_sky","description":"Diamonds are forever. Craft 2 diamonds and cherish your treasures.","points":3,"type":"crafting","target":"diamond","total":2,"rewards":{"gold":3000}},{"name":"Magic Harvester","code":"magic_harvester","description":"Magic sap is the lifeblood of enchanted forests. Gather 500 Magic Saps.","points":3,"type":"gathering","target":"magic_sap","total":500,"rewards":{"gold":3000}},{"name":"Secure the island","code":"secure_the_island","description":"Defeat 50 Sea Marauders to secure the island, earn the villagers trust, and unlock access to the bank.","points":3,"type":"combat_kill","target":"sea_marauder","total":50,"rewards":{"gold":3000}},{"name":"Clean the lab","code":"clean_the_lab","description":"Defeat 100 Cultist Alchemist to secure the house and unlock access to the Rosenblood.","points":3,"type":"combat_kill","target":"cultist_alchemist","total":100,"rewards":{"gold":3000}},{"name":"Sands of Power","code":"sands_of_power","description":"The Sandwhisper Empress commands the desert with ancient magic. Defeat her and end her reign over the dunes.","points":3,"type":"combat_kill","target":"sandwhisper_empress","total":1,"rewards":{"gold":3000}},{"name":"Blood of the Cursed","code":"blood_of_the_cursed","description":"In his house, Rosenblood awaits challengers. End the curse by defeating Rosenblood.","points":3,"type":"combat_kill","target":"rosenblood","total":1,"rewards":{"gold":3000}},{"name":"The Worm Turns","code":"the_worm_turns","description":"Face the terror of dusk and slay the Duskworm.","points":3,"type":"combat_kill","target":"duskworm","total":1,"rewards":{"gold":3000}},{"name":"Warden of the Sands","code":"warden_of_the_sands","description":"The desert guardians never rest. Prove your might by defeating 1 000 Sandwardens.","points":3,"type":"combat_kill","target":"sandwarden","total":1000,"rewards":{"gold":3000}},{"name":"Shining Secrets","code":"shining_secrets","description":"Rare and radiant, alexandrite is a gem of mystery. Craft 2 Alexandrite to master its brilliance.","points":3,"type":"crafting","target":"alexandrite","total":2,"rewards":{"gold":3000}},{"name":"Life Lover","code":"life_lover","description":"The shards of life are rare and precious. Prove your devotion by dropping 24 Life Crystal Shards.","points":4,"type":"combat_drop","target":"life_crystal_shard","total":24,"rewards":{"gold":4000}},{"name":"Its Malefic!","code":"its_malefic","description":"Malefic Shards pulse with forbidden energy. Drop 24 of these shards to harness their power.","points":4,"type":"combat_drop","target":"malefic_shard","total":24,"rewards":{"gold":4000}},{"name":"The planet thanks you","code":"the_planet_thanks_you","description":"Your eco-actions inspire others. Recycle 5 000 items and earn the planet’s gratitude.","points":4,"type":"recycling","target":null,"total":5000,"rewards":{"gold":4000}},{"name":"Elementary Book","code":"elementary_book","description":"Elemental pages hold ancient secrets. Drop 30 Elemental Pages and unlock the power of the elements.","points":4,"type":"combat_drop","target":"elemental_page","total":30,"rewards":{"gold":4000}},{"name":"Corruption Eradicator","code":"corruption_eradicator","description":"Corrupted Gems are the source of many evils. Drop 800 Corrupted Gems and cleanse the world.","points":4,"type":"combat_drop","target":"corrupted_gem","total":800,"rewards":{"gold":4000}},{"name":"Demonic Slayer","code":"demonic_slayer","description":"Grimlets are the spawn of the abyss. Slay 1 000 Grimlets and earn the title of Demonic Slayer.","points":4,"type":"combat_kill","target":"grimlet","total":1000,"rewards":{"gold":4000}},{"name":"Cultist Purifier","code":"cultist_purifier","description":"Cultist Acolytes threaten the world with their dark devotion. Cleanse the realm by killing 1 500 Cultist Acolytes.","points":4,"type":"combat_kill","target":"cultist_acolyte","total":1500,"rewards":{"gold":4000}},{"name":"Coin Collector","code":"coin_collector","description":"Wealth lies buried in the island of Sandwhisper. Collect 500 Sandwhisper Coins from its foes.","points":4,"type":"combat_drop","target":"sandwhisper_coin","total":500,"rewards":{"gold":4000}},{"name":"Heartbound","code":"heartbound","description":"Legends speak of an amulet forged with life’s essence. Craft a Heart Amulet to claim its power.","points":4,"type":"crafting","target":"heart_amulet","total":1,"rewards":{"gold":4000}},{"name":"Eat the forbidden fruit","code":"eat_the_forbidden_fruit","description":"Corrupted Fruits tempt all who seek power. Use 100 Corrupted Fruits and taste the forbidden.","points":5,"type":"use","target":"corrupted_fruit","total":100,"rewards":{"gold":5000}},{"name":"Tasks Coins Fan","code":"tasks_coins_fan","description":"A thousand tasks completed—your legend as a helper grows! Complete 1 000 tasks.","points":5,"type":"task","target":null,"total":1000,"rewards":{"gold":5000}},{"name":"Secrets in the Sand","code":"secrets_in_the_sand","description":"The Sandwhisper Empress guards forbidden knowledge. Collect 24 Codex Pages from her grasp.","points":6,"type":"combat_drop","target":"codex_page","total":24,"rewards":{"gold":7000}},{"name":"Sultan Slayer","code":"sultan_slayer","description":"Legends speak of the Efreet Sultans ruling the burning sands with fiery magic. Prove your courage by slaying 1 000 Efreet Sultans.","points":6,"type":"combat_kill","target":"efreet_sultan","total":1000,"rewards":{"gold":7000}}],"total":88,"page":2,"size":50,"pages":2}