{"data":[{"name":"Lok'tar ogar!","code":"loktar_ogar","description":"The orcs roar their war cry, seeking conquest. Show your strength and defeat 1 000 orcs in battle.","points":1,"type":"combat_kill","target":"orc","total":1000,"rewards":{"gold":1000}},{"name":"Feather Me Impressed","code":"feather_me_impressed","description":"The legend of the endless flock beckons. Prove your might (and appetite) by slaughtering 5 000 chickens.","points":1,"type":"combat_kill","target":"chicken","total":5000,"rewards":{"gold":1000}},{"name":"Novice","code":"novice","description":"Every hero starts somewhere. Reach level 10 and step onto the path of adventure.","points":1,"type":"combat_level","target":null,"total":10,"rewards":{"gold":1000}},{"name":"Tasks Farmer","code":"tasks_farmer","description":"Complete 100 tasks and show your diligence to the people of the realm.","points":1,"type":"task","target":null,"total":100,"rewards":{"gold":1000}},{"name":"Ecologist","code":"ecologist","description":"The world breathes easier thanks to your efforts. Recycle 1 000 items.","points":1,"type":"recycling","target":null,"total":1000,"rewards":{"gold":1000}},{"name":"Cabinet Maker","code":"cabinet_maker","description":"Spruce wood is prized by craftsmen. Craft 500 spruce planks and become a master cabinet maker.","points":1,"type":"crafting","target":"spruce_plank","total":500,"rewards":{"gold":1000}},{"name":"Worker","code":"worker","description":"Iron bars build civilizations. Craft 500 iron bars and earn your place among the workers.","points":1,"type":"crafting","target":"iron_bar","total":500,"rewards":{"gold":1000}},{"name":"Mithril Mastery","code":"mithril_mastery","description":"Legends are forged in mithril. Craft 500 mithril bars to prove your mastery.","points":1,"type":"crafting","target":"mithril_bar","total":500,"rewards":{"gold":1000}},{"name":"Amateur Miner","code":"amateur_miner","description":"Copper glimmers in the veins of the earth. Gather 6 000 copper ores and begin your mining journey.","points":1,"type":"gathering","target":"copper_ore","total":6000,"rewards":{"gold":1000}},{"name":"Miner","code":"miner","description":"Iron shapes kingdoms. Gather 6 000 iron ores to build your legacy.","points":1,"type":"gathering","target":"iron_ore","total":6000,"rewards":{"gold":1000}},{"name":"Expert Miner","code":"expert_miner","description":"Gold is the prize of experts. Gather 6 000 gold ores and shine above the rest.","points":1,"type":"gathering","target":"gold_ore","total":6000,"rewards":{"gold":1000}},{"name":"Intermediate Miner","code":"intermediate_miner","description":"Coal fuels progress. Gather 6 000 coals and power the world.","points":1,"type":"gathering","target":"coal","total":6000,"rewards":{"gold":1000}},{"name":"Professional Miner","code":"professional_miner","description":"Mithril ore is the dream of miners. Gather 6 000 mithril ores and reach professional status.","points":1,"type":"gathering","target":"mithril_ore","total":6000,"rewards":{"gold":1000}},{"name":"Amateur Lumberjack","code":"amateur_lumberjack","description":"Ash wood is the first step to mastery. Gather 6 000 ash woods and begin your lumberjack career.","points":1,"type":"gathering","target":"ash_wood","total":6000,"rewards":{"gold":1000}},{"name":"Lumberjack","code":"lumberjack","description":"Spruce forests echo with the sound of axes. Gather 6 000 spruce woods and earn the title of Lumberjack.","points":1,"type":"gathering","target":"spruce_wood","total":6000,"rewards":{"gold":1000}},{"name":"Intermediate Lumberjack","code":"intermediate_lumberjack","description":"Birch trees test your skill. Gather 6 000 birch woods to master your craft.","points":1,"type":"gathering","target":"birch_wood","total":6000,"rewards":{"gold":1000}},{"name":"Expert Lumberjack","code":"expert_lumberjack","description":"Dead wood holds secrets of the forest. Gather 6 000 dead woods and prove your expertise.","points":1,"type":"gathering","target":"dead_wood","total":6000,"rewards":{"gold":1000}},{"name":"Professional Lumberjack","code":"professional_lumberjack","description":"Maple wood is the true professional’s choice. Gather 6 000 maple woods.","points":1,"type":"gathering","target":"maple_wood","total":6000,"rewards":{"gold":1000}},{"name":"Amateur Fisherman","code":"amateur_fisherman","description":"The river’s bounty starts with the humble gudgeon. Gather 6 000 gudgeons and learn the fisherman's path.","points":1,"type":"gathering","target":"gudgeon","total":6000,"rewards":{"gold":1000}},{"name":"Fisherman","code":"fisherman","description":"Shrimp swarm the shallows. Gather 6 000 shrimps and prove your skill as a fisherman.","points":1,"type":"gathering","target":"shrimp","total":6000,"rewards":{"gold":1000}},{"name":"Intermediate Fisherman","code":"intermediate_fisherman","description":"The swift trout challenges all but the best. Gather 6 000 trouts and rise in the ranks.","points":1,"type":"gathering","target":"trout","total":6000,"rewards":{"gold":1000}},{"name":"Expert Fisherman","code":"expert_fisherman","description":"The elusive bass is the pride of expert anglers. Gather 6 000 bass.","points":1,"type":"gathering","target":"bass","total":6000,"rewards":{"gold":1000}},{"name":"Professional Fisherman","code":"professional_fisherman","description":"Salmon run strong in wild rivers. Gather 6 000 salmons and become a professional fisherman.","points":1,"type":"gathering","target":"salmon","total":6000,"rewards":{"gold":1000}},{"name":"Amateur Alchemist","code":"amateur_alchmist","description":"Sunflowers are the base of every potion. Gather 6 000 sunflowers and start your journey as an alchemist.","points":1,"type":"gathering","target":"sunflower","total":6000,"rewards":{"gold":1000}},{"name":"Intermediate Alchemist","code":"intermediate_alchemist","description":"Nettle leaves sting the unwary. Gather 6 000 nettle leaves and brew stronger potions.","points":1,"type":"gathering","target":"nettle_leaf","total":6000,"rewards":{"gold":1000}},{"name":"Expert Alchemist","code":"expert_alchemist","description":"Glowstem leaves illuminate the darkest recipes. Gather 6 000 glowstems and master your craft.","points":1,"type":"gathering","target":"glowstem_leaf","total":6000,"rewards":{"gold":1000}},{"name":"Pearl Fisher","code":"pearl_fisher","description":"Small pearls shimmer in the deep. Gather 500 Small Pearls and become a true pearl fisher.","points":1,"type":"gathering","target":"small_pearls","total":500,"rewards":{"gold":1000}},{"name":"Master Lumberjack","code":"master_lumberjack","description":"Amidst the scorching desert, even palm trees fall to the axe. Gather 6 000 Palm Wood as a master lumberjack.","points":2,"type":"gathering","target":"palm_wood","total":6000,"rewards":{"gold":2000}},{"name":"Master Fisherman","code":"master_fisherman","description":"The seas hold countless challenges. Prove your mastery by gathering 6 000 Swordfish.","points":2,"type":"gathering","target":"swordfish","total":6000,"rewards":{"gold":2000}},{"name":"Master Miner","code":"master_miner","description":"Deep within the earth lies strength unyielding. Gather 6 000 Adamantite Ore to prove yourself as a master miner.","points":2,"type":"gathering","target":"adamantite_ore","total":6000,"rewards":{"gold":2000}},{"name":"Master Alchemist","code":"master_alchemist","description":"Even the desert yields secrets to the wise. Gather 6 000 Torch Cactus Flowers as a master alchemist’s triumph.","points":2,"type":"gathering","target":"torch_cactus_flower","total":6000,"rewards":{"gold":2000}},{"name":"Restoring The Peace","code":"restoring_the_peace","description":"The forests tremble under the claws of Bandit Lizards. Restore peace to the woodland by slaying 1 000 of these marauders.","points":2,"type":"combat_kill","target":"bandit_lizard","total":1000,"rewards":{"gold":2000}},{"name":"King of the Forest","code":"king_of_the_Forest","description":"Only those who face the wild's fiercest predators earn the title. Slay 2 000 wolves to become King of the Forest.","points":2,"type":"combat_kill","target":"wolf","total":2000,"rewards":{"gold":2000}},{"name":"Closing The Gate","code":"closing_the_gate","description":"Demons pour forth from shattered portals, threatening all life. Seal the rift and defeat 1 000 demons.","points":2,"type":"combat_kill","target":"demon","total":1000,"rewards":{"gold":2000}},{"name":"Lich Please!","code":"lich_please","description":"The ancient Lich rules the dead lands, defying the living. Challenge fate and defeat the Lich to restore balance.","points":2,"type":"combat_kill","target":"lich","total":1,"rewards":{"gold":2000}},{"name":"I want bacon!","code":"i_want_bacon","description":"The farms overflow with squealing pigs. Satisfy your hunger for glory (and bacon) by slaughtering 2 500 pigs.","points":2,"type":"combat_kill","target":"pig","total":2500,"rewards":{"gold":2000}},{"name":"Cult Destroyer","code":"cult_destroyer","description":"The Cult Emperor weaves dark rituals, threatening the realm. End his blasphemous reign by defeating the Cult Emperor.","points":2,"type":"combat_kill","target":"cultist_emperor","total":1,"rewards":{"gold":2000}},{"name":"Adventurer","code":"adventurer","description":"Your journey continues as you grow in strength. Reach level 30 and become a true adventurer.","points":2,"type":"combat_level","target":null,"total":30,"rewards":{"gold":2000}},{"name":"The New Bandit","code":"the_new_bandit","description":"Claim the mantle of the forest's outlaws. Drop a Bandit Armor and show your new allegiance.","points":2,"type":"combat_drop","target":"bandit_armor","total":1,"rewards":{"gold":2000}},{"name":"Arachnophobia Conquered","code":"arachnophobia_conquered","description":"Face your fears and clear the webs! Defeat 1 000 spiders to conquer your arachnophobia.","points":2,"type":"combat_kill","target":"spider","total":1000,"rewards":{"gold":2000}},{"name":"Making a Nether portal","code":"making_a_nether_portal","description":"Obsidian bars are the gateway to forbidden realms. Craft 250 obsidian bars.","points":2,"type":"crafting","target":"obsidian_bar","total":250,"rewards":{"gold":2000}},{"name":"Maple Maestro","code":"maple_maestro","description":"Maple wood is the choice of virtuosos. Craft 500 maple planks and become a Maple Maestro.","points":2,"type":"crafting","target":"maple_plank","total":500,"rewards":{"gold":2000}},{"name":"Catch and Cook","code":"catch_and_cook","description":"From river to table: craft 500 cooked salmons and show your skill as both angler and chef.","points":2,"type":"crafting","target":"cooked_salmon","total":500,"rewards":{"gold":2000}},{"name":"Sweet as Pie","code":"sweet_as_pie","description":"Apple pies are the delight of every feast. Craft 250 apple pies and spread sweetness everywhere.","points":2,"type":"crafting","target":"apple_pie","total":250,"rewards":{"gold":2000}},{"name":"Strange Miner","code":"strange_miner","description":"Some ores defy explanation. Gather 3 000 strange ores and uncover their mysteries.","points":2,"type":"gathering","target":"strange_ore","total":3000,"rewards":{"gold":2000}},{"name":"Magic Lumberjack","code":"magic_lumberjack","description":"Magic wood pulses with energy. Gather 6 000 magic woods and touch the arcane.","points":2,"type":"gathering","target":"magic_wood","total":6000,"rewards":{"gold":2000}},{"name":"Alchemist","code":"alchemist","description":"Minor health potions save lives. Craft 250 minor health potions and show your mastery of the arts.","points":2,"type":"crafting","target":"minor_health_potion","total":250,"rewards":{"gold":2000}},{"name":"Cursed Wood, Blessed Victory","code":"cursed_wood_blessed_victory","description":"Cursed wood is dangerous to handle, but it brings victory to the brave. Craft 50 Cursed Planks.","points":2,"type":"crafting","target":"cursed_plank","total":50,"rewards":{"gold":2000}},{"name":"Recall Forever","code":"recall_forever","description":"Home is never far with magic on your side. Use 500 recall potions and journey without fear.","points":2,"type":"use","target":"recall_potion","total":500,"rewards":{"gold":2000}},{"name":"The French Cheese","code":"the_french_cheese","description":"A good meal starts with cheese. Use 1 000 cheeses and savor the taste of France.","points":2,"type":"use","target":"cheese","total":1000,"rewards":{"gold":2000}}],"total":88,"page":1,"size":50,"pages":2}