{"data":[{"name":"Boost HP","code":"boost_hp","description":"Add {value} HP at the start of the fight and for the rest of the fight.","type":"combat","subtype":"buff"},{"name":"Boost Damage Fire","code":"boost_dmg_fire","description":"Add {value}% fire damage at the start of the fight and for the rest of the fight.","type":"combat","subtype":"buff"},{"name":"Boost Damage Water","code":"boost_dmg_water","description":"Add {value}% water damage at the start of the fight and for the rest of the fight.","type":"combat","subtype":"buff"},{"name":"Boost Damage Air","code":"boost_dmg_air","description":"Add {value}% air damage at the start of the fight and for the rest of the fight.","type":"combat","subtype":"buff"},{"name":"Boost Damage Earth","code":"boost_dmg_earth","description":"Add {value}% earth damage at the start of the fight and for the rest of the fight.","type":"combat","subtype":"buff"},{"name":"Restore","code":"restore","description":"Restores {value} HP at the start of the turn if the player has lost more than 50% of their health points.","type":"combat","subtype":"heal"},{"name":"healing","code":"healing","description":"Every 3 played turns, restores {value}% of HP at the start of the turn.\n","type":"combat","subtype":"special"},{"name":"Antipoison","code":"antipoison","description":"At the beginning of the turn, if the character has at least one poison on him, removes {value} poison damage.","type":"combat","subtype":"other"},{"name":"Poison","code":"poison","description":"At the start of its first turn, applies a {value} poison to its opponent. Loses {value} HP per turn.","type":"combat","subtype":"special"},{"name":"Lifesteal","code":"lifesteal","description":"Restores {value}% of the total attack of all elements in HP after a critical strike.","type":"combat","subtype":"special"},{"name":"Reconstitution","code":"reconstitution","description":"Every {value} played turns, regains all HP.","type":"combat","subtype":"special"},{"name":"Burn","code":"burn","description":"On his first turn, apply a burn effect of {value}% of your attack of all elements. The damage is applied each turn and decreases by 10% each time.","type":"combat","subtype":"special"},{"name":"Boost Resistance Air","code":"boost_res_air","description":"Gives {value}% air resistance at the start of fight.","type":"combat","subtype":"buff"},{"name":"Boost Resistance Water","code":"boost_res_water","description":"Gives {value}% water resistance at the start of fight.","type":"combat","subtype":"buff"},{"name":"Boost Resistance Earth","code":"boost_res_earth","description":"Gives {value}% earth resistance at the start of fight.","type":"combat","subtype":"buff"},{"name":"Boost Resistance Fire","code":"boost_res_fire","description":"Gives {value}% fire resistance at the start of fight.","type":"combat","subtype":"buff"},{"name":"Corrupted","code":"corrupted","description":"After every time the bearer of this effect is attacked, their resistance to the attack's element is reduced by {value}%, and can go negative.","type":"combat","subtype":"special"},{"name":"Guard","code":"guard","description":"If one or more allies have less than 50% of their HP, protects the ally with the lowest HP percentage, redirecting {value} % of their damage to this character until the start of my next turn. Activates a maximum of 3 times per combat.","type":"combat","subtype":"special"},{"name":"Shell","code":"shell","description":"When they drop below 40% of their HP, they gain {value} % resistance to all elements for 3 turns. Activates once per combat. This effect is only active during boss fights.","type":"combat","subtype":"special"},{"name":"Frenzy","code":"frenzy","description":"Each time they land a critical hit, they give {value}% damage to themselves and their allies until the end of their next turn.","type":"combat","subtype":"special"},{"name":"Void Drain","code":"void_drain","description":"Every 4 turns, Drains {value}% HP from each enemy to heal themselves.","type":"combat","subtype":"special"},{"name":"Berserker Rage","code":"berserker_rage","description":"When they drop below 25% HP, they gain {value} % damage permanently. Applies once per combat.","type":"combat","subtype":"special"},{"name":"Vampiric Strike","code":"vampiric_strike","description":"After landing a critical hit, they heal the ally with the lowest HP for {value}% of the damage dealt. Can only trigger once every 3 turns. This effect does not heal the caster.","type":"combat","subtype":"buff"},{"name":"Healing Aura","code":"healing_aura","description":"Every 2 played turns, they heal all allies for {value}% of their maximum HP. This effect does not heal the caster.","type":"combat","subtype":"special"},{"name":"Barrier","code":"barrier","description":"At the start of the fight and every 5 played turns, gain a protective barrier of {value} HP. All attacks are redirected to this barrier until it is destroyed.","type":"combat","subtype":"special"},{"name":"Splash Restore","code":"splash_restore","description":"Restores {value} HP at the start of the turn to another character who has lost the most health if that character has less than 50% of their health points remaining.","type":"combat","subtype":"heal"},{"name":"Heal","code":"heal","description":"Heal {value} HP when the item is used.","type":"consumable","subtype":"heal"},{"name":"Gold","code":"gold","description":"Adds {value} gold in your inventory.","type":"consumable","subtype":"gold"},{"name":"Teleport","code":"teleport","description":"Teleports to map ID {value} when the item is used.","type":"consumable","subtype":"teleport"},{"name":"Fire Attack","code":"attack_fire","description":"Adds {value} Fire Attack to its stats when equipped.","type":"equipment","subtype":"stat"},{"name":"Water Attack","code":"attack_water","description":"Adds {value} Water Attack to its stats when equipped.","type":"equipment","subtype":"stat"},{"name":"Air Attack","code":"attack_air","description":"Adds {value} Air Attack to its stats when equipped.","type":"equipment","subtype":"stat"},{"name":"Earth Attack","code":"attack_earth","description":"Adds {value} Earth Attack to its stats when equipped.","type":"equipment","subtype":"stat"},{"name":"Damage","code":"dmg","description":"Adds {value}% Damage to its stats when equipped.","type":"equipment","subtype":"stat"},{"name":"Fire Damage","code":"dmg_fire","description":"Adds {value}% Fire Damage to its stats when equipped.","type":"equipment","subtype":"stat"},{"name":"Water Damage","code":"dmg_water","description":"Adds {value}% Water Damage to its stats when equipped.","type":"equipment","subtype":"stat"},{"name":"Air Damage","code":"dmg_air","description":"Adds {value}% Air Damage to its stats when equipped.","type":"equipment","subtype":"stat"},{"name":"Earth Damage","code":"dmg_earth","description":"Adds {value}% Earth Damage to its stats when equipped.","type":"equipment","subtype":"stat"},{"name":"Fire Resistance","code":"res_fire","description":"Adds {value}% Fire Res to its stats when equipped.","type":"equipment","subtype":"stat"},{"name":"Water Resistance","code":"res_water","description":"Adds {value}% Water Res to its stats when equipped.","type":"equipment","subtype":"stat"},{"name":"Air Resistance","code":"res_air","description":"Adds {value}% Air Res to its stats when equipped.","type":"equipment","subtype":"stat"},{"name":"Earth Resistance","code":"res_earth","description":"Adds {value}% Earth Res to its stats when equipped.","type":"equipment","subtype":"stat"},{"name":"Critical Strike","code":"critical_strike","description":"Adds {value}% Critical Strike to its stats when equipped. Critical strikes adds 50% extra damage to an attack (1.5x). ","type":"equipment","subtype":"stat"},{"name":"Wisdom","code":"wisdom","description":"Adds {value} Wisdom to its stats when equipped. Each point of wisdom increases your xp in combat and with skills. (1% extra per 10 wisdom)","type":"equipment","subtype":"stat"},{"name":"Prospecting","code":"prospecting","description":"Adds {value} Prospecting to its stats when equipped. Each PP increases your chance of obtaining drops in combat and with skills. (1% extra per 10 PP)","type":"equipment","subtype":"stat"},{"name":"Woodcutting","code":"woodcutting","description":"Reduces cooldown by {value}% when a character logs a tree.","type":"equipment","subtype":"gathering"},{"name":"Fishing","code":"fishing","description":"Reduces cooldown by {value}% when a character is fishing.","type":"equipment","subtype":"gathering"},{"name":"Mining","code":"mining","description":"Reduces cooldown by {value}% when a character mines a resource.","type":"equipment","subtype":"gathering"},{"name":"Alchemy","code":"alchemy","description":"Reduces cooldown by {value}% when a character harvest a plant.","type":"equipment","subtype":"gathering"},{"name":"Hit points","code":"hp","description":"Adds {value} HP to its stats when equipped.","type":"equipment","subtype":"stat"}],"total":54,"page":1,"size":50,"pages":2}