{"data":[{"name":"Inventory Space","code":"inventory_space","description":"Adds {value} to the maximum number of items in the inventory when equipped.","type":"equipment","subtype":"stat"},{"name":"Haste","code":"haste","description":"Adds {value} Haste to its stats when equipped. The haste reduces the cooldown of a fight. ","type":"equipment","subtype":"stat"},{"name":"Initiative","code":"initiative","description":"Adds {value} Initiative to its stats when equipped.","type":"equipment","subtype":"stat"},{"name":"Threat","code":"threat","description":"Adds {value} Threat to its stats when equipped.","type":"equipment","subtype":"stat"}],"total":54,"page":2,"size":50,"pages":2}