{"data":[{"name":"Dead Wood","code":"dead_wood","level":30,"type":"resource","subtype":"woodcutting","description":"","effects":[],"craft":null,"tradeable":true},{"name":"Gold Ore","code":"gold_ore","level":30,"type":"resource","subtype":"mining","description":"","effects":[],"craft":null,"tradeable":true},{"name":"Gold Mask","code":"gold_mask","level":30,"type":"helmet","subtype":"","description":"","effects":[{"code":"hp","value":160},{"code":"dmg_earth","value":20},{"code":"dmg_air","value":20},{"code":"wisdom","value":20}],"craft":{"skill":"gearcrafting","level":30,"items":[{"code":"gold","quantity":8},{"code":"red_cloth","quantity":2},{"code":"owlbear_claw","quantity":4},{"code":"demon_horn","quantity":2},{"code":"skeleton_skull","quantity":4}],"quantity":1},"tradeable":true},{"name":"Dead Wood Plank","code":"dead_wood_plank","level":30,"type":"resource","subtype":"plank","description":"","effects":[],"craft":{"skill":"woodcutting","level":30,"items":[{"code":"dead_wood","quantity":10}],"quantity":1},"tradeable":true},{"name":"Topaz Ring","code":"topaz_ring","level":30,"type":"ring","subtype":"","description":"","effects":[{"code":"dmg_earth","value":7},{"code":"dmg","value":17},{"code":"critical_strike","value":3}],"craft":{"skill":"jewelrycrafting","level":30,"items":[{"code":"gold","quantity":8},{"code":"obsidian","quantity":4},{"code":"topaz","quantity":1},{"code":"vampire_blood","quantity":5},{"code":"magical_cure","quantity":2}],"quantity":1},"tradeable":true},{"name":"Gold Ring","code":"gold_ring","level":30,"type":"ring","subtype":"","description":"","effects":[{"code":"dmg","value":8},{"code":"prospecting","value":30}],"craft":{"skill":"jewelrycrafting","level":30,"items":[{"code":"gold","quantity":8},{"code":"dead_wood_plank","quantity":3},{"code":"wolf_bone","quantity":3},{"code":"vampire_blood","quantity":3},{"code":"skeleton_bone","quantity":3}],"quantity":1},"tradeable":true},{"name":"Gold Fishing Rod","code":"gold_fishing_rod","level":30,"type":"weapon","subtype":"tool","description":"Reduces cooldown by 20% when a character is fishing.","effects":[{"code":"attack_water","value":5},{"code":"fishing","value":-20}],"craft":{"skill":"weaponcrafting","level":30,"items":[{"code":"dead_wood_plank","quantity":2},{"code":"gold","quantity":7},{"code":"sapphire","quantity":1},{"code":"magical_cure","quantity":2},{"code":"owlbear_claw","quantity":3}],"quantity":1},"tradeable":true},{"name":"Demon Horn","code":"demon_horn","level":30,"type":"resource","subtype":"mob","description":"","effects":[],"craft":null,"tradeable":true},{"name":"Gold Axe","code":"gold_axe","level":30,"type":"weapon","subtype":"tool","description":"Reduces cooldown by 20% when a character logs a tree.","effects":[{"code":"attack_earth","value":5},{"code":"woodcutting","value":-20}],"craft":{"skill":"weaponcrafting","level":30,"items":[{"code":"dead_wood_plank","quantity":2},{"code":"gold","quantity":7},{"code":"ruby","quantity":1},{"code":"magical_cure","quantity":2},{"code":"red_cloth","quantity":3}],"quantity":1},"tradeable":true},{"name":"Gold Helm","code":"gold_helm","level":30,"type":"helmet","subtype":"","description":"","effects":[{"code":"hp","value":160},{"code":"dmg_water","value":20},{"code":"dmg_earth","value":20},{"code":"wisdom","value":20}],"craft":{"skill":"gearcrafting","level":30,"items":[{"code":"gold","quantity":8},{"code":"demon_horn","quantity":2},{"code":"demoniac_dust","quantity":3},{"code":"vampire_tooth","quantity":3},{"code":"owlbear_hair","quantity":4}],"quantity":1},"tradeable":true},{"name":"Sapphire Ring","code":"sapphire_ring","level":30,"type":"ring","subtype":"","description":"","effects":[{"code":"dmg_water","value":7},{"code":"dmg","value":17},{"code":"critical_strike","value":3}],"craft":{"skill":"jewelrycrafting","level":30,"items":[{"code":"gold","quantity":8},{"code":"obsidian","quantity":4},{"code":"sapphire","quantity":1},{"code":"vampire_blood","quantity":5},{"code":"magical_cure","quantity":2}],"quantity":1},"tradeable":true},{"name":"Emerald Ring","code":"emerald_ring","level":30,"type":"ring","subtype":"","description":"","effects":[{"code":"dmg_air","value":7},{"code":"dmg","value":17},{"code":"critical_strike","value":3}],"craft":{"skill":"jewelrycrafting","level":30,"items":[{"code":"gold","quantity":8},{"code":"obsidian","quantity":4},{"code":"emerald","quantity":1},{"code":"vampire_blood","quantity":5},{"code":"magical_cure","quantity":2}],"quantity":1},"tradeable":true},{"name":"Gold Pickaxe","code":"gold_pickaxe","level":30,"type":"weapon","subtype":"tool","description":"Reduces cooldown by 20% when a character mines a resource.","effects":[{"code":"attack_earth","value":5},{"code":"mining","value":-20}],"craft":{"skill":"weaponcrafting","level":30,"items":[{"code":"dead_wood_plank","quantity":2},{"code":"gold","quantity":7},{"code":"topaz","quantity":1},{"code":"magical_cure","quantity":2},{"code":"demon_horn","quantity":2}],"quantity":1},"tradeable":true},{"name":"Lizard Boots","code":"lizard_boots","level":30,"type":"boots","subtype":"","description":"","effects":[{"code":"hp","value":110},{"code":"dmg_water","value":5},{"code":"dmg_earth","value":5},{"code":"res_air","value":8},{"code":"res_fire","value":8},{"code":"haste","value":7}],"craft":{"skill":"gearcrafting","level":30,"items":[{"code":"dead_wood_plank","quantity":8},{"code":"lizard_skin","quantity":4},{"code":"demoniac_dust","quantity":4},{"code":"owlbear_claw","quantity":3},{"code":"magical_cure","quantity":1}],"quantity":1},"tradeable":true},{"name":"Gold Boots","code":"gold_boots","level":30,"type":"boots","subtype":"","description":"","effects":[{"code":"hp","value":110},{"code":"dmg_fire","value":5},{"code":"dmg_air","value":5},{"code":"res_earth","value":8},{"code":"res_air","value":8},{"code":"haste","value":7}],"craft":{"skill":"gearcrafting","level":30,"items":[{"code":"gold","quantity":8},{"code":"vampire_blood","quantity":4},{"code":"lizard_eye","quantity":3},{"code":"owlbear_hair","quantity":4},{"code":"magical_cure","quantity":1}],"quantity":1},"tradeable":true},{"name":"Greater Dreadful Amulet","code":"greater_dreadful_amulet","level":30,"type":"amulet","subtype":"","description":"","effects":[{"code":"hp","value":90},{"code":"dmg_earth","value":15},{"code":"dmg_water","value":15}],"craft":{"skill":"jewelrycrafting","level":30,"items":[{"code":"gold","quantity":8},{"code":"dreadful_amulet","quantity":1},{"code":"cyclops_eye","quantity":4},{"code":"ogre_eye","quantity":4},{"code":"red_cloth","quantity":3}],"quantity":1},"tradeable":true},{"name":"Piece of Obsidian","code":"piece_of_obsidian","level":30,"type":"resource","subtype":"mob","description":"","effects":[],"craft":null,"tradeable":true},{"name":"Obsidian","code":"obsidian","level":30,"type":"resource","subtype":"bar","description":"","effects":[],"craft":{"skill":"mining","level":30,"items":[{"code":"piece_of_obsidian","quantity":4}],"quantity":1},"tradeable":true},{"name":"Sap","code":"sap","level":30,"type":"resource","subtype":"sap","description":"","effects":[],"craft":{"skill":"woodcutting","level":30,"items":[{"code":"ash_wood","quantity":5},{"code":"spruce_wood","quantity":5},{"code":"dead_wood","quantity":5}],"quantity":1},"tradeable":true},{"name":"Obsidian Legs Armor","code":"obsidian_legs_armor","level":30,"type":"leg_armor","subtype":"","description":"","effects":[{"code":"hp","value":170},{"code":"haste","value":3},{"code":"dmg_water","value":18},{"code":"dmg_earth","value":18},{"code":"critical_strike","value":3},{"code":"inventory_space","value":-25}],"craft":{"skill":"gearcrafting","level":30,"items":[{"code":"obsidian","quantity":6},{"code":"sapphire","quantity":1},{"code":"owlbear_claw","quantity":3},{"code":"lizard_eye","quantity":5},{"code":"red_cloth","quantity":5}],"quantity":1},"tradeable":true},{"name":"Obsidian Helmet","code":"obsidian_helmet","level":30,"type":"helmet","subtype":"","description":"","effects":[{"code":"hp","value":170},{"code":"dmg_fire","value":22},{"code":"dmg_water","value":22},{"code":"prospecting","value":30},{"code":"critical_strike","value":3},{"code":"inventory_space","value":-25}],"craft":{"skill":"gearcrafting","level":30,"items":[{"code":"obsidian","quantity":6},{"code":"emerald","quantity":1},{"code":"owlbear_hair","quantity":3},{"code":"lizard_skin","quantity":5},{"code":"vampire_tooth","quantity":5}],"quantity":1},"tradeable":true},{"name":"Obsidian Armor","code":"obsidian_armor","level":30,"type":"body_armor","subtype":"","description":"","effects":[{"code":"hp","value":180},{"code":"dmg_earth","value":22},{"code":"dmg_air","value":22},{"code":"res_fire","value":5},{"code":"res_water","value":5},{"code":"inventory_space","value":-25}],"craft":{"skill":"gearcrafting","level":30,"items":[{"code":"obsidian","quantity":6},{"code":"ruby","quantity":1},{"code":"spider_leg","quantity":5},{"code":"demon_horn","quantity":4},{"code":"demoniac_dust","quantity":4}],"quantity":1},"tradeable":true},{"name":"Health Potion","code":"health_potion","level":30,"type":"utility","subtype":"potion","description":"Restores 60HP at the start of the turn if the player has lost more than 50% of his health points.","effects":[{"code":"restore","value":60}],"craft":{"skill":"alchemy","level":30,"items":[{"code":"nettle_leaf","quantity":2},{"code":"sunflower","quantity":1},{"code":"sap","quantity":1}],"quantity":1},"tradeable":true},{"name":"Golden Gloves","code":"golden_gloves","level":30,"type":"weapon","subtype":"tool","description":"Reduces cooldown by 20% when a character harvest a plant.","effects":[{"code":"attack_earth","value":5},{"code":"alchemy","value":-20}],"craft":{"skill":"weaponcrafting","level":30,"items":[{"code":"dead_wood_plank","quantity":7},{"code":"obsidian","quantity":2},{"code":"emerald","quantity":1},{"code":"magical_cure","quantity":2},{"code":"demoniac_dust","quantity":3}],"quantity":1},"tradeable":true},{"name":"Lost Amulet","code":"lost_amulet","level":30,"type":"amulet","subtype":"","description":"","effects":[{"code":"hp","value":90},{"code":"dmg_fire","value":15},{"code":"dmg_air","value":15}],"craft":{"skill":"jewelrycrafting","level":30,"items":[{"code":"gold","quantity":8},{"code":"obsidian","quantity":4},{"code":"cyclops_eye","quantity":4},{"code":"demoniac_dust","quantity":3},{"code":"red_cloth","quantity":3}],"quantity":1},"tradeable":true},{"name":"Royal Skeleton Pants","code":"royal_skeleton_pants","level":30,"type":"leg_armor","subtype":"","description":"","effects":[{"code":"hp","value":150},{"code":"haste","value":5},{"code":"dmg_fire","value":17},{"code":"dmg_air","value":17},{"code":"res_earth","value":7},{"code":"res_water","value":7}],"craft":{"skill":"gearcrafting","level":30,"items":[{"code":"gold","quantity":8},{"code":"skeleton_pants","quantity":1},{"code":"owlbear_hair","quantity":3},{"code":"vampire_blood","quantity":3}],"quantity":1},"tradeable":true},{"name":"Royal Skeleton Armor","code":"royal_skeleton_armor","level":30,"type":"body_armor","subtype":"","description":"","effects":[{"code":"hp","value":150},{"code":"dmg_fire","value":20},{"code":"dmg_air","value":20},{"code":"res_air","value":6},{"code":"res_fire","value":6}],"craft":{"skill":"gearcrafting","level":30,"items":[{"code":"gold","quantity":8},{"code":"skeleton_armor","quantity":1},{"code":"red_cloth","quantity":3},{"code":"demoniac_dust","quantity":3}],"quantity":1},"tradeable":true},{"name":"Royal Skeleton Helmet","code":"royal_skeleton_helmet","level":30,"type":"helmet","subtype":"","description":"","effects":[{"code":"hp","value":160},{"code":"dmg_fire","value":20},{"code":"dmg_air","value":20},{"code":"wisdom","value":20}],"craft":{"skill":"gearcrafting","level":30,"items":[{"code":"gold","quantity":8},{"code":"skeleton_helmet","quantity":1},{"code":"owlbear_claw","quantity":4},{"code":"cyclops_eye","quantity":4}],"quantity":1},"tradeable":true},{"name":"Elderwood Staff","code":"elderwood_staff","level":30,"type":"weapon","subtype":"","description":"","effects":[{"code":"attack_water","value":40},{"code":"attack_fire","value":40},{"code":"critical_strike","value":5}],"craft":{"skill":"weaponcrafting","level":30,"items":[{"code":"dead_wood_plank","quantity":5},{"code":"lizard_skin","quantity":4},{"code":"cyclops_eye","quantity":5},{"code":"red_cloth","quantity":3},{"code":"skeleton_skull","quantity":3}],"quantity":1},"tradeable":true},{"name":"Obsidian Battleaxe","code":"obsidian_battleaxe","level":30,"type":"weapon","subtype":"","description":"","effects":[{"code":"attack_earth","value":80},{"code":"inventory_space","value":-25},{"code":"critical_strike","value":5}],"craft":{"skill":"weaponcrafting","level":30,"items":[{"code":"obsidian","quantity":7},{"code":"dead_wood_plank","quantity":4},{"code":"lizard_skin","quantity":3},{"code":"cyclops_eye","quantity":3},{"code":"demoniac_dust","quantity":3}],"quantity":1},"tradeable":true},{"name":"Antidote","code":"antidote","level":30,"type":"utility","subtype":"potion","description":"At the beginning of the turn, if the character has at least one poison on him, removes 50 poison damage.","effects":[{"code":"antipoison","value":50}],"craft":{"skill":"alchemy","level":30,"items":[{"code":"strangold","quantity":2},{"code":"maple_sap","quantity":1},{"code":"glowstem_leaf","quantity":1}],"quantity":1},"tradeable":true},{"name":"Prospecting Amulet","code":"prospecting_amulet","level":30,"type":"amulet","subtype":"","description":"","effects":[{"code":"hp","value":100},{"code":"prospecting","value":100},{"code":"dmg","value":5}],"craft":{"skill":"jewelrycrafting","level":30,"items":[{"code":"dead_wood_plank","quantity":4},{"code":"spider_leg","quantity":3},{"code":"ogre_skin","quantity":6},{"code":"owlbear_hair","quantity":4},{"code":"magical_cure","quantity":1}],"quantity":1},"tradeable":true},{"name":"Enchanted Bow","code":"enchanted_bow","level":30,"type":"weapon","subtype":"","description":"","effects":[{"code":"attack_fire","value":53},{"code":"attack_water","value":15},{"code":"critical_strike","value":35}],"craft":{"skill":"weaponcrafting","level":30,"items":[{"code":"gold","quantity":8},{"code":"spider_leg","quantity":3},{"code":"demon_horn","quantity":2},{"code":"ogre_eye","quantity":4},{"code":"red_cloth","quantity":3}],"quantity":1},"tradeable":true},{"name":"Royal Skeleton Ring","code":"royal_skeleton_ring","level":30,"type":"ring","subtype":"","description":"","effects":[{"code":"wisdom","value":50},{"code":"dmg","value":8}],"craft":{"skill":"jewelrycrafting","level":30,"items":[{"code":"gold","quantity":8},{"code":"owlbear_claw","quantity":3},{"code":"vampire_tooth","quantity":3},{"code":"spider_leg","quantity":2},{"code":"ogre_skin","quantity":4}],"quantity":1},"tradeable":true},{"name":"Owlbear Claw","code":"owlbear_claw","level":30,"type":"resource","subtype":"mob","description":"","effects":[],"craft":null,"tradeable":true},{"name":"Flying Boots","code":"flying_boots","level":30,"type":"boots","subtype":"","description":"","effects":[{"code":"hp","value":80},{"code":"dmg","value":4},{"code":"critical_strike","value":5},{"code":"haste","value":7}],"craft":{"skill":"gearcrafting","level":30,"items":[{"code":"dead_wood_plank","quantity":8},{"code":"lizard_eye","quantity":4},{"code":"demoniac_dust","quantity":4},{"code":"owlbear_hair","quantity":3},{"code":"magical_cure","quantity":1}],"quantity":1},"tradeable":true},{"name":"Conjurer Skirt","code":"conjurer_skirt","level":30,"type":"leg_armor","subtype":"","description":"","effects":[{"code":"hp","value":180},{"code":"haste","value":5},{"code":"dmg","value":15},{"code":"critical_strike","value":5},{"code":"wisdom","value":50}],"craft":{"skill":"gearcrafting","level":30,"items":[{"code":"obsidian","quantity":6},{"code":"vampire_tooth","quantity":4},{"code":"owlbear_claw","quantity":3},{"code":"lizard_eye","quantity":4},{"code":"red_cloth","quantity":3}],"quantity":1},"tradeable":true},{"name":"Conjurer Cloak","code":"conjurer_cloak","level":30,"type":"body_armor","subtype":"","description":"","effects":[{"code":"hp","value":150},{"code":"dmg","value":18},{"code":"critical_strike","value":5},{"code":"wisdom","value":50}],"craft":{"skill":"gearcrafting","level":30,"items":[{"code":"obsidian","quantity":6},{"code":"cyclops_eye","quantity":5},{"code":"owlbear_hair","quantity":4},{"code":"demon_horn","quantity":4},{"code":"enchanted_fabric","quantity":1}],"quantity":1},"tradeable":true},{"name":"Golden Chalice","code":"golden_chalice","level":30,"type":"artifact","subtype":"","description":"","effects":[{"code":"prospecting","value":100}],"craft":null,"tradeable":true},{"name":"Cursed Book","code":"cursed_book","level":33,"type":"resource","subtype":"mob","description":"","effects":[],"craft":null,"tradeable":true},{"name":"Magic Stone","code":"magic_stone","level":33,"type":"resource","subtype":"mob","description":"","effects":[],"craft":null,"tradeable":true},{"name":"Malefic Cloth","code":"malefic_cloth","level":35,"type":"resource","subtype":"mob","description":"","effects":[],"craft":null,"tradeable":true},{"name":"Strange Ore","code":"strange_ore","level":35,"type":"resource","subtype":"mining","description":"","effects":[],"craft":null,"tradeable":true},{"name":"Diamond","code":"diamond","level":35,"type":"resource","subtype":"precious_stone","description":"","effects":[],"craft":{"skill":"mining","level":35,"items":[{"code":"diamond_stone","quantity":10}],"quantity":1},"tradeable":true},{"name":"Magic Wood","code":"magic_wood","level":35,"type":"resource","subtype":"woodcutting","description":"","effects":[],"craft":null,"tradeable":true},{"name":"Strangold","code":"strangold","level":35,"type":"resource","subtype":"alloy","description":"","effects":[],"craft":{"skill":"mining","level":35,"items":[{"code":"gold_ore","quantity":4},{"code":"strange_ore","quantity":6}],"quantity":1},"tradeable":true},{"name":"Magical Plank","code":"magical_plank","level":35,"type":"resource","subtype":"plank","description":"","effects":[],"craft":{"skill":"woodcutting","level":35,"items":[{"code":"dead_wood","quantity":4},{"code":"magic_wood","quantity":6}],"quantity":1},"tradeable":true},{"name":"Cursed Hat","code":"cursed_hat","level":35,"type":"helmet","subtype":"","description":"","effects":[{"code":"hp","value":170},{"code":"dmg_fire","value":35}],"craft":{"skill":"gearcrafting","level":35,"items":[{"code":"cursed_plank","quantity":8},{"code":"malefic_cloth","quantity":2},{"code":"cursed_book","quantity":4},{"code":"owlbear_hair","quantity":4},{"code":"diamond","quantity":1},{"code":"enchanted_fabric","quantity":1}],"quantity":1},"tradeable":true},{"name":"Strangold Helmet","code":"strangold_helmet","level":35,"type":"helmet","subtype":"","description":"","effects":[{"code":"hp","value":170},{"code":"dmg_air","value":22},{"code":"dmg_water","value":22}],"craft":{"skill":"gearcrafting","level":35,"items":[{"code":"strangold","quantity":7},{"code":"demoniac_dust","quantity":4},{"code":"magic_stone","quantity":3},{"code":"lizard_skin","quantity":4},{"code":"diamond","quantity":1},{"code":"magical_cure","quantity":1}],"quantity":1},"tradeable":true},{"name":"Strangold Legs Armor","code":"strangold_legs_armor","level":35,"type":"leg_armor","subtype":"","description":"","effects":[{"code":"hp","value":150},{"code":"haste","value":5},{"code":"dmg_air","value":18},{"code":"dmg_water","value":20},{"code":"res_water","value":7},{"code":"res_air","value":7}],"craft":{"skill":"gearcrafting","level":35,"items":[{"code":"strangold","quantity":8},{"code":"magical_cure","quantity":2},{"code":"cursed_book","quantity":3},{"code":"ogre_eye","quantity":4},{"code":"red_cloth","quantity":3}],"quantity":1},"tradeable":true}],"total":353,"page":5,"size":50,"pages":8}