{"data":[{"name":"Cowhide","code":"cowhide","level":8,"type":"resource","subtype":"mob","description":"Tanned hide from a cow, used in many basic crafting recipes. Sturdy and versatile.","conditions":[],"effects":[],"craft":null,"tradeable":true},{"name":"Hard Leather","code":"hard_leather","level":8,"type":"resource","subtype":"npc","description":"Toughened leather that has been treated to increase its durability. Excellent for crafting protective gear.","conditions":[],"effects":[],"craft":null,"tradeable":true},{"name":"Fire & Earth Amulet","code":"fire_and_earth_amulet","level":10,"type":"amulet","subtype":"","description":"An amulet forged with the power of fire and earth. Grants extra vitality and dual elemental protection.","conditions":[{"code":"level","operator":"gt","value":9}],"effects":[{"code":"hp","value":20,"description":"Adds 20 HP to its stats when equipped."},{"code":"dmg_fire","value":5,"description":"Adds 5% Fire Damage to its stats when equipped."},{"code":"dmg_earth","value":5,"description":"Adds 5% Earth Damage to its stats when equipped."}],"craft":{"skill":"jewelrycrafting","level":10,"items":[{"code":"iron_bar","quantity":4},{"code":"red_slimeball","quantity":2},{"code":"yellow_slimeball","quantity":2}],"quantity":1},"tradeable":true},{"name":"Iron Boots","code":"iron_boots","level":10,"type":"boots","subtype":"","description":"Heavy boots that protect your feet and keep you steady, even in the wettest or windiest storms.","conditions":[{"code":"level","operator":"gt","value":9}],"effects":[{"code":"hp","value":40,"description":"Adds 40 HP to its stats when equipped."},{"code":"res_water","value":5,"description":"Adds 5% Water Res to its stats when equipped."},{"code":"res_air","value":5,"description":"Adds 5% Air Res to its stats when equipped."},{"code":"haste","value":3,"description":"Adds 3 Haste to its stats when equipped. The haste reduces the cooldown of a fight. "},{"code":"threat","value":2,"description":"Adds 2 Threat to its stats when equipped."}],"craft":{"skill":"gearcrafting","level":10,"items":[{"code":"iron_bar","quantity":5},{"code":"feather","quantity":3}],"quantity":1},"tradeable":true},{"name":"Iron Sword","code":"iron_sword","level":10,"type":"weapon","subtype":"","description":"A reliable weapon for any adventurer. The weight of iron gives your strikes extra force.","conditions":[{"code":"level","operator":"gt","value":9}],"effects":[{"code":"attack_earth","value":24,"description":"Adds 24 Earth Attack to its stats when equipped."},{"code":"critical_strike","value":5,"description":"Adds 5% Critical Strike to its stats when equipped. Critical strikes adds 50% extra damage to an attack (1.5x). "}],"craft":{"skill":"weaponcrafting","level":10,"items":[{"code":"iron_bar","quantity":6},{"code":"feather","quantity":2}],"quantity":1},"tradeable":true},{"name":"Leather Boots","code":"leather_boots","level":10,"type":"boots","subtype":"","description":"Comfortable boots made from tough leather. They keep your feet warm and safe from hot or rocky ground.","conditions":[{"code":"level","operator":"gt","value":9}],"effects":[{"code":"hp","value":40,"description":"Adds 40 HP to its stats when equipped."},{"code":"res_fire","value":5,"description":"Adds 5% Fire Res to its stats when equipped."},{"code":"res_earth","value":5,"description":"Adds 5% Earth Res to its stats when equipped."},{"code":"haste","value":3,"description":"Adds 3 Haste to its stats when equipped. The haste reduces the cooldown of a fight. "},{"code":"threat","value":2,"description":"Adds 2 Threat to its stats when equipped."}],"craft":{"skill":"gearcrafting","level":10,"items":[{"code":"ash_plank","quantity":4},{"code":"cowhide","quantity":4}],"quantity":1},"tradeable":true},{"name":"Mushroom","code":"mushroom","level":10,"type":"resource","subtype":"mob","description":"A plump, earthy mushroom. Some say it glows faintly at night. Useful for cooking and potions.","conditions":[],"effects":[],"craft":null,"tradeable":true},{"name":"Cooked Shrimp","code":"cooked_shrimp","level":10,"type":"consumable","subtype":"food","description":"A deliciously cooked shrimp, full of energy and perfect for quick recovery after a tough battle.","conditions":[{"code":"level","operator":"gt","value":9}],"effects":[{"code":"heal","value":150,"description":"Heal 150 HP when the item is used."}],"craft":{"skill":"cooking","level":10,"items":[{"code":"shrimp","quantity":1}],"quantity":1},"tradeable":true},{"name":"Leather Armor","code":"leather_armor","level":10,"type":"body_armor","subtype":"","description":"Sturdy armor made from tanned leather. Offers balanced protection and enhances air and water magic.","conditions":[{"code":"level","operator":"gt","value":9}],"effects":[{"code":"hp","value":50,"description":"Adds 50 HP to its stats when equipped."},{"code":"dmg_air","value":8,"description":"Adds 8% Air Damage to its stats when equipped."},{"code":"dmg_water","value":8,"description":"Adds 8% Water Damage to its stats when equipped."},{"code":"res_fire","value":2,"description":"Adds 2% Fire Res to its stats when equipped."},{"code":"res_earth","value":2,"description":"Adds 2% Earth Res to its stats when equipped."}],"craft":{"skill":"gearcrafting","level":10,"items":[{"code":"spruce_plank","quantity":4},{"code":"cowhide","quantity":4}],"quantity":1},"tradeable":true},{"name":"Adventurer Helmet","code":"adventurer_helmet","level":10,"type":"helmet","subtype":"","description":"A reliable helmet that has protected many explorers on their journeys. Brings wisdom and strength.","conditions":[{"code":"level","operator":"gt","value":9}],"effects":[{"code":"hp","value":50,"description":"Adds 50 HP to its stats when equipped."},{"code":"dmg","value":5,"description":"Adds 5% Damage to its stats when equipped."},{"code":"wisdom","value":15,"description":"Adds 15 Wisdom to its stats when equipped. Each point of wisdom increases your xp in combat and with skills. (1% extra per 10 wisdom)"}],"craft":{"skill":"gearcrafting","level":10,"items":[{"code":"feather","quantity":4},{"code":"cowhide","quantity":3},{"code":"spruce_plank","quantity":3},{"code":"mushroom","quantity":4}],"quantity":1},"tradeable":true},{"name":"Air & Water Amulet","code":"air_and_water_amulet","level":10,"type":"amulet","subtype":"","description":"An elegant amulet that channels both air and water energies. Perfect for those who value versatility.","conditions":[{"code":"level","operator":"gt","value":9}],"effects":[{"code":"hp","value":20,"description":"Adds 20 HP to its stats when equipped."},{"code":"dmg_water","value":5,"description":"Adds 5% Water Damage to its stats when equipped."},{"code":"dmg_air","value":5,"description":"Adds 5% Air Damage to its stats when equipped."}],"craft":{"skill":"jewelrycrafting","level":10,"items":[{"code":"iron_bar","quantity":4},{"code":"green_slimeball","quantity":2},{"code":"blue_slimeball","quantity":2}],"quantity":1},"tradeable":true},{"name":"Greater Wooden Staff","code":"greater_wooden_staff","level":10,"type":"weapon","subtype":"","description":"An enhanced staff that channels powerful water magic. The wood seems to flow like water itself.","conditions":[{"code":"level","operator":"gt","value":9}],"effects":[{"code":"attack_water","value":24,"description":"Adds 24 Water Attack to its stats when equipped."},{"code":"critical_strike","value":5,"description":"Adds 5% Critical Strike to its stats when equipped. Critical strikes adds 50% extra damage to an attack (1.5x). "}],"craft":{"skill":"weaponcrafting","level":10,"items":[{"code":"spruce_plank","quantity":6},{"code":"blue_slimeball","quantity":2}],"quantity":1},"tradeable":true},{"name":"Iron Armor","code":"iron_armor","level":10,"type":"body_armor","subtype":"","description":"Sturdy armor forged from iron plates. Enhances your earth and fire powers while protecting from air and water.","conditions":[{"code":"level","operator":"gt","value":9}],"effects":[{"code":"hp","value":50,"description":"Adds 50 HP to its stats when equipped."},{"code":"dmg_earth","value":8,"description":"Adds 8% Earth Damage to its stats when equipped."},{"code":"dmg_fire","value":8,"description":"Adds 8% Fire Damage to its stats when equipped."},{"code":"res_water","value":2,"description":"Adds 2% Water Res to its stats when equipped."},{"code":"res_air","value":2,"description":"Adds 2% Air Res to its stats when equipped."}],"craft":{"skill":"gearcrafting","level":10,"items":[{"code":"iron_bar","quantity":5},{"code":"cowhide","quantity":3}],"quantity":1},"tradeable":true},{"name":"Iron Legs Armor","code":"iron_legs_armor","level":10,"type":"leg_armor","subtype":"","description":"Iron protection for your legs. Heavy but reliable, with a boost to fiery and earthen attacks.","conditions":[{"code":"level","operator":"gt","value":9}],"effects":[{"code":"hp","value":50,"description":"Adds 50 HP to its stats when equipped."},{"code":"haste","value":1,"description":"Adds 1 Haste to its stats when equipped. The haste reduces the cooldown of a fight. "},{"code":"dmg_fire","value":5,"description":"Adds 5% Fire Damage to its stats when equipped."},{"code":"dmg_earth","value":5,"description":"Adds 5% Earth Damage to its stats when equipped."}],"craft":{"skill":"gearcrafting","level":10,"items":[{"code":"iron_bar","quantity":5},{"code":"cowhide","quantity":3}],"quantity":1},"tradeable":true},{"name":"Adventurer Vest","code":"adventurer_vest","level":10,"type":"body_armor","subtype":"","description":"A rugged vest worn by seasoned explorers. Many pockets for treasures and a charm for wisdom.","conditions":[{"code":"level","operator":"gt","value":9}],"effects":[{"code":"hp","value":60,"description":"Adds 60 HP to its stats when equipped."},{"code":"dmg","value":6,"description":"Adds 6% Damage to its stats when equipped."},{"code":"wisdom","value":20,"description":"Adds 20 Wisdom to its stats when equipped. Each point of wisdom increases your xp in combat and with skills. (1% extra per 10 wisdom)"}],"craft":{"skill":"gearcrafting","level":10,"items":[{"code":"wool","quantity":2},{"code":"cowhide","quantity":6},{"code":"spruce_plank","quantity":4},{"code":"yellow_slimeball","quantity":4}],"quantity":1},"tradeable":true},{"name":"Iron Helm","code":"iron_helm","level":10,"type":"helmet","subtype":"","description":"A solid iron helmet that provides excellent protection against fire and earth attacks.","conditions":[{"code":"level","operator":"gt","value":9}],"effects":[{"code":"hp","value":40,"description":"Adds 40 HP to its stats when equipped."},{"code":"dmg_fire","value":5,"description":"Adds 5% Fire Damage to its stats when equipped."},{"code":"dmg_earth","value":5,"description":"Adds 5% Earth Damage to its stats when equipped."},{"code":"res_fire","value":4,"description":"Adds 4% Fire Res to its stats when equipped."},{"code":"res_earth","value":4,"description":"Adds 4% Earth Res to its stats when equipped."}],"craft":{"skill":"gearcrafting","level":10,"items":[{"code":"iron_bar","quantity":5},{"code":"wool","quantity":3}],"quantity":1},"tradeable":true},{"name":"Iron Ore","code":"iron_ore","level":10,"type":"resource","subtype":"mining","description":"A chunk of raw iron ore. Can be smelted into iron bars for crafting many useful items.","conditions":[],"effects":[],"craft":null,"tradeable":true},{"name":"Leather Hat","code":"leather_hat","level":10,"type":"helmet","subtype":"","description":"A comfortable leather hat that offers protection while enhancing your affinity with air and water.","conditions":[{"code":"level","operator":"gt","value":9}],"effects":[{"code":"hp","value":40,"description":"Adds 40 HP to its stats when equipped."},{"code":"dmg_air","value":5,"description":"Adds 5% Air Damage to its stats when equipped."},{"code":"dmg_water","value":5,"description":"Adds 5% Water Damage to its stats when equipped."},{"code":"res_water","value":4,"description":"Adds 4% Water Res to its stats when equipped."},{"code":"res_air","value":4,"description":"Adds 4% Air Res to its stats when equipped."}],"craft":{"skill":"gearcrafting","level":10,"items":[{"code":"cowhide","quantity":5},{"code":"yellow_slimeball","quantity":3}],"quantity":1},"tradeable":true},{"name":"Iron Bar","code":"iron_bar","level":10,"type":"resource","subtype":"bar","description":"A solid bar of refined iron, ready for crafting into weapons, armor, and tools.","conditions":[],"effects":[],"craft":{"skill":"mining","level":10,"items":[{"code":"iron_ore","quantity":10}],"quantity":1},"tradeable":true},{"name":"Jasper Crystal","code":"jasper_crystal","level":10,"type":"resource","subtype":"task","description":"A multihued crystal that shimmers with strange energy. ","conditions":[],"effects":[],"craft":null,"tradeable":true},{"name":"Cheese","code":"cheese","level":10,"type":"consumable","subtype":"food","description":"A wheel of aged cheese. Surprisingly effective at restoring health when you need it most.","conditions":[{"code":"level","operator":"gt","value":9}],"effects":[{"code":"heal","value":180,"description":"Heal 180 HP when the item is used."}],"craft":{"skill":"cooking","level":10,"items":[{"code":"milk_bucket","quantity":1}],"quantity":1},"tradeable":true},{"name":"Spruce Wood","code":"spruce_wood","level":10,"type":"resource","subtype":"woodcutting","description":"Strong, resinous wood from spruce trees. Popular for building and intermediate crafting.","conditions":[],"effects":[],"craft":null,"tradeable":true},{"name":"Iron Ring","code":"iron_ring","level":10,"type":"ring","subtype":"","description":"A simple ring forged from iron. Enhances your damage output in combat.","conditions":[{"code":"level","operator":"gt","value":9}],"effects":[{"code":"dmg","value":4,"description":"Adds 4% Damage to its stats when equipped."}],"craft":{"skill":"jewelrycrafting","level":10,"items":[{"code":"iron_bar","quantity":6},{"code":"wool","quantity":2}],"quantity":1},"tradeable":true},{"name":"Iron Dagger","code":"iron_dagger","level":10,"type":"weapon","subtype":"","description":"A sharp iron dagger, balanced for quick attacks and precise strikes. Perfect for targeting weak points.","conditions":[{"code":"level","operator":"gt","value":9}],"effects":[{"code":"attack_air","value":17,"description":"Adds 17 Air Attack to its stats when equipped."},{"code":"critical_strike","value":35,"description":"Adds 35% Critical Strike to its stats when equipped. Critical strikes adds 50% extra damage to an attack (1.5x). "}],"craft":{"skill":"weaponcrafting","level":10,"items":[{"code":"iron_bar","quantity":6},{"code":"feather","quantity":2}],"quantity":1},"tradeable":true},{"name":"Spruce Plank","code":"spruce_plank","level":10,"type":"resource","subtype":"plank","description":"A sturdy plank made from spruce wood. Good for mid-level crafting and construction.","conditions":[],"effects":[],"craft":{"skill":"woodcutting","level":10,"items":[{"code":"spruce_wood","quantity":10}],"quantity":1},"tradeable":true},{"name":"Shrimp","code":"shrimp","level":10,"type":"resource","subtype":"fishing","description":"A small but tasty shrimp. Can be cooked for a quick health boost.","conditions":[],"effects":[],"craft":null,"tradeable":true},{"name":"Magical Cure","code":"magical_cure","level":10,"type":"resource","subtype":"task","description":"A mysterious substance that can cure magical ailments and enhance crafting recipes.","conditions":[],"effects":[],"craft":null,"tradeable":true},{"name":"Fire Bow","code":"fire_bow","level":10,"type":"weapon","subtype":"","description":"A bow that seems to smolder with heat. Its arrows leave trails of fire in the air.","conditions":[{"code":"level","operator":"gt","value":9}],"effects":[{"code":"attack_fire","value":17,"description":"Adds 17 Fire Attack to its stats when equipped."},{"code":"critical_strike","value":35,"description":"Adds 35% Critical Strike to its stats when equipped. Critical strikes adds 50% extra damage to an attack (1.5x). "}],"craft":{"skill":"weaponcrafting","level":10,"items":[{"code":"spruce_plank","quantity":6},{"code":"red_slimeball","quantity":2}],"quantity":1},"tradeable":true},{"name":"Iron Pickaxe","code":"iron_pickaxe","level":10,"type":"weapon","subtype":"tool","description":"A sturdy pickaxe made of iron. Makes mining more efficient and can double as a weapon.","conditions":[{"code":"mining_level","operator":"gt","value":9}],"effects":[{"code":"attack_earth","value":5,"description":"Adds 5 Earth Attack to its stats when equipped."},{"code":"mining","value":-20,"description":"Reduces cooldown by -20% when a character mines a resource."}],"craft":{"skill":"weaponcrafting","level":10,"items":[{"code":"spruce_plank","quantity":2},{"code":"iron_bar","quantity":8},{"code":"jasper_crystal","quantity":1}],"quantity":1},"tradeable":true},{"name":"Iron Axe","code":"iron_axe","level":10,"type":"weapon","subtype":"tool","description":"A sturdy axe made from iron. Makes woodcutting more efficient and can serve as a weapon in a pinch.","conditions":[{"code":"woodcutting_level","operator":"gt","value":9}],"effects":[{"code":"attack_earth","value":5,"description":"Adds 5 Earth Attack to its stats when equipped."},{"code":"woodcutting","value":-20,"description":"Reduces cooldown by -20% when a character logs a tree."}],"craft":{"skill":"weaponcrafting","level":10,"items":[{"code":"spruce_plank","quantity":2},{"code":"iron_bar","quantity":8},{"code":"jasper_crystal","quantity":1}],"quantity":1},"tradeable":true},{"name":"Spruce Fishing Rod","code":"spruce_fishing_rod","level":10,"type":"weapon","subtype":"tool","description":"A well-crafted fishing rod made from spruce wood. Makes fishing more efficient.","conditions":[{"code":"fishing_level","operator":"gt","value":9}],"effects":[{"code":"attack_water","value":5,"description":"Adds 5 Water Attack to its stats when equipped."},{"code":"fishing","value":-20,"description":"Reduces cooldown by -20% when a character is fishing."}],"craft":{"skill":"weaponcrafting","level":10,"items":[{"code":"spruce_plank","quantity":8},{"code":"iron_bar","quantity":2},{"code":"jasper_crystal","quantity":1}],"quantity":1},"tradeable":true},{"name":"Backpack","code":"backpack","level":10,"type":"bag","subtype":"","description":"A sturdy backpack with plenty of pockets. Expands your carrying capacity for long journeys.","conditions":[{"code":"level","operator":"gt","value":9}],"effects":[{"code":"inventory_space","value":35,"description":"Adds 35 to the maximum number of items in the inventory when equipped."}],"craft":null,"tradeable":true},{"name":"Earth Boost Potion","code":"earth_boost_potion","level":10,"type":"utility","subtype":"potion","description":"A potion that surges with earthen energy. Grants bonus earth damage at the start of a fight.","conditions":[{"code":"level","operator":"gt","value":9}],"effects":[{"code":"boost_dmg_earth","value":12,"description":"Add 12% earth damage at the start of the fight and for the rest of the fight."}],"craft":{"skill":"alchemy","level":10,"items":[{"code":"yellow_slimeball","quantity":1},{"code":"sunflower","quantity":1},{"code":"algae","quantity":1}],"quantity":1},"tradeable":true},{"name":"Air Boost Potion","code":"air_boost_potion","level":10,"type":"utility","subtype":"potion","description":"A bubbling potion that tingles on your tongue. Increases air damage when battle begins.","conditions":[{"code":"level","operator":"gt","value":9}],"effects":[{"code":"boost_dmg_air","value":12,"description":"Add 12% air damage at the start of the fight and for the rest of the fight."}],"craft":{"skill":"alchemy","level":10,"items":[{"code":"green_slimeball","quantity":1},{"code":"sunflower","quantity":1},{"code":"algae","quantity":1}],"quantity":1},"tradeable":true},{"name":"Fire Boost Potion","code":"fire_boost_potion","level":10,"type":"utility","subtype":"potion","description":"Fiery red and warm to the touch. Drink to ignite your attacks with extra fire damage.","conditions":[{"code":"level","operator":"gt","value":9}],"effects":[{"code":"boost_dmg_fire","value":12,"description":"Add 12% fire damage at the start of the fight and for the rest of the fight."}],"craft":{"skill":"alchemy","level":10,"items":[{"code":"red_slimeball","quantity":1},{"code":"sunflower","quantity":1},{"code":"algae","quantity":1}],"quantity":1},"tradeable":true},{"name":"Water Boost Potion","code":"water_boost_potion","level":10,"type":"utility","subtype":"potion","description":"A cool, refreshing brew that grants a surge of water damage at the start of battle.","conditions":[{"code":"level","operator":"gt","value":9}],"effects":[{"code":"boost_dmg_water","value":12,"description":"Add 12% water damage at the start of the fight and for the rest of the fight."}],"craft":{"skill":"alchemy","level":10,"items":[{"code":"blue_slimeball","quantity":1},{"code":"sunflower","quantity":1},{"code":"algae","quantity":1}],"quantity":1},"tradeable":true},{"name":"Leather Gloves","code":"leather_gloves","level":10,"type":"weapon","subtype":"tool","description":"Tough gloves that protect your hands while harvesting plants. Also handy for brawls.","conditions":[{"code":"alchemy_level","operator":"gt","value":9}],"effects":[{"code":"attack_air","value":5,"description":"Adds 5 Air Attack to its stats when equipped."},{"code":"alchemy","value":-20,"description":"Reduces cooldown by -20% when a character harvest a plant."}],"craft":{"skill":"weaponcrafting","level":10,"items":[{"code":"ash_plank","quantity":2},{"code":"cowhide","quantity":8},{"code":"jasper_crystal","quantity":1}],"quantity":1},"tradeable":true},{"name":"Astralyte Crystal","code":"astralyte_crystal","level":10,"type":"resource","subtype":"task","description":"A crystal that seems to contain a tiny universe within. Stars twinkle in its depths when held to the light.","conditions":[],"effects":[],"craft":null,"tradeable":true},{"name":"Enchanted Fabric","code":"enchanted_fabric","level":10,"type":"resource","subtype":"task","description":"A silky material that seems to shift colors as it moves. Whispers can be heard when it rustles.","conditions":[],"effects":[],"craft":null,"tradeable":true},{"name":"Forest Ring","code":"forest_ring","level":10,"type":"ring","subtype":"","description":"A wooden ring carved with images of trees and wildlife. It resonates with natural energy.","conditions":[{"code":"level","operator":"gt","value":9}],"effects":[{"code":"hp","value":20,"description":"Adds 20 HP to its stats when equipped."},{"code":"dmg","value":3,"description":"Adds 3% Damage to its stats when equipped."},{"code":"wisdom","value":15,"description":"Adds 15 Wisdom to its stats when equipped. Each point of wisdom increases your xp in combat and with skills. (1% extra per 10 wisdom)"}],"craft":null,"tradeable":true},{"name":"Leather Legs Armor","code":"leather_legs_armor","level":10,"type":"leg_armor","subtype":"","description":"Sturdy leg protection made from tanned leather. Flexible enough for quick movement while still offering defense.","conditions":[{"code":"level","operator":"gt","value":9}],"effects":[{"code":"hp","value":50,"description":"Adds 50 HP to its stats when equipped."},{"code":"haste","value":1,"description":"Adds 1 Haste to its stats when equipped. The haste reduces the cooldown of a fight. "},{"code":"dmg_air","value":5,"description":"Adds 5% Air Damage to its stats when equipped."},{"code":"dmg_water","value":5,"description":"Adds 5% Water Damage to its stats when equipped."}],"craft":{"skill":"gearcrafting","level":10,"items":[{"code":"spruce_plank","quantity":5},{"code":"cowhide","quantity":3}],"quantity":1},"tradeable":true},{"name":"Recall Potion","code":"recall_potion","level":10,"type":"consumable","subtype":"potion","description":"A swirling blue potion that instantly transports you back to the world's spawn point when consumed.","conditions":[],"effects":[{"code":"teleport","value":271,"description":"Teleports to map ID 271 when the item is used."}],"craft":null,"tradeable":true},{"name":"Forest Bank Potion","code":"forest_bank_potion","level":10,"type":"consumable","subtype":"potion","description":"A shimmering green potion that instantly transports you to the forest bank when consumed.","conditions":[],"effects":[{"code":"teleport","value":955,"description":"Teleports to map ID 955 when the item is used."}],"craft":null,"tradeable":true},{"name":"Golden Shrimp","code":"golden_shrimp","level":10,"type":"resource","subtype":"fishing","description":"An extremely rare shrimp with a metallic golden shell. Prized by collectors and chefs alike.","conditions":[],"effects":[],"craft":null,"tradeable":true},{"name":"Iron Shield","code":"iron_shield","level":10,"type":"shield","subtype":"","description":"A sturdy shield of hammered iron with a reinforced rim. Though basic in design, it offers balanced protection against all elemental threats.","conditions":[{"code":"level","operator":"gt","value":9}],"effects":[{"code":"res_fire","value":4,"description":"Adds 4% Fire Res to its stats when equipped."},{"code":"res_earth","value":4,"description":"Adds 4% Earth Res to its stats when equipped."},{"code":"res_water","value":4,"description":"Adds 4% Water Res to its stats when equipped."},{"code":"res_air","value":4,"description":"Adds 4% Air Res to its stats when equipped."}],"craft":{"skill":"gearcrafting","level":10,"items":[{"code":"iron_bar","quantity":5},{"code":"wool","quantity":3}],"quantity":1},"tradeable":true},{"name":"Flying Wing","code":"flying_wing","level":12,"type":"resource","subtype":"mob","description":"A delicate wing from a flying creature. Imbued with air magic and useful in crafting.","conditions":[],"effects":[],"craft":null,"tradeable":true},{"name":"Snake Hide","code":"snake_hide","level":12,"type":"resource","subtype":"mob","description":"Sleek, patterned hide from a snake. Used in crafting flexible armor and magical items.","conditions":[],"effects":[],"craft":null,"tradeable":true},{"name":"Snakeskin","code":"snakeskin","level":12,"type":"resource","subtype":"npc","description":"Flexible, scaly skin from a large snake. Its natural patterns make each piece unique and attractive.","conditions":[],"effects":[],"craft":null,"tradeable":true},{"name":"Air Ring","code":"air_ring","level":15,"type":"ring","subtype":"","description":"A light silver ring that crackles with a gentle breeze. Increases your affinity with the element of air.","conditions":[{"code":"level","operator":"gt","value":14}],"effects":[{"code":"dmg_air","value":8,"description":"Adds 8% Air Damage to its stats when equipped."}],"craft":{"skill":"jewelrycrafting","level":15,"items":[{"code":"iron_bar","quantity":5},{"code":"green_slimeball","quantity":4},{"code":"flying_wing","quantity":3}],"quantity":1},"tradeable":true},{"name":"King Slime Sword","code":"king_slime_sword","level":15,"type":"weapon","subtype":"","description":"A blade infused with the power of every type of slime. It's unpredictable, but devastating in skilled hands.","conditions":[{"code":"level","operator":"gt","value":14}],"effects":[{"code":"attack_air","value":9,"description":"Adds 9 Air Attack to its stats when equipped."},{"code":"attack_water","value":9,"description":"Adds 9 Water Attack to its stats when equipped."},{"code":"attack_fire","value":9,"description":"Adds 9 Fire Attack to its stats when equipped."},{"code":"attack_earth","value":9,"description":"Adds 9 Earth Attack to its stats when equipped."},{"code":"critical_strike","value":24,"description":"Adds 24% Critical Strike to its stats when equipped. Critical strikes adds 50% extra damage to an attack (1.5x). "}],"craft":{"skill":"weaponcrafting","level":15,"items":[{"code":"iron_bar","quantity":8},{"code":"king_slimeball","quantity":6},{"code":"jasper_crystal","quantity":1}],"quantity":1},"tradeable":true}],"total":468,"page":2,"size":50,"pages":10}