{"data":[{"name":"Skullforged Pants","code":"skullforged_pants","level":50,"type":"leg_armor","subtype":"","description":"Leggings reinforced with bone fragments and adorned with miniature skulls. Each step leaves faint glowing footprints of earth magic while granting exceptional speed and perception.","conditions":[{"code":"level","operator":"gt","value":49}],"effects":[{"code":"hp","value":250,"description":"Adds 250 HP to its stats when equipped."},{"code":"dmg_earth","value":30,"description":"Adds 30% Earth Damage to its stats when equipped."},{"code":"dmg","value":5,"description":"Adds 5% Damage to its stats when equipped."},{"code":"critical_strike","value":5,"description":"Adds 5% Critical Strike to its stats when equipped. Critical strikes adds 50% extra damage to an attack (1.5x). "},{"code":"res_fire","value":4,"description":"Adds 4% Fire Res to its stats when equipped."},{"code":"res_air","value":4,"description":"Adds 4% Air Res to its stats when equipped."},{"code":"prospecting","value":70,"description":"Adds 70 Prospecting to its stats when equipped. Each PP increases your chance of obtaining drops in combat and with skills. (1% extra per 10 PP)"},{"code":"threat","value":4,"description":"Adds 4 Threat to its stats when equipped."},{"code":"initiative","value":150,"description":"Adds 150 Initiative to its stats when equipped."},{"code":"haste","value":8,"description":"Adds 8 Haste to its stats when equipped. The haste reduces the cooldown of a fight. "}],"craft":{"skill":"gearcrafting","level":50,"items":[{"code":"palm_plank","quantity":10},{"code":"desert_scorpion_carapace","quantity":4},{"code":"adventurer_skull","quantity":3},{"code":"demon_horn","quantity":4},{"code":"dusk_beetle_shell","quantity":3},{"code":"astralyte_crystal","quantity":2}],"quantity":1},"tradeable":true},{"name":"Dust Helmet","code":"dust_helmet","level":50,"type":"helmet","subtype":"","description":"A menacing helm that constantly emits wisps of golden dust. The enchanted particles amplify fire magic and enhance perception, revealing treasures and dangers alike.","conditions":[{"code":"level","operator":"gt","value":49}],"effects":[{"code":"hp","value":300,"description":"Adds 300 HP to its stats when equipped."},{"code":"dmg_fire","value":25,"description":"Adds 25% Fire Damage to its stats when equipped."},{"code":"dmg","value":20,"description":"Adds 20% Damage to its stats when equipped."},{"code":"prospecting","value":50,"description":"Adds 50 Prospecting to its stats when equipped. Each PP increases your chance of obtaining drops in combat and with skills. (1% extra per 10 PP)"},{"code":"res_earth","value":7,"description":"Adds 7% Earth Res to its stats when equipped."},{"code":"res_water","value":7,"description":"Adds 7% Water Res to its stats when equipped."},{"code":"initiative","value":100,"description":"Adds 100 Initiative to its stats when equipped."},{"code":"threat","value":7,"description":"Adds 7 Threat to its stats when equipped."}],"craft":{"skill":"gearcrafting","level":50,"items":[{"code":"palm_plank","quantity":10},{"code":"desert_scorpion_carapace","quantity":4},{"code":"adventurer_skull","quantity":3},{"code":"corrupted_stone","quantity":3},{"code":"golden_dust","quantity":4},{"code":"astralyte_crystal","quantity":2}],"quantity":1},"tradeable":true},{"name":"Dust Sword","code":"dust_sword","level":50,"type":"weapon","subtype":"","description":"A blade that leaves trails of glowing dust with each swing. The enchanted particles ignite on impact, channeling concentrated fire magic that melts through enemy defenses.","conditions":[{"code":"level","operator":"gt","value":49}],"effects":[{"code":"attack_fire","value":115,"description":"Adds 115 Fire Attack to its stats when equipped."},{"code":"critical_strike","value":5,"description":"Adds 5% Critical Strike to its stats when equipped. Critical strikes adds 50% extra damage to an attack (1.5x). "}],"craft":{"skill":"weaponcrafting","level":50,"items":[{"code":"adamantite_bar","quantity":10},{"code":"marauder_hand","quantity":4},{"code":"adventurer_skull","quantity":3},{"code":"cursed_flask","quantity":3},{"code":"golden_dust","quantity":4},{"code":"broken_sword","quantity":2}],"quantity":1},"tradeable":true},{"name":"Moonlight Staff","code":"moonlight_staff","level":50,"type":"weapon","subtype":"","description":"A luminous staff crowned with a crescent-shaped crystal that glows with pale blue light. Water magic flows through it like a river, focusing into devastating critical strikes.","conditions":[{"code":"level","operator":"gt","value":49}],"effects":[{"code":"attack_water","value":96,"description":"Adds 96 Water Attack to its stats when equipped."},{"code":"critical_strike","value":35,"description":"Adds 35% Critical Strike to its stats when equipped. Critical strikes adds 50% extra damage to an attack (1.5x). "}],"craft":{"skill":"weaponcrafting","level":50,"items":[{"code":"palm_plank","quantity":10},{"code":"dusk_beetle_shell","quantity":5},{"code":"alexandrite","quantity":1},{"code":"marauder_hand","quantity":4},{"code":"orc_skin","quantity":4},{"code":"malefic_cloth","quantity":2}],"quantity":1},"tradeable":true},{"name":"Dust Amulet","code":"dust_amulet","level":50,"type":"amulet","subtype":"","description":"A pendant containing swirling golden dust in a crystal chamber. The magical particles enhance the wearer's vitality and combat prowess while occasionally igniting with fire magic.","conditions":[{"code":"level","operator":"gt","value":49}],"effects":[{"code":"hp","value":200,"description":"Adds 200 HP to its stats when equipped."},{"code":"dmg_fire","value":5,"description":"Adds 5% Fire Damage to its stats when equipped."},{"code":"dmg","value":30,"description":"Adds 30% Damage to its stats when equipped."},{"code":"critical_strike","value":5,"description":"Adds 5% Critical Strike to its stats when equipped. Critical strikes adds 50% extra damage to an attack (1.5x). "},{"code":"initiative","value":100,"description":"Adds 100 Initiative to its stats when equipped."}],"craft":{"skill":"jewelrycrafting","level":50,"items":[{"code":"adamantite_bar","quantity":10},{"code":"dark_essence","quantity":4},{"code":"duskworm_skin","quantity":4},{"code":"demoniac_dust","quantity":3},{"code":"golden_dust","quantity":4},{"code":"alexandrite","quantity":1}],"quantity":1},"tradeable":true},{"name":"Codex Page","code":"codex_page","level":50,"type":"resource","subtype":"mob","description":"A weathered parchment torn from an ancient tome. Mysterious symbols shift and change when viewed directly, containing forgotten knowledge of the desert's secrets.","conditions":[],"effects":[],"craft":null,"tradeable":true},{"name":"Desert Scorpion Carapace","code":"desert_scorpion_carapace","level":50,"type":"resource","subtype":"mob","description":"The hardened exoskeleton of a massive desert scorpion. Its natural resistance to extreme temperatures makes it ideal for crafting protective desert gear.","conditions":[],"effects":[],"craft":null,"tradeable":true},{"name":"Desert Scorpion Meat","code":"desert_scorpion_meat","level":50,"type":"resource","subtype":"mob","description":"Succulent white meat from a desert scorpion's tail. Though potentially toxic when raw, proper cooking transforms it into a delicacy with restorative properties.","conditions":[],"effects":[],"craft":null,"tradeable":true},{"name":"Cooked Desert Scorpion Meat","code":"cooked_desert_scorpion_meat","level":50,"type":"consumable","subtype":"food","description":"Perfectly grilled scorpion meat with a savory, spicy flavor. The natural compounds in the meat provide exceptional healing and temporary heat resistance.","conditions":[{"code":"level","operator":"gt","value":49}],"effects":[{"code":"heal","value":800,"description":"Heal 800 HP when the item is used."}],"craft":{"skill":"cooking","level":50,"items":[{"code":"desert_scorpion_meat","quantity":1}],"quantity":1},"tradeable":true},{"name":"Sandwhisper Codex","code":"sandwhisper_codex","level":50,"type":"artifact","subtype":"","description":"An ancient tome bound in scorpion leather with pages that whisper secrets when turned. The knowledge contained within grants enhanced vitality and combat prowess to its bearer.","conditions":[{"code":"level","operator":"gt","value":49}],"effects":[{"code":"hp","value":200,"description":"Adds 200 HP to its stats when equipped."},{"code":"dmg","value":20,"description":"Adds 20% Damage to its stats when equipped."}],"craft":null,"tradeable":true},{"name":"Adamantite Axe","code":"adamantite_axe","level":50,"type":"weapon","subtype":"tool","description":"This axe boasts a blade forged from rare adamantite, gleaming with a subtle blue sheen. Its legendary edge makes short work of even the thickest timber.","conditions":[{"code":"woodcutting_level","operator":"gt","value":49}],"effects":[{"code":"attack_earth","value":5,"description":"Adds 5 Earth Attack to its stats when equipped."},{"code":"woodcutting","value":-60,"description":"Reduces cooldown by -60% when a character logs a tree."}],"craft":{"skill":"weaponcrafting","level":50,"items":[{"code":"adamantite_bar","quantity":10},{"code":"lava_bucket","quantity":4},{"code":"adventurer_skull","quantity":3},{"code":"cursed_flask","quantity":3},{"code":"golden_dust","quantity":4},{"code":"astralyte_crystal","quantity":2}],"quantity":1},"tradeable":true},{"name":"Adamantite Pickaxe","code":"adamantite_pickaxe","level":50,"type":"weapon","subtype":"tool","description":"A pickaxe of unmatched strength, forged from pure adamantite. Its enchanted head cracks open the toughest stone veins, prized by master miners.","conditions":[{"code":"mining_level","operator":"gt","value":49}],"effects":[{"code":"attack_earth","value":5,"description":"Adds 5 Earth Attack to its stats when equipped."},{"code":"mining","value":-60,"description":"Reduces cooldown by -60% when a character mines a resource."}],"craft":{"skill":"weaponcrafting","level":50,"items":[{"code":"adamantite_bar","quantity":10},{"code":"efreet_cloth","quantity":4},{"code":"desert_scorpion_carapace","quantity":4},{"code":"dark_essence","quantity":4},{"code":"broken_sword","quantity":2},{"code":"astralyte_crystal","quantity":2}],"quantity":1},"tradeable":true},{"name":"Adamantite Fishing Rod","code":"adamantite_fishing_rod","level":50,"type":"weapon","subtype":"tool","description":"A rod crafted from adamantite alloy, both flexible and impossibly strong. With this tool, legendary aquatic creatures are within any angler's reach.","conditions":[{"code":"fishing_level","operator":"gt","value":49}],"effects":[{"code":"attack_water","value":5,"description":"Adds 5 Water Attack to its stats when equipped."},{"code":"fishing","value":-60,"description":"Reduces cooldown by -60% when a character is fishing."}],"craft":{"skill":"weaponcrafting","level":50,"items":[{"code":"adamantite_bar","quantity":5},{"code":"palm_plank","quantity":5},{"code":"lava_bucket","quantity":4},{"code":"desert_scorpion_carapace","quantity":4},{"code":"cursed_flask","quantity":3},{"code":"cursed_plank","quantity":3},{"code":"astralyte_crystal","quantity":2}],"quantity":1},"tradeable":true},{"name":"Adamantite Gloves","code":"adamantite_gloves","level":50,"type":"weapon","subtype":"tool","description":"Impeccably made gloves lined with adamantite threads. They grant superior grip and tactile sensitivity, allowing the wearer to harvest rare herbs with ease.","conditions":[{"code":"alchemy_level","operator":"gt","value":49}],"effects":[{"code":"attack_air","value":5,"description":"Adds 5 Air Attack to its stats when equipped."},{"code":"alchemy","value":-60,"description":"Reduces cooldown by -60% when a character harvest a plant."}],"craft":{"skill":"weaponcrafting","level":50,"items":[{"code":"adamantite_bar","quantity":10},{"code":"efreet_cloth","quantity":4},{"code":"desert_scorpion_carapace","quantity":4},{"code":"goblin_tooth","quantity":4},{"code":"rosenblood_elixir","quantity":1},{"code":"astralyte_crystal","quantity":3}],"quantity":1},"tradeable":true},{"name":"Voidstone Axe","code":"voidstone_axe","level":50,"type":"weapon","subtype":"tool","description":"An axe imbued with the power of the void. Its obsidian blade slices through wood and reveals hidden riches with every swing, favored by treasure hunters.","conditions":[{"code":"woodcutting_level","operator":"gt","value":49}],"effects":[{"code":"attack_earth","value":5,"description":"Adds 5 Earth Attack to its stats when equipped."},{"code":"prospecting","value":100,"description":"Adds 100 Prospecting to its stats when equipped. Each PP increases your chance of obtaining drops in combat and with skills. (1% extra per 10 PP)"},{"code":"woodcutting","value":-70,"description":"Reduces cooldown by -70% when a character logs a tree."}],"craft":null,"tradeable":true},{"name":"Voidstone Gloves","code":"voidstone_gloves","level":50,"type":"weapon","subtype":"tool","description":"Gloves woven from void-infused fiber. They let the wearer sense and harvest rare plants, boosting both gathering speed and the chance to find valuables.","conditions":[{"code":"alchemy_level","operator":"gt","value":49}],"effects":[{"code":"attack_air","value":5,"description":"Adds 5 Air Attack to its stats when equipped."},{"code":"prospecting","value":100,"description":"Adds 100 Prospecting to its stats when equipped. Each PP increases your chance of obtaining drops in combat and with skills. (1% extra per 10 PP)"},{"code":"alchemy","value":-70,"description":"Reduces cooldown by -70% when a character harvest a plant."}],"craft":null,"tradeable":true},{"name":"Voidstone Fishing Rod","code":"voidstone_fishing_rod","level":50,"type":"weapon","subtype":"tool","description":"This fishing rod pulses with void energy, its line shimmering in the light. It attracts rare and magical fish from even the deepest waters and increases the chance of valuable finds.","conditions":[{"code":"fishing_level","operator":"gt","value":49}],"effects":[{"code":"attack_water","value":5,"description":"Adds 5 Water Attack to its stats when equipped."},{"code":"prospecting","value":100,"description":"Adds 100 Prospecting to its stats when equipped. Each PP increases your chance of obtaining drops in combat and with skills. (1% extra per 10 PP)"},{"code":"fishing","value":-70,"description":"Reduces cooldown by -70% when a character is fishing."}],"craft":null,"tradeable":true},{"name":"Voidstone Pickaxe","code":"voidstone_pickaxe","level":50,"type":"weapon","subtype":"tool","description":"A pickaxe forged from voidstone, its edge humming with otherworldly power. It carves through rock and reveals hidden veins of precious minerals.","conditions":[{"code":"mining_level","operator":"gt","value":49}],"effects":[{"code":"attack_earth","value":5,"description":"Adds 5 Earth Attack to its stats when equipped."},{"code":"prospecting","value":100,"description":"Adds 100 Prospecting to its stats when equipped. Each PP increases your chance of obtaining drops in combat and with skills. (1% extra per 10 PP)"},{"code":"mining","value":-70,"description":"Reduces cooldown by -70% when a character mines a resource."}],"craft":null,"tradeable":true}],"total":468,"page":10,"size":50,"pages":10}