{"data":[{"name":"Frozen Gloves","code":"frozen_gloves","level":40,"type":"weapon","subtype":"tool","description":"Reduces cooldown by 30% when a character harvest a plant.","effects":[{"code":"attack_air","value":5},{"code":"alchemy","value":-30}],"craft":null,"tradeable":true},{"name":"Frozen Fishing Rod","code":"frozen_fishing_rod","level":40,"type":"weapon","subtype":"tool","description":"Reduces cooldown by 30% when a character is fishing.","effects":[{"code":"attack_water","value":5},{"code":"fishing","value":-30}],"craft":null,"tradeable":true},{"name":"Frozen Axe","code":"frozen_axe","level":40,"type":"weapon","subtype":"tool","description":"Reduces cooldown by 30% when a character logs a tree.","effects":[{"code":"attack_earth","value":5},{"code":"woodcutting","value":-30}],"craft":null,"tradeable":true}],"total":353,"page":8,"size":50,"pages":8}