{"data":[{"map_id":651,"name":"Empty","skin":"interior","x":7,"y":7,"layer":"interior","access":{"type":"blocked","conditions":[]},"interactions":{"content":null,"transition":null}},{"map_id":652,"name":"Graveyard","skin":"forest_skeleton4","x":8,"y":7,"layer":"overworld","access":{"type":"standard","conditions":[]},"interactions":{"content":{"type":"monster","code":"death_knight"},"transition":null}},{"map_id":653,"name":"Empty","skin":"underground","x":8,"y":7,"layer":"underground","access":{"type":"blocked","conditions":[]},"interactions":{"content":null,"transition":null}},{"map_id":654,"name":"Empty","skin":"interior","x":8,"y":7,"layer":"interior","access":{"type":"blocked","conditions":[]},"interactions":{"content":null,"transition":null}},{"map_id":655,"name":"Graveyard","skin":"forest_skeleton5","x":9,"y":7,"layer":"overworld","access":{"type":"standard","conditions":[]},"interactions":{"content":null,"transition":{"map_id":656,"x":9,"y":7,"layer":"underground","conditions":[{"code":"lich_tomb_key","operator":"cost","value":1}]}}},{"map_id":656,"name":"Lich Tomb","skin":"lichmine_2","x":9,"y":7,"layer":"underground","access":{"type":"standard","conditions":[]},"interactions":{"content":null,"transition":{"map_id":655,"x":9,"y":7,"layer":"overworld","conditions":[]}}},{"map_id":657,"name":"Empty","skin":"interior","x":9,"y":7,"layer":"interior","access":{"type":"blocked","conditions":[]},"interactions":{"content":null,"transition":null}},{"map_id":658,"name":"Graveyard","skin":"forest_skeleton6","x":10,"y":7,"layer":"overworld","access":{"type":"standard","conditions":[]},"interactions":{"content":{"type":"monster","code":"death_knight"},"transition":null}},{"map_id":659,"name":"Empty","skin":"underground","x":10,"y":7,"layer":"underground","access":{"type":"blocked","conditions":[]},"interactions":{"content":null,"transition":null}},{"map_id":660,"name":"Empty","skin":"interior","x":10,"y":7,"layer":"interior","access":{"type":"blocked","conditions":[]},"interactions":{"content":null,"transition":null}},{"map_id":661,"name":"Forest","skin":"forest_2","x":11,"y":7,"layer":"overworld","access":{"type":"standard","conditions":[]},"interactions":{"content":null,"transition":null}},{"map_id":662,"name":"Empty","skin":"underground","x":11,"y":7,"layer":"underground","access":{"type":"blocked","conditions":[]},"interactions":{"content":null,"transition":null}},{"map_id":663,"name":"Empty","skin":"interior","x":11,"y":7,"layer":"interior","access":{"type":"blocked","conditions":[]},"interactions":{"content":null,"transition":null}},{"map_id":664,"name":"Forest","skin":"forest_1","x":-5,"y":8,"layer":"overworld","access":{"type":"standard","conditions":[]},"interactions":{"content":null,"transition":null}},{"map_id":665,"name":"Empty","skin":"underground","x":-5,"y":8,"layer":"underground","access":{"type":"blocked","conditions":[]},"interactions":{"content":null,"transition":null}},{"map_id":666,"name":"Empty","skin":"interior","x":-5,"y":8,"layer":"interior","access":{"type":"blocked","conditions":[]},"interactions":{"content":null,"transition":null}},{"map_id":667,"name":"Forest","skin":"forest_2","x":-4,"y":8,"layer":"overworld","access":{"type":"standard","conditions":[]},"interactions":{"content":null,"transition":null}},{"map_id":668,"name":"Empty","skin":"underground","x":-4,"y":8,"layer":"underground","access":{"type":"blocked","conditions":[]},"interactions":{"content":null,"transition":null}},{"map_id":669,"name":"Empty","skin":"interior","x":-4,"y":8,"layer":"interior","access":{"type":"blocked","conditions":[]},"interactions":{"content":null,"transition":null}},{"map_id":670,"name":"Forest","skin":"forest_1","x":-3,"y":8,"layer":"overworld","access":{"type":"standard","conditions":[]},"interactions":{"content":null,"transition":null}},{"map_id":671,"name":"Empty","skin":"underground","x":-3,"y":8,"layer":"underground","access":{"type":"blocked","conditions":[]},"interactions":{"content":null,"transition":null}},{"map_id":672,"name":"Empty","skin":"interior","x":-3,"y":8,"layer":"interior","access":{"type":"blocked","conditions":[]},"interactions":{"content":null,"transition":null}},{"map_id":673,"name":"Forest","skin":"forest_1","x":-2,"y":8,"layer":"overworld","access":{"type":"standard","conditions":[]},"interactions":{"content":null,"transition":null}},{"map_id":674,"name":"Empty","skin":"underground","x":-2,"y":8,"layer":"underground","access":{"type":"blocked","conditions":[]},"interactions":{"content":null,"transition":null}},{"map_id":675,"name":"Empty","skin":"interior","x":-2,"y":8,"layer":"interior","access":{"type":"blocked","conditions":[]},"interactions":{"content":null,"transition":null}},{"map_id":676,"name":"Forest","skin":"forest_2","x":-1,"y":8,"layer":"overworld","access":{"type":"standard","conditions":[]},"interactions":{"content":null,"transition":null}},{"map_id":677,"name":"Empty","skin":"underground","x":-1,"y":8,"layer":"underground","access":{"type":"blocked","conditions":[]},"interactions":{"content":null,"transition":null}},{"map_id":678,"name":"Empty","skin":"interior","x":-1,"y":8,"layer":"interior","access":{"type":"blocked","conditions":[]},"interactions":{"content":null,"transition":null}},{"map_id":679,"name":"Forest","skin":"forest_2","x":0,"y":8,"layer":"overworld","access":{"type":"standard","conditions":[]},"interactions":{"content":null,"transition":null}},{"map_id":680,"name":"Empty","skin":"underground","x":0,"y":8,"layer":"underground","access":{"type":"blocked","conditions":[]},"interactions":{"content":null,"transition":null}},{"map_id":681,"name":"Empty","skin":"interior","x":0,"y":8,"layer":"interior","access":{"type":"blocked","conditions":[]},"interactions":{"content":null,"transition":null}},{"map_id":682,"name":"Forest","skin":"forest_3","x":1,"y":8,"layer":"overworld","access":{"type":"standard","conditions":[]},"interactions":{"content":null,"transition":null}},{"map_id":683,"name":"Empty","skin":"underground","x":1,"y":8,"layer":"underground","access":{"type":"blocked","conditions":[]},"interactions":{"content":null,"transition":null}},{"map_id":684,"name":"Empty","skin":"interior","x":1,"y":8,"layer":"interior","access":{"type":"blocked","conditions":[]},"interactions":{"content":null,"transition":null}},{"map_id":685,"name":"Forest","skin":"forest_highwayman1","x":2,"y":8,"layer":"overworld","access":{"type":"standard","conditions":[]},"interactions":{"content":{"type":"monster","code":"highwayman"},"transition":null}},{"map_id":686,"name":"Empty","skin":"underground","x":2,"y":8,"layer":"underground","access":{"type":"blocked","conditions":[]},"interactions":{"content":null,"transition":null}},{"map_id":687,"name":"Empty","skin":"interior","x":2,"y":8,"layer":"interior","access":{"type":"blocked","conditions":[]},"interactions":{"content":null,"transition":null}},{"map_id":688,"name":"Forest","skin":"forest_3","x":3,"y":8,"layer":"overworld","access":{"type":"standard","conditions":[]},"interactions":{"content":null,"transition":null}},{"map_id":689,"name":"Empty","skin":"underground","x":3,"y":8,"layer":"underground","access":{"type":"blocked","conditions":[]},"interactions":{"content":null,"transition":null}},{"map_id":690,"name":"Empty","skin":"interior","x":3,"y":8,"layer":"interior","access":{"type":"blocked","conditions":[]},"interactions":{"content":null,"transition":null}},{"map_id":691,"name":"Forest","skin":"forest_2","x":4,"y":8,"layer":"overworld","access":{"type":"standard","conditions":[]},"interactions":{"content":null,"transition":null}},{"map_id":692,"name":"Empty","skin":"underground","x":4,"y":8,"layer":"underground","access":{"type":"blocked","conditions":[]},"interactions":{"content":null,"transition":null}},{"map_id":693,"name":"Empty","skin":"interior","x":4,"y":8,"layer":"interior","access":{"type":"blocked","conditions":[]},"interactions":{"content":null,"transition":null}},{"map_id":694,"name":"Forest","skin":"forest_3","x":5,"y":8,"layer":"overworld","access":{"type":"standard","conditions":[]},"interactions":{"content":null,"transition":null}},{"map_id":695,"name":"Empty","skin":"underground","x":5,"y":8,"layer":"underground","access":{"type":"blocked","conditions":[]},"interactions":{"content":null,"transition":null}},{"map_id":696,"name":"Empty","skin":"interior","x":5,"y":8,"layer":"interior","access":{"type":"blocked","conditions":[]},"interactions":{"content":null,"transition":null}},{"map_id":697,"name":"Forest","skin":"forest_1","x":6,"y":8,"layer":"overworld","access":{"type":"standard","conditions":[]},"interactions":{"content":null,"transition":null}},{"map_id":698,"name":"Empty","skin":"underground","x":6,"y":8,"layer":"underground","access":{"type":"blocked","conditions":[]},"interactions":{"content":null,"transition":null}},{"map_id":699,"name":"Empty","skin":"interior","x":6,"y":8,"layer":"interior","access":{"type":"blocked","conditions":[]},"interactions":{"content":null,"transition":null}},{"map_id":700,"name":"Forest","skin":"forest_2","x":7,"y":8,"layer":"overworld","access":{"type":"standard","conditions":[]},"interactions":{"content":null,"transition":null}}],"total":1428,"page":14,"size":50,"pages":29}