{"data":[{"map_id":451,"name":"Forest","skin":"forest_1","x":9,"y":3,"layer":"overworld","access":{"type":"standard","conditions":[]},"interactions":{"content":null,"transition":null}},{"map_id":452,"name":"Empty","skin":"underground","x":9,"y":3,"layer":"underground","access":{"type":"blocked","conditions":[]},"interactions":{"content":null,"transition":null}},{"map_id":453,"name":"Empty","skin":"interior","x":9,"y":3,"layer":"interior","access":{"type":"blocked","conditions":[]},"interactions":{"content":null,"transition":null}},{"map_id":454,"name":"Forest","skin":"forest_3","x":10,"y":3,"layer":"overworld","access":{"type":"standard","conditions":[]},"interactions":{"content":null,"transition":null}},{"map_id":455,"name":"Empty","skin":"underground","x":10,"y":3,"layer":"underground","access":{"type":"blocked","conditions":[]},"interactions":{"content":null,"transition":null}},{"map_id":456,"name":"Empty","skin":"interior","x":10,"y":3,"layer":"interior","access":{"type":"blocked","conditions":[]},"interactions":{"content":null,"transition":null}},{"map_id":457,"name":"Forest","skin":"forest_1","x":11,"y":3,"layer":"overworld","access":{"type":"standard","conditions":[]},"interactions":{"content":null,"transition":null}},{"map_id":458,"name":"Empty","skin":"underground","x":11,"y":3,"layer":"underground","access":{"type":"blocked","conditions":[]},"interactions":{"content":null,"transition":null}},{"map_id":459,"name":"Empty","skin":"interior","x":11,"y":3,"layer":"interior","access":{"type":"blocked","conditions":[]},"interactions":{"content":null,"transition":null}},{"map_id":460,"name":"Forest","skin":"forest_3","x":-5,"y":4,"layer":"overworld","access":{"type":"standard","conditions":[]},"interactions":{"content":null,"transition":null}},{"map_id":461,"name":"Empty","skin":"underground","x":-5,"y":4,"layer":"underground","access":{"type":"blocked","conditions":[]},"interactions":{"content":null,"transition":null}},{"map_id":462,"name":"Empty","skin":"interior","x":-5,"y":4,"layer":"interior","access":{"type":"blocked","conditions":[]},"interactions":{"content":null,"transition":null}},{"map_id":463,"name":"Forest","skin":"forest_2","x":-4,"y":4,"layer":"overworld","access":{"type":"standard","conditions":[]},"interactions":{"content":null,"transition":null}},{"map_id":464,"name":"Empty","skin":"underground","x":-4,"y":4,"layer":"underground","access":{"type":"blocked","conditions":[]},"interactions":{"content":null,"transition":null}},{"map_id":465,"name":"Empty","skin":"interior","x":-4,"y":4,"layer":"interior","access":{"type":"blocked","conditions":[]},"interactions":{"content":null,"transition":null}},{"map_id":466,"name":"Mountain","skin":"mountain_1","x":-3,"y":4,"layer":"overworld","access":{"type":"blocked","conditions":[]},"interactions":{"content":null,"transition":null}},{"map_id":467,"name":"Underground","skin":"mine_4","x":-3,"y":4,"layer":"underground","access":{"type":"standard","conditions":[]},"interactions":{"content":{"type":"resource","code":"mithril_rocks"},"transition":null}},{"map_id":468,"name":"Empty","skin":"interior","x":-3,"y":4,"layer":"interior","access":{"type":"blocked","conditions":[]},"interactions":{"content":null,"transition":null}},{"map_id":469,"name":"Mountain","skin":"mountain_2","x":-2,"y":4,"layer":"overworld","access":{"type":"blocked","conditions":[]},"interactions":{"content":null,"transition":null}},{"map_id":470,"name":"Underground","skin":"mine_3","x":-2,"y":4,"layer":"underground","access":{"type":"standard","conditions":[]},"interactions":{"content":{"type":"monster","code":"bat"},"transition":null}},{"map_id":471,"name":"Empty","skin":"interior","x":-2,"y":4,"layer":"interior","access":{"type":"blocked","conditions":[]},"interactions":{"content":null,"transition":null}},{"map_id":472,"name":"Forest","skin":"forest_1","x":-1,"y":4,"layer":"overworld","access":{"type":"standard","conditions":[]},"interactions":{"content":null,"transition":null}},{"map_id":473,"name":"Empty","skin":"underground","x":-1,"y":4,"layer":"underground","access":{"type":"blocked","conditions":[]},"interactions":{"content":null,"transition":null}},{"map_id":474,"name":"Empty","skin":"interior","x":-1,"y":4,"layer":"interior","access":{"type":"blocked","conditions":[]},"interactions":{"content":null,"transition":null}},{"map_id":475,"name":"Forest","skin":"forest_3","x":0,"y":4,"layer":"overworld","access":{"type":"standard","conditions":[]},"interactions":{"content":null,"transition":null}},{"map_id":476,"name":"Empty","skin":"underground","x":0,"y":4,"layer":"underground","access":{"type":"blocked","conditions":[]},"interactions":{"content":null,"transition":null}},{"map_id":477,"name":"Empty","skin":"interior","x":0,"y":4,"layer":"interior","access":{"type":"blocked","conditions":[]},"interactions":{"content":null,"transition":null}},{"map_id":478,"name":"Forest","skin":"forest_3","x":1,"y":4,"layer":"overworld","access":{"type":"standard","conditions":[]},"interactions":{"content":null,"transition":null}},{"map_id":479,"name":"Empty","skin":"underground","x":1,"y":4,"layer":"underground","access":{"type":"blocked","conditions":[]},"interactions":{"content":null,"transition":null}},{"map_id":480,"name":"Empty","skin":"interior","x":1,"y":4,"layer":"interior","access":{"type":"blocked","conditions":[]},"interactions":{"content":null,"transition":null}},{"map_id":481,"name":"Forest","skin":"forest_village5","x":2,"y":4,"layer":"overworld","access":{"type":"standard","conditions":[]},"interactions":{"content":null,"transition":null}},{"map_id":482,"name":"Empty","skin":"underground","x":2,"y":4,"layer":"underground","access":{"type":"blocked","conditions":[]},"interactions":{"content":null,"transition":null}},{"map_id":483,"name":"Empty","skin":"interior","x":2,"y":4,"layer":"interior","access":{"type":"blocked","conditions":[]},"interactions":{"content":null,"transition":null}},{"map_id":484,"name":"Forest","skin":"forest_1","x":3,"y":4,"layer":"overworld","access":{"type":"standard","conditions":[]},"interactions":{"content":null,"transition":null}},{"map_id":485,"name":"Empty","skin":"underground","x":3,"y":4,"layer":"underground","access":{"type":"blocked","conditions":[]},"interactions":{"content":null,"transition":null}},{"map_id":486,"name":"Empty","skin":"interior","x":3,"y":4,"layer":"interior","access":{"type":"blocked","conditions":[]},"interactions":{"content":null,"transition":null}},{"map_id":487,"name":"Forest","skin":"forest_2","x":4,"y":4,"layer":"overworld","access":{"type":"standard","conditions":[]},"interactions":{"content":null,"transition":null}},{"map_id":488,"name":"Empty","skin":"underground","x":4,"y":4,"layer":"underground","access":{"type":"blocked","conditions":[]},"interactions":{"content":null,"transition":null}},{"map_id":489,"name":"Empty","skin":"interior","x":4,"y":4,"layer":"interior","access":{"type":"blocked","conditions":[]},"interactions":{"content":null,"transition":null}},{"map_id":490,"name":"Forest","skin":"forest_flyingserpent1","x":5,"y":4,"layer":"overworld","access":{"type":"standard","conditions":[]},"interactions":{"content":{"type":"monster","code":"flying_snake"},"transition":null}},{"map_id":491,"name":"Empty","skin":"underground","x":5,"y":4,"layer":"underground","access":{"type":"blocked","conditions":[]},"interactions":{"content":null,"transition":null}},{"map_id":492,"name":"Empty","skin":"interior","x":5,"y":4,"layer":"interior","access":{"type":"blocked","conditions":[]},"interactions":{"content":null,"transition":null}},{"map_id":493,"name":"Forest","skin":"forest_mushmush2","x":6,"y":4,"layer":"overworld","access":{"type":"standard","conditions":[]},"interactions":{"content":{"type":"monster","code":"mushmush"},"transition":null}},{"map_id":494,"name":"Empty","skin":"underground","x":6,"y":4,"layer":"underground","access":{"type":"blocked","conditions":[]},"interactions":{"content":null,"transition":null}},{"map_id":495,"name":"Empty","skin":"interior","x":6,"y":4,"layer":"interior","access":{"type":"blocked","conditions":[]},"interactions":{"content":null,"transition":null}},{"map_id":496,"name":"Forest","skin":"forest_flyingserpent2","x":7,"y":4,"layer":"overworld","access":{"type":"standard","conditions":[]},"interactions":{"content":{"type":"monster","code":"flying_snake"},"transition":null}},{"map_id":497,"name":"Empty","skin":"underground","x":7,"y":4,"layer":"underground","access":{"type":"blocked","conditions":[]},"interactions":{"content":null,"transition":null}},{"map_id":498,"name":"Empty","skin":"interior","x":7,"y":4,"layer":"interior","access":{"type":"blocked","conditions":[]},"interactions":{"content":null,"transition":null}},{"map_id":499,"name":"Forest","skin":"forest_2","x":8,"y":4,"layer":"overworld","access":{"type":"standard","conditions":[]},"interactions":{"content":null,"transition":null}},{"map_id":500,"name":"Empty","skin":"underground","x":8,"y":4,"layer":"underground","access":{"type":"blocked","conditions":[]},"interactions":{"content":null,"transition":null}}],"total":1428,"page":10,"size":50,"pages":29}