{"data":[{"map_id":501,"name":"Empty","skin":"interior","x":8,"y":4,"layer":"interior","access":{"type":"blocked","conditions":[]},"interactions":{"content":null,"transition":null}},{"map_id":502,"name":"Forest","skin":"forest_2","x":9,"y":4,"layer":"overworld","access":{"type":"standard","conditions":[]},"interactions":{"content":null,"transition":null}},{"map_id":503,"name":"Empty","skin":"underground","x":9,"y":4,"layer":"underground","access":{"type":"blocked","conditions":[]},"interactions":{"content":null,"transition":null}},{"map_id":504,"name":"Empty","skin":"interior","x":9,"y":4,"layer":"interior","access":{"type":"blocked","conditions":[]},"interactions":{"content":null,"transition":null}},{"map_id":505,"name":"Forest","skin":"forest_2","x":10,"y":4,"layer":"overworld","access":{"type":"standard","conditions":[]},"interactions":{"content":null,"transition":null}},{"map_id":506,"name":"Empty","skin":"underground","x":10,"y":4,"layer":"underground","access":{"type":"blocked","conditions":[]},"interactions":{"content":null,"transition":null}},{"map_id":507,"name":"Empty","skin":"interior","x":10,"y":4,"layer":"interior","access":{"type":"blocked","conditions":[]},"interactions":{"content":null,"transition":null}},{"map_id":508,"name":"Forest","skin":"forest_2","x":11,"y":4,"layer":"overworld","access":{"type":"standard","conditions":[]},"interactions":{"content":null,"transition":null}},{"map_id":509,"name":"Empty","skin":"underground","x":11,"y":4,"layer":"underground","access":{"type":"blocked","conditions":[]},"interactions":{"content":null,"transition":null}},{"map_id":510,"name":"Empty","skin":"interior","x":11,"y":4,"layer":"interior","access":{"type":"blocked","conditions":[]},"interactions":{"content":null,"transition":null}},{"map_id":511,"name":"Forest","skin":"forest_3","x":-5,"y":5,"layer":"overworld","access":{"type":"standard","conditions":[]},"interactions":{"content":null,"transition":null}},{"map_id":512,"name":"Empty","skin":"underground","x":-5,"y":5,"layer":"underground","access":{"type":"blocked","conditions":[]},"interactions":{"content":null,"transition":null}},{"map_id":513,"name":"Empty","skin":"interior","x":-5,"y":5,"layer":"interior","access":{"type":"blocked","conditions":[]},"interactions":{"content":null,"transition":null}},{"map_id":514,"name":"Forest","skin":"forest_3","x":-4,"y":5,"layer":"overworld","access":{"type":"standard","conditions":[]},"interactions":{"content":null,"transition":null}},{"map_id":515,"name":"Empty","skin":"underground","x":-4,"y":5,"layer":"underground","access":{"type":"blocked","conditions":[]},"interactions":{"content":null,"transition":null}},{"map_id":516,"name":"Empty","skin":"interior","x":-4,"y":5,"layer":"interior","access":{"type":"blocked","conditions":[]},"interactions":{"content":null,"transition":null}},{"map_id":517,"name":"Mountain","skin":"mountain_3","x":-3,"y":5,"layer":"overworld","access":{"type":"blocked","conditions":[]},"interactions":{"content":null,"transition":null}},{"map_id":518,"name":"Underground","skin":"mine_5","x":-3,"y":5,"layer":"underground","access":{"type":"standard","conditions":[]},"interactions":{"content":{"type":"monster","code":"bat"},"transition":null}},{"map_id":519,"name":"Empty","skin":"interior","x":-3,"y":5,"layer":"interior","access":{"type":"blocked","conditions":[]},"interactions":{"content":null,"transition":null}},{"map_id":520,"name":"Mountain","skin":"mountain_4","x":-2,"y":5,"layer":"overworld","access":{"type":"blocked","conditions":[]},"interactions":{"content":null,"transition":null}},{"map_id":521,"name":"Underground","skin":"mine_2","x":-2,"y":5,"layer":"underground","access":{"type":"standard","conditions":[]},"interactions":{"content":{"type":"resource","code":"mithril_rocks"},"transition":null}},{"map_id":522,"name":"Empty","skin":"interior","x":-2,"y":5,"layer":"interior","access":{"type":"blocked","conditions":[]},"interactions":{"content":null,"transition":null}},{"map_id":523,"name":"Forest","skin":"forest_3","x":-1,"y":5,"layer":"overworld","access":{"type":"standard","conditions":[]},"interactions":{"content":null,"transition":null}},{"map_id":524,"name":"Empty","skin":"underground","x":-1,"y":5,"layer":"underground","access":{"type":"blocked","conditions":[]},"interactions":{"content":null,"transition":null}},{"map_id":525,"name":"Empty","skin":"interior","x":-1,"y":5,"layer":"interior","access":{"type":"blocked","conditions":[]},"interactions":{"content":null,"transition":null}},{"map_id":526,"name":"Forest","skin":"forest_2","x":0,"y":5,"layer":"overworld","access":{"type":"standard","conditions":[]},"interactions":{"content":null,"transition":null}},{"map_id":527,"name":"Empty","skin":"underground","x":0,"y":5,"layer":"underground","access":{"type":"blocked","conditions":[]},"interactions":{"content":null,"transition":null}},{"map_id":528,"name":"Empty","skin":"interior","x":0,"y":5,"layer":"interior","access":{"type":"blocked","conditions":[]},"interactions":{"content":null,"transition":null}},{"map_id":529,"name":"Forest (Forge)","skin":"forest_miningstation1","x":1,"y":5,"layer":"overworld","access":{"type":"standard","conditions":[]},"interactions":{"content":{"type":"workshop","code":"mining"},"transition":null}},{"map_id":530,"name":"Empty","skin":"underground","x":1,"y":5,"layer":"underground","access":{"type":"blocked","conditions":[]},"interactions":{"content":null,"transition":null}},{"map_id":531,"name":"Empty","skin":"interior","x":1,"y":5,"layer":"interior","access":{"type":"blocked","conditions":[]},"interactions":{"content":null,"transition":null}},{"map_id":532,"name":"Forest","skin":"forest_village6","x":2,"y":5,"layer":"overworld","access":{"type":"standard","conditions":[]},"interactions":{"content":null,"transition":null}},{"map_id":533,"name":"Empty","skin":"underground","x":2,"y":5,"layer":"underground","access":{"type":"blocked","conditions":[]},"interactions":{"content":null,"transition":null}},{"map_id":534,"name":"Empty","skin":"interior","x":2,"y":5,"layer":"interior","access":{"type":"blocked","conditions":[]},"interactions":{"content":null,"transition":null}},{"map_id":535,"name":"Forest","skin":"forest_birchtree2","x":3,"y":5,"layer":"overworld","access":{"type":"standard","conditions":[]},"interactions":{"content":{"type":"resource","code":"birch_tree"},"transition":null}},{"map_id":536,"name":"Empty","skin":"underground","x":3,"y":5,"layer":"underground","access":{"type":"blocked","conditions":[]},"interactions":{"content":null,"transition":null}},{"map_id":537,"name":"Empty","skin":"interior","x":3,"y":5,"layer":"interior","access":{"type":"blocked","conditions":[]},"interactions":{"content":null,"transition":null}},{"map_id":538,"name":"Forest","skin":"forest_2","x":4,"y":5,"layer":"overworld","access":{"type":"standard","conditions":[]},"interactions":{"content":null,"transition":null}},{"map_id":539,"name":"Empty","skin":"underground","x":4,"y":5,"layer":"underground","access":{"type":"blocked","conditions":[]},"interactions":{"content":null,"transition":null}},{"map_id":540,"name":"Empty","skin":"interior","x":4,"y":5,"layer":"interior","access":{"type":"blocked","conditions":[]},"interactions":{"content":null,"transition":null}},{"map_id":541,"name":"Forest","skin":"forest_3","x":5,"y":5,"layer":"overworld","access":{"type":"standard","conditions":[]},"interactions":{"content":null,"transition":null}},{"map_id":542,"name":"Empty","skin":"underground","x":5,"y":5,"layer":"underground","access":{"type":"blocked","conditions":[]},"interactions":{"content":null,"transition":null}},{"map_id":543,"name":"Empty","skin":"interior","x":5,"y":5,"layer":"interior","access":{"type":"blocked","conditions":[]},"interactions":{"content":null,"transition":null}},{"map_id":544,"name":"Forest","skin":"forest_3","x":6,"y":5,"layer":"overworld","access":{"type":"standard","conditions":[]},"interactions":{"content":null,"transition":null}},{"map_id":545,"name":"Empty","skin":"underground","x":6,"y":5,"layer":"underground","access":{"type":"blocked","conditions":[]},"interactions":{"content":null,"transition":null}},{"map_id":546,"name":"Empty","skin":"interior","x":6,"y":5,"layer":"interior","access":{"type":"blocked","conditions":[]},"interactions":{"content":null,"transition":null}},{"map_id":547,"name":"Forest","skin":"forest_3","x":7,"y":5,"layer":"overworld","access":{"type":"standard","conditions":[]},"interactions":{"content":null,"transition":null}},{"map_id":548,"name":"Empty","skin":"underground","x":7,"y":5,"layer":"underground","access":{"type":"blocked","conditions":[]},"interactions":{"content":null,"transition":null}},{"map_id":549,"name":"Empty","skin":"interior","x":7,"y":5,"layer":"interior","access":{"type":"blocked","conditions":[]},"interactions":{"content":null,"transition":null}},{"map_id":550,"name":"Forest","skin":"forest_3","x":8,"y":5,"layer":"overworld","access":{"type":"standard","conditions":[]},"interactions":{"content":null,"transition":null}}],"total":1428,"page":11,"size":50,"pages":29}