{"data":[{"map_id":301,"name":"Forest","skin":"forest_2","x":10,"y":0,"layer":"overworld","access":{"type":"standard","conditions":[]},"interactions":{"content":null,"transition":null}},{"map_id":302,"name":"Empty","skin":"underground","x":10,"y":0,"layer":"underground","access":{"type":"blocked","conditions":[]},"interactions":{"content":null,"transition":null}},{"map_id":303,"name":"Empty","skin":"interior","x":10,"y":0,"layer":"interior","access":{"type":"blocked","conditions":[]},"interactions":{"content":null,"transition":null}},{"map_id":304,"name":"Forest","skin":"forest_2","x":11,"y":0,"layer":"overworld","access":{"type":"standard","conditions":[]},"interactions":{"content":null,"transition":null}},{"map_id":305,"name":"Empty","skin":"underground","x":11,"y":0,"layer":"underground","access":{"type":"blocked","conditions":[]},"interactions":{"content":null,"transition":null}},{"map_id":306,"name":"Empty","skin":"interior","x":11,"y":0,"layer":"interior","access":{"type":"blocked","conditions":[]},"interactions":{"content":null,"transition":null}},{"map_id":307,"name":"Forest","skin":"forest_3","x":-5,"y":1,"layer":"overworld","access":{"type":"standard","conditions":[]},"interactions":{"content":null,"transition":null}},{"map_id":308,"name":"Empty","skin":"underground","x":-5,"y":1,"layer":"underground","access":{"type":"blocked","conditions":[]},"interactions":{"content":null,"transition":null}},{"map_id":309,"name":"Empty","skin":"interior","x":-5,"y":1,"layer":"interior","access":{"type":"blocked","conditions":[]},"interactions":{"content":null,"transition":null}},{"map_id":310,"name":"Forest","skin":"forest_3","x":-4,"y":1,"layer":"overworld","access":{"type":"standard","conditions":[]},"interactions":{"content":null,"transition":null}},{"map_id":311,"name":"Empty","skin":"underground","x":-4,"y":1,"layer":"underground","access":{"type":"blocked","conditions":[]},"interactions":{"content":null,"transition":null}},{"map_id":312,"name":"Empty","skin":"interior","x":-4,"y":1,"layer":"interior","access":{"type":"blocked","conditions":[]},"interactions":{"content":null,"transition":null}},{"map_id":313,"name":"Forest","skin":"forest_3","x":-3,"y":1,"layer":"overworld","access":{"type":"standard","conditions":[]},"interactions":{"content":null,"transition":null}},{"map_id":314,"name":"Empty","skin":"underground","x":-3,"y":1,"layer":"underground","access":{"type":"blocked","conditions":[]},"interactions":{"content":null,"transition":null}},{"map_id":315,"name":"Empty","skin":"interior","x":-3,"y":1,"layer":"interior","access":{"type":"blocked","conditions":[]},"interactions":{"content":null,"transition":null}},{"map_id":316,"name":"Forest","skin":"forest_wolf1","x":-2,"y":1,"layer":"overworld","access":{"type":"standard","conditions":[]},"interactions":{"content":{"type":"monster","code":"wolf"},"transition":null}},{"map_id":317,"name":"Empty","skin":"underground","x":-2,"y":1,"layer":"underground","access":{"type":"blocked","conditions":[]},"interactions":{"content":null,"transition":null}},{"map_id":318,"name":"Empty","skin":"interior","x":-2,"y":1,"layer":"interior","access":{"type":"blocked","conditions":[]},"interactions":{"content":null,"transition":null}},{"map_id":319,"name":"Forest","skin":"forest_1","x":-1,"y":1,"layer":"overworld","access":{"type":"standard","conditions":[]},"interactions":{"content":null,"transition":null}},{"map_id":320,"name":"Empty","skin":"underground","x":-1,"y":1,"layer":"underground","access":{"type":"blocked","conditions":[]},"interactions":{"content":null,"transition":null}},{"map_id":321,"name":"Empty","skin":"interior","x":-1,"y":1,"layer":"interior","access":{"type":"blocked","conditions":[]},"interactions":{"content":null,"transition":null}},{"map_id":322,"name":"City","skin":"forest_chicken1","x":0,"y":1,"layer":"overworld","access":{"type":"standard","conditions":[]},"interactions":{"content":{"type":"monster","code":"chicken"},"transition":null}},{"map_id":323,"name":"Empty","skin":"underground","x":0,"y":1,"layer":"underground","access":{"type":"blocked","conditions":[]},"interactions":{"content":null,"transition":null}},{"map_id":324,"name":"Empty","skin":"interior","x":0,"y":1,"layer":"interior","access":{"type":"blocked","conditions":[]},"interactions":{"content":null,"transition":null}},{"map_id":325,"name":"City","skin":"forest_cs1","x":1,"y":1,"layer":"overworld","access":{"type":"standard","conditions":[]},"interactions":{"content":{"type":"workshop","code":"cooking"},"transition":null}},{"map_id":326,"name":"Empty","skin":"underground","x":1,"y":1,"layer":"underground","access":{"type":"blocked","conditions":[]},"interactions":{"content":null,"transition":null}},{"map_id":327,"name":"Empty","skin":"interior","x":1,"y":1,"layer":"interior","access":{"type":"blocked","conditions":[]},"interactions":{"content":null,"transition":null}},{"map_id":328,"name":"City","skin":"forest_wcstation1","x":2,"y":1,"layer":"overworld","access":{"type":"standard","conditions":[]},"interactions":{"content":{"type":"workshop","code":"weaponcrafting"},"transition":null}},{"map_id":329,"name":"Empty","skin":"underground","x":2,"y":1,"layer":"underground","access":{"type":"blocked","conditions":[]},"interactions":{"content":null,"transition":null}},{"map_id":330,"name":"Empty","skin":"interior","x":2,"y":1,"layer":"interior","access":{"type":"blocked","conditions":[]},"interactions":{"content":null,"transition":null}},{"map_id":331,"name":"City","skin":"forest_gcstation1","x":3,"y":1,"layer":"overworld","access":{"type":"standard","conditions":[]},"interactions":{"content":{"type":"workshop","code":"gearcrafting"},"transition":null}},{"map_id":332,"name":"Empty","skin":"underground","x":3,"y":1,"layer":"underground","access":{"type":"blocked","conditions":[]},"interactions":{"content":null,"transition":null}},{"map_id":333,"name":"Empty","skin":"interior","x":3,"y":1,"layer":"interior","access":{"type":"blocked","conditions":[]},"interactions":{"content":null,"transition":null}},{"map_id":334,"name":"City","skin":"forest_bank1","x":4,"y":1,"layer":"overworld","access":{"type":"standard","conditions":[]},"interactions":{"content":{"type":"bank","code":"bank"},"transition":null}},{"map_id":335,"name":"Empty","skin":"underground","x":4,"y":1,"layer":"underground","access":{"type":"blocked","conditions":[]},"interactions":{"content":null,"transition":null}},{"map_id":336,"name":"Empty","skin":"interior","x":4,"y":1,"layer":"interior","access":{"type":"blocked","conditions":[]},"interactions":{"content":null,"transition":null}},{"map_id":337,"name":"City","skin":"forest_grand_exchange1","x":5,"y":1,"layer":"overworld","access":{"type":"standard","conditions":[]},"interactions":{"content":{"type":"grand_exchange","code":"grand_exchange"},"transition":null}},{"map_id":338,"name":"Empty","skin":"underground","x":5,"y":1,"layer":"underground","access":{"type":"blocked","conditions":[]},"interactions":{"content":null,"transition":null}},{"map_id":339,"name":"Empty","skin":"interior","x":5,"y":1,"layer":"interior","access":{"type":"blocked","conditions":[]},"interactions":{"content":null,"transition":null}},{"map_id":340,"name":"Forest","skin":"forest_ashtree1","x":6,"y":1,"layer":"overworld","access":{"type":"standard","conditions":[]},"interactions":{"content":{"type":"resource","code":"ash_tree"},"transition":null}},{"map_id":341,"name":"Empty","skin":"underground","x":6,"y":1,"layer":"underground","access":{"type":"blocked","conditions":[]},"interactions":{"content":null,"transition":null}},{"map_id":342,"name":"Empty","skin":"interior","x":6,"y":1,"layer":"interior","access":{"type":"blocked","conditions":[]},"interactions":{"content":null,"transition":null}},{"map_id":343,"name":"Forest","skin":"forest_2","x":7,"y":1,"layer":"overworld","access":{"type":"standard","conditions":[]},"interactions":{"content":null,"transition":null}},{"map_id":344,"name":"Empty","skin":"underground","x":7,"y":1,"layer":"underground","access":{"type":"blocked","conditions":[]},"interactions":{"content":null,"transition":null}},{"map_id":345,"name":"Empty","skin":"interior","x":7,"y":1,"layer":"interior","access":{"type":"blocked","conditions":[]},"interactions":{"content":null,"transition":null}},{"map_id":346,"name":"Forest","skin":"forest_3","x":8,"y":1,"layer":"overworld","access":{"type":"standard","conditions":[]},"interactions":{"content":null,"transition":null}},{"map_id":347,"name":"Empty","skin":"underground","x":8,"y":1,"layer":"underground","access":{"type":"blocked","conditions":[]},"interactions":{"content":null,"transition":null}},{"map_id":348,"name":"Empty","skin":"interior","x":8,"y":1,"layer":"interior","access":{"type":"blocked","conditions":[]},"interactions":{"content":null,"transition":null}},{"map_id":349,"name":"Forest","skin":"forest_3","x":9,"y":1,"layer":"overworld","access":{"type":"standard","conditions":[]},"interactions":{"content":null,"transition":null}},{"map_id":350,"name":"Empty","skin":"underground","x":9,"y":1,"layer":"underground","access":{"type":"blocked","conditions":[]},"interactions":{"content":null,"transition":null}}],"total":1428,"page":7,"size":50,"pages":29}