{"data":[{"map_id":1351,"name":"Sea","skin":"water","x":3,"y":21,"layer":"overworld","access":{"type":"blocked","conditions":[]},"interactions":{"content":null,"transition":null}},{"map_id":1352,"name":"Empty","skin":"underground","x":3,"y":21,"layer":"underground","access":{"type":"blocked","conditions":[]},"interactions":{"content":null,"transition":null}},{"map_id":1353,"name":"Empty","skin":"interior","x":3,"y":21,"layer":"interior","access":{"type":"blocked","conditions":[]},"interactions":{"content":null,"transition":null}},{"map_id":1354,"name":"Sea","skin":"water","x":4,"y":21,"layer":"overworld","access":{"type":"blocked","conditions":[]},"interactions":{"content":null,"transition":null}},{"map_id":1355,"name":"Empty","skin":"underground","x":4,"y":21,"layer":"underground","access":{"type":"blocked","conditions":[]},"interactions":{"content":null,"transition":null}},{"map_id":1356,"name":"Empty","skin":"interior","x":4,"y":21,"layer":"interior","access":{"type":"blocked","conditions":[]},"interactions":{"content":null,"transition":null}},{"map_id":1357,"name":"Sea","skin":"water","x":5,"y":21,"layer":"overworld","access":{"type":"blocked","conditions":[]},"interactions":{"content":null,"transition":null}},{"map_id":1358,"name":"Empty","skin":"underground","x":5,"y":21,"layer":"underground","access":{"type":"blocked","conditions":[]},"interactions":{"content":null,"transition":null}},{"map_id":1359,"name":"Empty","skin":"interior","x":5,"y":21,"layer":"interior","access":{"type":"blocked","conditions":[]},"interactions":{"content":null,"transition":null}},{"map_id":1360,"name":"Sea","skin":"water","x":6,"y":21,"layer":"overworld","access":{"type":"blocked","conditions":[]},"interactions":{"content":null,"transition":null}},{"map_id":1361,"name":"Empty","skin":"underground","x":6,"y":21,"layer":"underground","access":{"type":"blocked","conditions":[]},"interactions":{"content":null,"transition":null}},{"map_id":1362,"name":"Empty","skin":"interior","x":6,"y":21,"layer":"interior","access":{"type":"blocked","conditions":[]},"interactions":{"content":null,"transition":null}},{"map_id":1363,"name":"Sea","skin":"water","x":7,"y":21,"layer":"overworld","access":{"type":"blocked","conditions":[]},"interactions":{"content":null,"transition":null}},{"map_id":1364,"name":"Empty","skin":"underground","x":7,"y":21,"layer":"underground","access":{"type":"blocked","conditions":[]},"interactions":{"content":null,"transition":null}},{"map_id":1365,"name":"Empty","skin":"interior","x":7,"y":21,"layer":"interior","access":{"type":"blocked","conditions":[]},"interactions":{"content":null,"transition":null}},{"map_id":1366,"name":"Sea","skin":"water","x":8,"y":21,"layer":"overworld","access":{"type":"blocked","conditions":[]},"interactions":{"content":null,"transition":null}},{"map_id":1367,"name":"Empty","skin":"underground","x":8,"y":21,"layer":"underground","access":{"type":"blocked","conditions":[]},"interactions":{"content":null,"transition":null}},{"map_id":1368,"name":"Empty","skin":"interior","x":8,"y":21,"layer":"interior","access":{"type":"blocked","conditions":[]},"interactions":{"content":null,"transition":null}},{"map_id":1369,"name":"Sea","skin":"water","x":9,"y":21,"layer":"overworld","access":{"type":"blocked","conditions":[]},"interactions":{"content":null,"transition":null}},{"map_id":1370,"name":"Empty","skin":"underground","x":9,"y":21,"layer":"underground","access":{"type":"blocked","conditions":[]},"interactions":{"content":null,"transition":null}},{"map_id":1371,"name":"Empty","skin":"interior","x":9,"y":21,"layer":"interior","access":{"type":"blocked","conditions":[]},"interactions":{"content":null,"transition":null}},{"map_id":1372,"name":"Sea","skin":"water","x":10,"y":21,"layer":"overworld","access":{"type":"blocked","conditions":[]},"interactions":{"content":null,"transition":null}},{"map_id":1373,"name":"Empty","skin":"underground","x":10,"y":21,"layer":"underground","access":{"type":"blocked","conditions":[]},"interactions":{"content":null,"transition":null}},{"map_id":1374,"name":"Empty","skin":"interior","x":10,"y":21,"layer":"interior","access":{"type":"blocked","conditions":[]},"interactions":{"content":null,"transition":null}},{"map_id":1375,"name":"Sea","skin":"water","x":11,"y":21,"layer":"overworld","access":{"type":"blocked","conditions":[]},"interactions":{"content":null,"transition":null}},{"map_id":1376,"name":"Empty","skin":"underground","x":11,"y":21,"layer":"underground","access":{"type":"blocked","conditions":[]},"interactions":{"content":null,"transition":null}},{"map_id":1377,"name":"Empty","skin":"interior","x":11,"y":21,"layer":"interior","access":{"type":"blocked","conditions":[]},"interactions":{"content":null,"transition":null}},{"map_id":1378,"name":"Sea","skin":"water","x":-5,"y":22,"layer":"overworld","access":{"type":"blocked","conditions":[]},"interactions":{"content":null,"transition":null}},{"map_id":1379,"name":"Empty","skin":"underground","x":-5,"y":22,"layer":"underground","access":{"type":"blocked","conditions":[]},"interactions":{"content":null,"transition":null}},{"map_id":1380,"name":"Empty","skin":"interior","x":-5,"y":22,"layer":"interior","access":{"type":"blocked","conditions":[]},"interactions":{"content":null,"transition":null}},{"map_id":1381,"name":"Sea","skin":"water","x":-4,"y":22,"layer":"overworld","access":{"type":"blocked","conditions":[]},"interactions":{"content":null,"transition":null}},{"map_id":1382,"name":"Empty","skin":"underground","x":-4,"y":22,"layer":"underground","access":{"type":"blocked","conditions":[]},"interactions":{"content":null,"transition":null}},{"map_id":1383,"name":"Empty","skin":"interior","x":-4,"y":22,"layer":"interior","access":{"type":"blocked","conditions":[]},"interactions":{"content":null,"transition":null}},{"map_id":1384,"name":"Sea","skin":"water","x":-3,"y":22,"layer":"overworld","access":{"type":"blocked","conditions":[]},"interactions":{"content":null,"transition":null}},{"map_id":1385,"name":"Empty","skin":"underground","x":-3,"y":22,"layer":"underground","access":{"type":"blocked","conditions":[]},"interactions":{"content":null,"transition":null}},{"map_id":1386,"name":"Empty","skin":"interior","x":-3,"y":22,"layer":"interior","access":{"type":"blocked","conditions":[]},"interactions":{"content":null,"transition":null}},{"map_id":1387,"name":"Sea","skin":"water","x":-2,"y":22,"layer":"overworld","access":{"type":"blocked","conditions":[]},"interactions":{"content":null,"transition":null}},{"map_id":1388,"name":"Empty","skin":"underground","x":-2,"y":22,"layer":"underground","access":{"type":"blocked","conditions":[]},"interactions":{"content":null,"transition":null}},{"map_id":1389,"name":"Empty","skin":"interior","x":-2,"y":22,"layer":"interior","access":{"type":"blocked","conditions":[]},"interactions":{"content":null,"transition":null}},{"map_id":1390,"name":"Sea","skin":"water","x":-1,"y":22,"layer":"overworld","access":{"type":"blocked","conditions":[]},"interactions":{"content":null,"transition":null}},{"map_id":1391,"name":"Empty","skin":"underground","x":-1,"y":22,"layer":"underground","access":{"type":"blocked","conditions":[]},"interactions":{"content":null,"transition":null}},{"map_id":1392,"name":"Empty","skin":"interior","x":-1,"y":22,"layer":"interior","access":{"type":"blocked","conditions":[]},"interactions":{"content":null,"transition":null}},{"map_id":1393,"name":"Sea","skin":"water","x":0,"y":22,"layer":"overworld","access":{"type":"blocked","conditions":[]},"interactions":{"content":null,"transition":null}},{"map_id":1394,"name":"Empty","skin":"underground","x":0,"y":22,"layer":"underground","access":{"type":"blocked","conditions":[]},"interactions":{"content":null,"transition":null}},{"map_id":1395,"name":"Empty","skin":"interior","x":0,"y":22,"layer":"interior","access":{"type":"blocked","conditions":[]},"interactions":{"content":null,"transition":null}},{"map_id":1396,"name":"Sea","skin":"water","x":1,"y":22,"layer":"overworld","access":{"type":"blocked","conditions":[]},"interactions":{"content":null,"transition":null}},{"map_id":1397,"name":"Empty","skin":"underground","x":1,"y":22,"layer":"underground","access":{"type":"blocked","conditions":[]},"interactions":{"content":null,"transition":null}},{"map_id":1398,"name":"Empty","skin":"interior","x":1,"y":22,"layer":"interior","access":{"type":"blocked","conditions":[]},"interactions":{"content":null,"transition":null}},{"map_id":1399,"name":"Sea","skin":"water","x":2,"y":22,"layer":"overworld","access":{"type":"blocked","conditions":[]},"interactions":{"content":null,"transition":null}},{"map_id":1400,"name":"Empty","skin":"underground","x":2,"y":22,"layer":"underground","access":{"type":"blocked","conditions":[]},"interactions":{"content":null,"transition":null}}],"total":1428,"page":28,"size":50,"pages":29}