{
    "data": [
        {
            "map_id": 551,
            "name": "Empty",
            "skin": "underground",
            "x": 8,
            "y": 5,
            "layer": "underground",
            "access": {
                "type": "blocked",
                "conditions": []
            },
            "interactions": {
                "content": null,
                "transition": null
            }
        },
        {
            "map_id": 552,
            "name": "Empty",
            "skin": "interior",
            "x": 8,
            "y": 5,
            "layer": "interior",
            "access": {
                "type": "blocked",
                "conditions": []
            },
            "interactions": {
                "content": null,
                "transition": null
            }
        },
        {
            "map_id": 553,
            "name": "Forest",
            "skin": "forest_3",
            "x": 9,
            "y": 5,
            "layer": "overworld",
            "access": {
                "type": "standard",
                "conditions": []
            },
            "interactions": {
                "content": null,
                "transition": null
            }
        },
        {
            "map_id": 554,
            "name": "Empty",
            "skin": "underground",
            "x": 9,
            "y": 5,
            "layer": "underground",
            "access": {
                "type": "blocked",
                "conditions": []
            },
            "interactions": {
                "content": null,
                "transition": null
            }
        },
        {
            "map_id": 555,
            "name": "Empty",
            "skin": "interior",
            "x": 9,
            "y": 5,
            "layer": "interior",
            "access": {
                "type": "blocked",
                "conditions": []
            },
            "interactions": {
                "content": null,
                "transition": null
            }
        },
        {
            "map_id": 556,
            "name": "Forest",
            "skin": "forest_3",
            "x": 10,
            "y": 5,
            "layer": "overworld",
            "access": {
                "type": "standard",
                "conditions": []
            },
            "interactions": {
                "content": null,
                "transition": null
            }
        },
        {
            "map_id": 557,
            "name": "Empty",
            "skin": "underground",
            "x": 10,
            "y": 5,
            "layer": "underground",
            "access": {
                "type": "blocked",
                "conditions": []
            },
            "interactions": {
                "content": null,
                "transition": null
            }
        },
        {
            "map_id": 558,
            "name": "Empty",
            "skin": "interior",
            "x": 10,
            "y": 5,
            "layer": "interior",
            "access": {
                "type": "blocked",
                "conditions": []
            },
            "interactions": {
                "content": null,
                "transition": null
            }
        },
        {
            "map_id": 559,
            "name": "Forest",
            "skin": "forest_3",
            "x": 11,
            "y": 5,
            "layer": "overworld",
            "access": {
                "type": "standard",
                "conditions": []
            },
            "interactions": {
                "content": null,
                "transition": null
            }
        },
        {
            "map_id": 560,
            "name": "Empty",
            "skin": "underground",
            "x": 11,
            "y": 5,
            "layer": "underground",
            "access": {
                "type": "blocked",
                "conditions": []
            },
            "interactions": {
                "content": null,
                "transition": null
            }
        },
        {
            "map_id": 561,
            "name": "Empty",
            "skin": "interior",
            "x": 11,
            "y": 5,
            "layer": "interior",
            "access": {
                "type": "blocked",
                "conditions": []
            },
            "interactions": {
                "content": null,
                "transition": null
            }
        },
        {
            "map_id": 562,
            "name": "Forest",
            "skin": "forest_1",
            "x": -5,
            "y": 6,
            "layer": "overworld",
            "access": {
                "type": "standard",
                "conditions": []
            },
            "interactions": {
                "content": null,
                "transition": null
            }
        },
        {
            "map_id": 563,
            "name": "Empty",
            "skin": "underground",
            "x": -5,
            "y": 6,
            "layer": "underground",
            "access": {
                "type": "blocked",
                "conditions": []
            },
            "interactions": {
                "content": null,
                "transition": null
            }
        },
        {
            "map_id": 564,
            "name": "Empty",
            "skin": "interior",
            "x": -5,
            "y": 6,
            "layer": "interior",
            "access": {
                "type": "blocked",
                "conditions": []
            },
            "interactions": {
                "content": null,
                "transition": null
            }
        },
        {
            "map_id": 565,
            "name": "Forest",
            "skin": "forest_4",
            "x": -4,
            "y": 6,
            "layer": "overworld",
            "access": {
                "type": "standard",
                "conditions": []
            },
            "interactions": {
                "content": null,
                "transition": null
            }
        },
        {
            "map_id": 566,
            "name": "Empty",
            "skin": "underground",
            "x": -4,
            "y": 6,
            "layer": "underground",
            "access": {
                "type": "blocked",
                "conditions": []
            },
            "interactions": {
                "content": null,
                "transition": null
            }
        },
        {
            "map_id": 567,
            "name": "Empty",
            "skin": "interior",
            "x": -4,
            "y": 6,
            "layer": "interior",
            "access": {
                "type": "blocked",
                "conditions": []
            },
            "interactions": {
                "content": null,
                "transition": null
            }
        },
        {
            "map_id": 568,
            "name": "Mountain",
            "skin": "mountain_5",
            "x": -3,
            "y": 6,
            "layer": "overworld",
            "access": {
                "type": "standard",
                "conditions": []
            },
            "interactions": {
                "content": null,
                "transition": null
            }
        },
        {
            "map_id": 569,
            "name": "Empty",
            "skin": "underground",
            "x": -3,
            "y": 6,
            "layer": "underground",
            "access": {
                "type": "blocked",
                "conditions": []
            },
            "interactions": {
                "content": null,
                "transition": null
            }
        },
        {
            "map_id": 570,
            "name": "Empty",
            "skin": "interior",
            "x": -3,
            "y": 6,
            "layer": "interior",
            "access": {
                "type": "blocked",
                "conditions": []
            },
            "interactions": {
                "content": null,
                "transition": null
            }
        },
        {
            "map_id": 571,
            "name": "Mountain",
            "skin": "mountain_6",
            "x": -2,
            "y": 6,
            "layer": "overworld",
            "access": {
                "type": "standard",
                "conditions": []
            },
            "interactions": {
                "content": null,
                "transition": {
                    "map_id": 572,
                    "x": -2,
                    "y": 6,
                    "layer": "underground",
                    "conditions": []
                }
            }
        },
        {
            "map_id": 572,
            "name": "Underground",
            "skin": "mine_1",
            "x": -2,
            "y": 6,
            "layer": "underground",
            "access": {
                "type": "standard",
                "conditions": []
            },
            "interactions": {
                "content": null,
                "transition": {
                    "map_id": 571,
                    "x": -2,
                    "y": 6,
                    "layer": "overworld",
                    "conditions": []
                }
            }
        },
        {
            "map_id": 573,
            "name": "Empty",
            "skin": "interior",
            "x": -2,
            "y": 6,
            "layer": "interior",
            "access": {
                "type": "blocked",
                "conditions": []
            },
            "interactions": {
                "content": null,
                "transition": null
            }
        },
        {
            "map_id": 574,
            "name": "Forest",
            "skin": "forest_birchtree1",
            "x": -1,
            "y": 6,
            "layer": "overworld",
            "access": {
                "type": "standard",
                "conditions": []
            },
            "interactions": {
                "content": {
                    "type": "resource",
                    "code": "birch_tree"
                },
                "transition": null
            }
        },
        {
            "map_id": 575,
            "name": "Empty",
            "skin": "underground",
            "x": -1,
            "y": 6,
            "layer": "underground",
            "access": {
                "type": "blocked",
                "conditions": []
            },
            "interactions": {
                "content": null,
                "transition": null
            }
        },
        {
            "map_id": 576,
            "name": "Empty",
            "skin": "interior",
            "x": -1,
            "y": 6,
            "layer": "interior",
            "access": {
                "type": "blocked",
                "conditions": []
            },
            "interactions": {
                "content": null,
                "transition": null
            }
        },
        {
            "map_id": 577,
            "name": "Forest",
            "skin": "forest_2",
            "x": 0,
            "y": 6,
            "layer": "overworld",
            "access": {
                "type": "standard",
                "conditions": []
            },
            "interactions": {
                "content": null,
                "transition": null
            }
        },
        {
            "map_id": 578,
            "name": "Empty",
            "skin": "underground",
            "x": 0,
            "y": 6,
            "layer": "underground",
            "access": {
                "type": "blocked",
                "conditions": []
            },
            "interactions": {
                "content": null,
                "transition": null
            }
        },
        {
            "map_id": 579,
            "name": "Empty",
            "skin": "interior",
            "x": 0,
            "y": 6,
            "layer": "interior",
            "access": {
                "type": "blocked",
                "conditions": []
            },
            "interactions": {
                "content": null,
                "transition": null
            }
        },
        {
            "map_id": 580,
            "name": "Forest",
            "skin": "forest_coal1",
            "x": 1,
            "y": 6,
            "layer": "overworld",
            "access": {
                "type": "standard",
                "conditions": []
            },
            "interactions": {
                "content": {
                    "type": "resource",
                    "code": "coal_rocks"
                },
                "transition": null
            }
        },
        {
            "map_id": 581,
            "name": "Empty",
            "skin": "underground",
            "x": 1,
            "y": 6,
            "layer": "underground",
            "access": {
                "type": "blocked",
                "conditions": []
            },
            "interactions": {
                "content": null,
                "transition": null
            }
        },
        {
            "map_id": 582,
            "name": "Empty",
            "skin": "interior",
            "x": 1,
            "y": 6,
            "layer": "interior",
            "access": {
                "type": "blocked",
                "conditions": []
            },
            "interactions": {
                "content": null,
                "transition": null
            }
        },
        {
            "map_id": 583,
            "name": "Forest",
            "skin": "forest_sprucetree2",
            "x": 2,
            "y": 6,
            "layer": "overworld",
            "access": {
                "type": "standard",
                "conditions": []
            },
            "interactions": {
                "content": {
                    "type": "resource",
                    "code": "spruce_tree"
                },
                "transition": null
            }
        },
        {
            "map_id": 584,
            "name": "Empty",
            "skin": "underground",
            "x": 2,
            "y": 6,
            "layer": "underground",
            "access": {
                "type": "blocked",
                "conditions": []
            },
            "interactions": {
                "content": null,
                "transition": null
            }
        },
        {
            "map_id": 585,
            "name": "Empty",
            "skin": "interior",
            "x": 2,
            "y": 6,
            "layer": "interior",
            "access": {
                "type": "blocked",
                "conditions": []
            },
            "interactions": {
                "content": null,
                "transition": null
            }
        },
        {
            "map_id": 586,
            "name": "Forest",
            "skin": "forest_1",
            "x": 3,
            "y": 6,
            "layer": "overworld",
            "access": {
                "type": "standard",
                "conditions": []
            },
            "interactions": {
                "content": null,
                "transition": null
            }
        },
        {
            "map_id": 587,
            "name": "Empty",
            "skin": "underground",
            "x": 3,
            "y": 6,
            "layer": "underground",
            "access": {
                "type": "blocked",
                "conditions": []
            },
            "interactions": {
                "content": null,
                "transition": null
            }
        },
        {
            "map_id": 588,
            "name": "Empty",
            "skin": "interior",
            "x": 3,
            "y": 6,
            "layer": "interior",
            "access": {
                "type": "blocked",
                "conditions": []
            },
            "interactions": {
                "content": null,
                "transition": null
            }
        },
        {
            "map_id": 589,
            "name": "Forest",
            "skin": "forest_2",
            "x": 4,
            "y": 6,
            "layer": "overworld",
            "access": {
                "type": "standard",
                "conditions": []
            },
            "interactions": {
                "content": null,
                "transition": null
            }
        },
        {
            "map_id": 590,
            "name": "Empty",
            "skin": "underground",
            "x": 4,
            "y": 6,
            "layer": "underground",
            "access": {
                "type": "blocked",
                "conditions": []
            },
            "interactions": {
                "content": null,
                "transition": null
            }
        },
        {
            "map_id": 591,
            "name": "Empty",
            "skin": "interior",
            "x": 4,
            "y": 6,
            "layer": "interior",
            "access": {
                "type": "blocked",
                "conditions": []
            },
            "interactions": {
                "content": null,
                "transition": null
            }
        },
        {
            "map_id": 592,
            "name": "Forest",
            "skin": "forest_2",
            "x": 5,
            "y": 6,
            "layer": "overworld",
            "access": {
                "type": "standard",
                "conditions": []
            },
            "interactions": {
                "content": null,
                "transition": null
            }
        },
        {
            "map_id": 593,
            "name": "Empty",
            "skin": "underground",
            "x": 5,
            "y": 6,
            "layer": "underground",
            "access": {
                "type": "blocked",
                "conditions": []
            },
            "interactions": {
                "content": null,
                "transition": null
            }
        },
        {
            "map_id": 594,
            "name": "Empty",
            "skin": "interior",
            "x": 5,
            "y": 6,
            "layer": "interior",
            "access": {
                "type": "blocked",
                "conditions": []
            },
            "interactions": {
                "content": null,
                "transition": null
            }
        },
        {
            "map_id": 595,
            "name": "Forest",
            "skin": "forest_3",
            "x": 6,
            "y": 6,
            "layer": "overworld",
            "access": {
                "type": "standard",
                "conditions": []
            },
            "interactions": {
                "content": null,
                "transition": null
            }
        },
        {
            "map_id": 596,
            "name": "Empty",
            "skin": "underground",
            "x": 6,
            "y": 6,
            "layer": "underground",
            "access": {
                "type": "blocked",
                "conditions": []
            },
            "interactions": {
                "content": null,
                "transition": null
            }
        },
        {
            "map_id": 597,
            "name": "Empty",
            "skin": "interior",
            "x": 6,
            "y": 6,
            "layer": "interior",
            "access": {
                "type": "blocked",
                "conditions": []
            },
            "interactions": {
                "content": null,
                "transition": null
            }
        },
        {
            "map_id": 598,
            "name": "Forest",
            "skin": "forest_2",
            "x": 7,
            "y": 6,
            "layer": "overworld",
            "access": {
                "type": "standard",
                "conditions": []
            },
            "interactions": {
                "content": null,
                "transition": null
            }
        },
        {
            "map_id": 599,
            "name": "Empty",
            "skin": "underground",
            "x": 7,
            "y": 6,
            "layer": "underground",
            "access": {
                "type": "blocked",
                "conditions": []
            },
            "interactions": {
                "content": null,
                "transition": null
            }
        },
        {
            "map_id": 600,
            "name": "Empty",
            "skin": "interior",
            "x": 7,
            "y": 6,
            "layer": "interior",
            "access": {
                "type": "blocked",
                "conditions": []
            },
            "interactions": {
                "content": null,
                "transition": null
            }
        }
    ],
    "total": 1428,
    "page": 12,
    "size": 50,
    "pages": 29
}