{"data":[{"map_id":951,"name":"Empty","skin":"interior","x":5,"y":13,"layer":"interior","access":{"type":"blocked","conditions":[]},"interactions":{"content":null,"transition":null}},{"map_id":952,"name":"Forest","skin":"forest_archaeologist1","x":6,"y":13,"layer":"overworld","access":{"type":"standard","conditions":[]},"interactions":{"content":{"type":"npc","code":"archaeologist"},"transition":null}},{"map_id":953,"name":"Empty","skin":"underground","x":6,"y":13,"layer":"underground","access":{"type":"blocked","conditions":[]},"interactions":{"content":null,"transition":null}},{"map_id":954,"name":"Empty","skin":"interior","x":6,"y":13,"layer":"interior","access":{"type":"blocked","conditions":[]},"interactions":{"content":null,"transition":null}},{"map_id":955,"name":"Forest","skin":"forest_bank2","x":7,"y":13,"layer":"overworld","access":{"type":"standard","conditions":[]},"interactions":{"content":{"type":"bank","code":"bank"},"transition":null}},{"map_id":956,"name":"Empty","skin":"underground","x":7,"y":13,"layer":"underground","access":{"type":"blocked","conditions":[]},"interactions":{"content":null,"transition":null}},{"map_id":957,"name":"Empty","skin":"interior","x":7,"y":13,"layer":"interior","access":{"type":"blocked","conditions":[]},"interactions":{"content":null,"transition":null}},{"map_id":958,"name":"Forest","skin":"forest_runevendor1","x":8,"y":13,"layer":"overworld","access":{"type":"standard","conditions":[]},"interactions":{"content":{"type":"npc","code":"rune_vendor"},"transition":null}},{"map_id":959,"name":"Empty","skin":"underground","x":8,"y":13,"layer":"underground","access":{"type":"blocked","conditions":[]},"interactions":{"content":null,"transition":null}},{"map_id":960,"name":"Empty","skin":"interior","x":8,"y":13,"layer":"interior","access":{"type":"blocked","conditions":[]},"interactions":{"content":null,"transition":null}},{"map_id":961,"name":"Forest","skin":"forest_2","x":9,"y":13,"layer":"overworld","access":{"type":"standard","conditions":[]},"interactions":{"content":null,"transition":null}},{"map_id":962,"name":"Empty","skin":"underground","x":9,"y":13,"layer":"underground","access":{"type":"blocked","conditions":[]},"interactions":{"content":null,"transition":null}},{"map_id":963,"name":"Empty","skin":"interior","x":9,"y":13,"layer":"interior","access":{"type":"blocked","conditions":[]},"interactions":{"content":null,"transition":null}},{"map_id":964,"name":"Forest","skin":"forest_4","x":10,"y":13,"layer":"overworld","access":{"type":"standard","conditions":[]},"interactions":{"content":null,"transition":null}},{"map_id":965,"name":"Empty","skin":"underground","x":10,"y":13,"layer":"underground","access":{"type":"blocked","conditions":[]},"interactions":{"content":null,"transition":null}},{"map_id":966,"name":"Empty","skin":"interior","x":10,"y":13,"layer":"interior","access":{"type":"blocked","conditions":[]},"interactions":{"content":null,"transition":null}},{"map_id":967,"name":"Forest","skin":"forest_2","x":11,"y":13,"layer":"overworld","access":{"type":"standard","conditions":[]},"interactions":{"content":null,"transition":null}},{"map_id":968,"name":"Empty","skin":"underground","x":11,"y":13,"layer":"underground","access":{"type":"blocked","conditions":[]},"interactions":{"content":null,"transition":null}},{"map_id":969,"name":"Empty","skin":"interior","x":11,"y":13,"layer":"interior","access":{"type":"blocked","conditions":[]},"interactions":{"content":null,"transition":null}},{"map_id":970,"name":"Forest","skin":"forest_3","x":-5,"y":14,"layer":"overworld","access":{"type":"standard","conditions":[]},"interactions":{"content":null,"transition":null}},{"map_id":971,"name":"Empty","skin":"underground","x":-5,"y":14,"layer":"underground","access":{"type":"blocked","conditions":[]},"interactions":{"content":null,"transition":null}},{"map_id":972,"name":"Empty","skin":"interior","x":-5,"y":14,"layer":"interior","access":{"type":"blocked","conditions":[]},"interactions":{"content":null,"transition":null}},{"map_id":973,"name":"Forest","skin":"forest_4","x":-4,"y":14,"layer":"overworld","access":{"type":"standard","conditions":[]},"interactions":{"content":null,"transition":null}},{"map_id":974,"name":"Empty","skin":"underground","x":-4,"y":14,"layer":"underground","access":{"type":"blocked","conditions":[]},"interactions":{"content":null,"transition":null}},{"map_id":975,"name":"Empty","skin":"interior","x":-4,"y":14,"layer":"interior","access":{"type":"blocked","conditions":[]},"interactions":{"content":null,"transition":null}},{"map_id":976,"name":"Forest","skin":"forest_4","x":-3,"y":14,"layer":"overworld","access":{"type":"standard","conditions":[]},"interactions":{"content":null,"transition":null}},{"map_id":977,"name":"Empty","skin":"underground","x":-3,"y":14,"layer":"underground","access":{"type":"blocked","conditions":[]},"interactions":{"content":null,"transition":null}},{"map_id":978,"name":"Empty","skin":"interior","x":-3,"y":14,"layer":"interior","access":{"type":"blocked","conditions":[]},"interactions":{"content":null,"transition":null}},{"map_id":979,"name":"Forest","skin":"forest_2","x":-2,"y":14,"layer":"overworld","access":{"type":"standard","conditions":[]},"interactions":{"content":null,"transition":null}},{"map_id":980,"name":"Empty","skin":"underground","x":-2,"y":14,"layer":"underground","access":{"type":"blocked","conditions":[]},"interactions":{"content":null,"transition":null}},{"map_id":981,"name":"Empty","skin":"interior","x":-2,"y":14,"layer":"interior","access":{"type":"blocked","conditions":[]},"interactions":{"content":null,"transition":null}},{"map_id":982,"name":"Forest","skin":"forest_cultistacolyte2","x":-1,"y":14,"layer":"overworld","access":{"type":"standard","conditions":[]},"interactions":{"content":{"type":"monster","code":"cultist_acolyte"},"transition":null}},{"map_id":983,"name":"Empty","skin":"underground","x":-1,"y":14,"layer":"underground","access":{"type":"blocked","conditions":[]},"interactions":{"content":null,"transition":null}},{"map_id":984,"name":"Empty","skin":"interior","x":-1,"y":14,"layer":"interior","access":{"type":"blocked","conditions":[]},"interactions":{"content":null,"transition":null}},{"map_id":985,"name":"Forest","skin":"forest_imp2","x":0,"y":14,"layer":"overworld","access":{"type":"standard","conditions":[]},"interactions":{"content":{"type":"monster","code":"imp"},"transition":null}},{"map_id":986,"name":"Empty","skin":"underground","x":0,"y":14,"layer":"underground","access":{"type":"blocked","conditions":[]},"interactions":{"content":null,"transition":null}},{"map_id":987,"name":"Empty","skin":"interior","x":0,"y":14,"layer":"interior","access":{"type":"blocked","conditions":[]},"interactions":{"content":null,"transition":null}},{"map_id":988,"name":"Forest","skin":"forest_hellhound1","x":1,"y":14,"layer":"overworld","access":{"type":"standard","conditions":[]},"interactions":{"content":{"type":"monster","code":"hellhound"},"transition":null}},{"map_id":989,"name":"Empty","skin":"underground","x":1,"y":14,"layer":"underground","access":{"type":"blocked","conditions":[]},"interactions":{"content":null,"transition":null}},{"map_id":990,"name":"Empty","skin":"interior","x":1,"y":14,"layer":"interior","access":{"type":"blocked","conditions":[]},"interactions":{"content":null,"transition":null}},{"map_id":991,"name":"Forest","skin":"forest_road3","x":2,"y":14,"layer":"overworld","access":{"type":"standard","conditions":[]},"interactions":{"content":null,"transition":null}},{"map_id":992,"name":"Empty","skin":"underground","x":2,"y":14,"layer":"underground","access":{"type":"blocked","conditions":[]},"interactions":{"content":null,"transition":null}},{"map_id":993,"name":"Empty","skin":"interior","x":2,"y":14,"layer":"interior","access":{"type":"blocked","conditions":[]},"interactions":{"content":null,"transition":null}},{"map_id":994,"name":"Forest","skin":"forest_1","x":3,"y":14,"layer":"overworld","access":{"type":"standard","conditions":[]},"interactions":{"content":null,"transition":null}},{"map_id":995,"name":"Empty","skin":"underground","x":3,"y":14,"layer":"underground","access":{"type":"blocked","conditions":[]},"interactions":{"content":null,"transition":null}},{"map_id":996,"name":"Empty","skin":"interior","x":3,"y":14,"layer":"interior","access":{"type":"blocked","conditions":[]},"interactions":{"content":null,"transition":null}},{"map_id":997,"name":"Forest","skin":"forest_mapletree2","x":4,"y":14,"layer":"overworld","access":{"type":"standard","conditions":[]},"interactions":{"content":{"type":"resource","code":"maple_tree"},"transition":null}},{"map_id":998,"name":"Empty","skin":"underground","x":4,"y":14,"layer":"underground","access":{"type":"blocked","conditions":[]},"interactions":{"content":null,"transition":null}},{"map_id":999,"name":"Empty","skin":"interior","x":4,"y":14,"layer":"interior","access":{"type":"blocked","conditions":[]},"interactions":{"content":null,"transition":null}},{"map_id":1000,"name":"Forest","skin":"forest_1","x":5,"y":14,"layer":"overworld","access":{"type":"standard","conditions":[]},"interactions":{"content":null,"transition":null}}],"total":1428,"page":20,"size":50,"pages":29}