{"data":[{"map_id":1101,"name":"Empty","skin":"interior","x":4,"y":16,"layer":"interior","access":{"type":"blocked","conditions":[]},"interactions":{"content":null,"transition":null}},{"map_id":1102,"name":"Sea","skin":"forest_coastline2","x":5,"y":16,"layer":"overworld","access":{"type":"blocked","conditions":[]},"interactions":{"content":null,"transition":null}},{"map_id":1103,"name":"Empty","skin":"underground","x":5,"y":16,"layer":"underground","access":{"type":"blocked","conditions":[]},"interactions":{"content":null,"transition":null}},{"map_id":1104,"name":"Empty","skin":"interior","x":5,"y":16,"layer":"interior","access":{"type":"blocked","conditions":[]},"interactions":{"content":null,"transition":null}},{"map_id":1105,"name":"Sea","skin":"forest_coastline10","x":6,"y":16,"layer":"overworld","access":{"type":"blocked","conditions":[]},"interactions":{"content":null,"transition":null}},{"map_id":1106,"name":"Empty","skin":"underground","x":6,"y":16,"layer":"underground","access":{"type":"blocked","conditions":[]},"interactions":{"content":null,"transition":null}},{"map_id":1107,"name":"Empty","skin":"interior","x":6,"y":16,"layer":"interior","access":{"type":"blocked","conditions":[]},"interactions":{"content":null,"transition":null}},{"map_id":1108,"name":"Sea","skin":"forest_coastline15","x":7,"y":16,"layer":"overworld","access":{"type":"blocked","conditions":[]},"interactions":{"content":null,"transition":null}},{"map_id":1109,"name":"Empty","skin":"underground","x":7,"y":16,"layer":"underground","access":{"type":"blocked","conditions":[]},"interactions":{"content":null,"transition":null}},{"map_id":1110,"name":"Empty","skin":"interior","x":7,"y":16,"layer":"interior","access":{"type":"blocked","conditions":[]},"interactions":{"content":null,"transition":null}},{"map_id":1111,"name":"Sea","skin":"forest_coastline9","x":8,"y":16,"layer":"overworld","access":{"type":"blocked","conditions":[]},"interactions":{"content":null,"transition":null}},{"map_id":1112,"name":"Empty","skin":"underground","x":8,"y":16,"layer":"underground","access":{"type":"blocked","conditions":[]},"interactions":{"content":null,"transition":null}},{"map_id":1113,"name":"Empty","skin":"interior","x":8,"y":16,"layer":"interior","access":{"type":"blocked","conditions":[]},"interactions":{"content":null,"transition":null}},{"map_id":1114,"name":"Sea","skin":"forest_coastline2","x":9,"y":16,"layer":"overworld","access":{"type":"blocked","conditions":[]},"interactions":{"content":null,"transition":null}},{"map_id":1115,"name":"Empty","skin":"underground","x":9,"y":16,"layer":"underground","access":{"type":"blocked","conditions":[]},"interactions":{"content":null,"transition":null}},{"map_id":1116,"name":"Empty","skin":"interior","x":9,"y":16,"layer":"interior","access":{"type":"blocked","conditions":[]},"interactions":{"content":null,"transition":null}},{"map_id":1117,"name":"Sea","skin":"forest_coastline10","x":10,"y":16,"layer":"overworld","access":{"type":"blocked","conditions":[]},"interactions":{"content":null,"transition":null}},{"map_id":1118,"name":"Empty","skin":"underground","x":10,"y":16,"layer":"underground","access":{"type":"blocked","conditions":[]},"interactions":{"content":null,"transition":null}},{"map_id":1119,"name":"Empty","skin":"interior","x":10,"y":16,"layer":"interior","access":{"type":"blocked","conditions":[]},"interactions":{"content":null,"transition":null}},{"map_id":1120,"name":"Sea","skin":"forest_coastline14","x":11,"y":16,"layer":"overworld","access":{"type":"blocked","conditions":[]},"interactions":{"content":null,"transition":null}},{"map_id":1121,"name":"Empty","skin":"underground","x":11,"y":16,"layer":"underground","access":{"type":"blocked","conditions":[]},"interactions":{"content":null,"transition":null}},{"map_id":1122,"name":"Empty","skin":"interior","x":11,"y":16,"layer":"interior","access":{"type":"blocked","conditions":[]},"interactions":{"content":null,"transition":null}},{"map_id":1123,"name":"Sea","skin":"water","x":-5,"y":17,"layer":"overworld","access":{"type":"blocked","conditions":[]},"interactions":{"content":null,"transition":null}},{"map_id":1124,"name":"Empty","skin":"underground","x":-5,"y":17,"layer":"underground","access":{"type":"blocked","conditions":[]},"interactions":{"content":null,"transition":null}},{"map_id":1125,"name":"Empty","skin":"interior","x":-5,"y":17,"layer":"interior","access":{"type":"blocked","conditions":[]},"interactions":{"content":null,"transition":null}},{"map_id":1126,"name":"Sandwhisper Isle","skin":"desertisland_1","x":-4,"y":17,"layer":"overworld","access":{"type":"standard","conditions":[]},"interactions":{"content":null,"transition":null}},{"map_id":1127,"name":"Empty","skin":"underground","x":-4,"y":17,"layer":"underground","access":{"type":"blocked","conditions":[]},"interactions":{"content":null,"transition":null}},{"map_id":1128,"name":"Empty","skin":"interior","x":-4,"y":17,"layer":"interior","access":{"type":"blocked","conditions":[]},"interactions":{"content":null,"transition":null}},{"map_id":1129,"name":"Sandwhisper Isle","skin":"desertisland_2","x":-3,"y":17,"layer":"overworld","access":{"type":"standard","conditions":[]},"interactions":{"content":null,"transition":null}},{"map_id":1130,"name":"Empty","skin":"underground","x":-3,"y":17,"layer":"underground","access":{"type":"blocked","conditions":[]},"interactions":{"content":null,"transition":null}},{"map_id":1131,"name":"Empty","skin":"interior","x":-3,"y":17,"layer":"interior","access":{"type":"blocked","conditions":[]},"interactions":{"content":null,"transition":null}},{"map_id":1132,"name":"Sandwhisper Isle","skin":"desertisland_3","x":-2,"y":17,"layer":"overworld","access":{"type":"blocked","conditions":[]},"interactions":{"content":null,"transition":null}},{"map_id":1133,"name":"Empty","skin":"underground","x":-2,"y":17,"layer":"underground","access":{"type":"blocked","conditions":[]},"interactions":{"content":null,"transition":null}},{"map_id":1134,"name":"Empty","skin":"interior","x":-2,"y":17,"layer":"interior","access":{"type":"blocked","conditions":[]},"interactions":{"content":null,"transition":null}},{"map_id":1135,"name":"Sandwhisper Isle","skin":"desertisland_17","x":-1,"y":17,"layer":"overworld","access":{"type":"blocked","conditions":[]},"interactions":{"content":null,"transition":null}},{"map_id":1136,"name":"Empty","skin":"underground","x":-1,"y":17,"layer":"underground","access":{"type":"blocked","conditions":[]},"interactions":{"content":null,"transition":null}},{"map_id":1137,"name":"Empty","skin":"interior","x":-1,"y":17,"layer":"interior","access":{"type":"blocked","conditions":[]},"interactions":{"content":null,"transition":null}},{"map_id":1138,"name":"Sandwhisper Isle","skin":"desertisland_4","x":0,"y":17,"layer":"overworld","access":{"type":"blocked","conditions":[]},"interactions":{"content":null,"transition":null}},{"map_id":1139,"name":"Empty","skin":"underground","x":0,"y":17,"layer":"underground","access":{"type":"blocked","conditions":[]},"interactions":{"content":null,"transition":null}},{"map_id":1140,"name":"Empty","skin":"interior","x":0,"y":17,"layer":"interior","access":{"type":"blocked","conditions":[]},"interactions":{"content":null,"transition":null}},{"map_id":1141,"name":"Sea","skin":"water","x":1,"y":17,"layer":"overworld","access":{"type":"blocked","conditions":[]},"interactions":{"content":null,"transition":null}},{"map_id":1142,"name":"Empty","skin":"underground","x":1,"y":17,"layer":"underground","access":{"type":"blocked","conditions":[]},"interactions":{"content":null,"transition":null}},{"map_id":1143,"name":"Empty","skin":"interior","x":1,"y":17,"layer":"interior","access":{"type":"blocked","conditions":[]},"interactions":{"content":null,"transition":null}},{"map_id":1144,"name":"Sea","skin":"water","x":2,"y":17,"layer":"overworld","access":{"type":"blocked","conditions":[]},"interactions":{"content":null,"transition":null}},{"map_id":1145,"name":"Empty","skin":"underground","x":2,"y":17,"layer":"underground","access":{"type":"blocked","conditions":[]},"interactions":{"content":null,"transition":null}},{"map_id":1146,"name":"Empty","skin":"interior","x":2,"y":17,"layer":"interior","access":{"type":"blocked","conditions":[]},"interactions":{"content":null,"transition":null}},{"map_id":1147,"name":"Sea","skin":"water","x":3,"y":17,"layer":"overworld","access":{"type":"blocked","conditions":[]},"interactions":{"content":null,"transition":null}},{"map_id":1148,"name":"Empty","skin":"underground","x":3,"y":17,"layer":"underground","access":{"type":"blocked","conditions":[]},"interactions":{"content":null,"transition":null}},{"map_id":1149,"name":"Empty","skin":"interior","x":3,"y":17,"layer":"interior","access":{"type":"blocked","conditions":[]},"interactions":{"content":null,"transition":null}},{"map_id":1150,"name":"Sea","skin":"water","x":4,"y":17,"layer":"overworld","access":{"type":"blocked","conditions":[]},"interactions":{"content":null,"transition":null}}],"total":1428,"page":23,"size":50,"pages":29}