{"data":[{"map_id":601,"name":"Graveyard","skin":"forest_skeleton1","x":8,"y":6,"layer":"overworld","access":{"type":"standard","conditions":[]},"interactions":{"content":{"type":"monster","code":"skeleton"},"transition":null}},{"map_id":602,"name":"Empty","skin":"underground","x":8,"y":6,"layer":"underground","access":{"type":"blocked","conditions":[]},"interactions":{"content":null,"transition":null}},{"map_id":603,"name":"Empty","skin":"interior","x":8,"y":6,"layer":"interior","access":{"type":"blocked","conditions":[]},"interactions":{"content":null,"transition":null}},{"map_id":604,"name":"Graveyard","skin":"forest_skeleton2","x":9,"y":6,"layer":"overworld","access":{"type":"standard","conditions":[]},"interactions":{"content":{"type":"resource","code":"dead_tree"},"transition":null}},{"map_id":605,"name":"Empty","skin":"underground","x":9,"y":6,"layer":"underground","access":{"type":"blocked","conditions":[]},"interactions":{"content":null,"transition":null}},{"map_id":606,"name":"Empty","skin":"interior","x":9,"y":6,"layer":"interior","access":{"type":"blocked","conditions":[]},"interactions":{"content":null,"transition":null}},{"map_id":607,"name":"Graveyard","skin":"forest_skeleton3","x":10,"y":6,"layer":"overworld","access":{"type":"standard","conditions":[]},"interactions":{"content":{"type":"monster","code":"vampire"},"transition":null}},{"map_id":608,"name":"Empty","skin":"underground","x":10,"y":6,"layer":"underground","access":{"type":"blocked","conditions":[]},"interactions":{"content":null,"transition":null}},{"map_id":609,"name":"Empty","skin":"interior","x":10,"y":6,"layer":"interior","access":{"type":"blocked","conditions":[]},"interactions":{"content":null,"transition":null}},{"map_id":610,"name":"Forest","skin":"forest_3","x":11,"y":6,"layer":"overworld","access":{"type":"standard","conditions":[]},"interactions":{"content":null,"transition":null}},{"map_id":611,"name":"Empty","skin":"underground","x":11,"y":6,"layer":"underground","access":{"type":"blocked","conditions":[]},"interactions":{"content":null,"transition":null}},{"map_id":612,"name":"Empty","skin":"interior","x":11,"y":6,"layer":"interior","access":{"type":"blocked","conditions":[]},"interactions":{"content":null,"transition":null}},{"map_id":613,"name":"Forest","skin":"forest_2","x":-5,"y":7,"layer":"overworld","access":{"type":"standard","conditions":[]},"interactions":{"content":null,"transition":null}},{"map_id":614,"name":"Empty","skin":"underground","x":-5,"y":7,"layer":"underground","access":{"type":"blocked","conditions":[]},"interactions":{"content":null,"transition":null}},{"map_id":615,"name":"Empty","skin":"interior","x":-5,"y":7,"layer":"interior","access":{"type":"blocked","conditions":[]},"interactions":{"content":null,"transition":null}},{"map_id":616,"name":"Forest","skin":"forest_1","x":-4,"y":7,"layer":"overworld","access":{"type":"standard","conditions":[]},"interactions":{"content":null,"transition":null}},{"map_id":617,"name":"Empty","skin":"underground","x":-4,"y":7,"layer":"underground","access":{"type":"blocked","conditions":[]},"interactions":{"content":null,"transition":null}},{"map_id":618,"name":"Empty","skin":"interior","x":-4,"y":7,"layer":"interior","access":{"type":"blocked","conditions":[]},"interactions":{"content":null,"transition":null}},{"map_id":619,"name":"Forest","skin":"forest_2","x":-3,"y":7,"layer":"overworld","access":{"type":"standard","conditions":[]},"interactions":{"content":null,"transition":null}},{"map_id":620,"name":"Empty","skin":"underground","x":-3,"y":7,"layer":"underground","access":{"type":"blocked","conditions":[]},"interactions":{"content":null,"transition":null}},{"map_id":621,"name":"Empty","skin":"interior","x":-3,"y":7,"layer":"interior","access":{"type":"blocked","conditions":[]},"interactions":{"content":null,"transition":null}},{"map_id":622,"name":"Forest","skin":"forest_4","x":-2,"y":7,"layer":"overworld","access":{"type":"standard","conditions":[]},"interactions":{"content":null,"transition":null}},{"map_id":623,"name":"Empty","skin":"underground","x":-2,"y":7,"layer":"underground","access":{"type":"blocked","conditions":[]},"interactions":{"content":null,"transition":null}},{"map_id":624,"name":"Empty","skin":"interior","x":-2,"y":7,"layer":"interior","access":{"type":"blocked","conditions":[]},"interactions":{"content":null,"transition":null}},{"map_id":625,"name":"Forest","skin":"forest_1","x":-1,"y":7,"layer":"overworld","access":{"type":"standard","conditions":[]},"interactions":{"content":null,"transition":null}},{"map_id":626,"name":"Empty","skin":"underground","x":-1,"y":7,"layer":"underground","access":{"type":"blocked","conditions":[]},"interactions":{"content":null,"transition":null}},{"map_id":627,"name":"Empty","skin":"interior","x":-1,"y":7,"layer":"interior","access":{"type":"blocked","conditions":[]},"interactions":{"content":null,"transition":null}},{"map_id":628,"name":"Forest","skin":"forest_2","x":0,"y":7,"layer":"overworld","access":{"type":"standard","conditions":[]},"interactions":{"content":null,"transition":null}},{"map_id":629,"name":"Empty","skin":"underground","x":0,"y":7,"layer":"underground","access":{"type":"blocked","conditions":[]},"interactions":{"content":null,"transition":null}},{"map_id":630,"name":"Empty","skin":"interior","x":0,"y":7,"layer":"interior","access":{"type":"blocked","conditions":[]},"interactions":{"content":null,"transition":null}},{"map_id":631,"name":"Forest","skin":"forest_ironore2","x":1,"y":7,"layer":"overworld","access":{"type":"standard","conditions":[]},"interactions":{"content":{"type":"resource","code":"iron_rocks"},"transition":null}},{"map_id":632,"name":"Empty","skin":"underground","x":1,"y":7,"layer":"underground","access":{"type":"blocked","conditions":[]},"interactions":{"content":null,"transition":null}},{"map_id":633,"name":"Empty","skin":"interior","x":1,"y":7,"layer":"interior","access":{"type":"blocked","conditions":[]},"interactions":{"content":null,"transition":null}},{"map_id":634,"name":"Forest","skin":"forest_road1","x":2,"y":7,"layer":"overworld","access":{"type":"standard","conditions":[]},"interactions":{"content":null,"transition":null}},{"map_id":635,"name":"Empty","skin":"underground","x":2,"y":7,"layer":"underground","access":{"type":"blocked","conditions":[]},"interactions":{"content":null,"transition":null}},{"map_id":636,"name":"Empty","skin":"interior","x":2,"y":7,"layer":"interior","access":{"type":"blocked","conditions":[]},"interactions":{"content":null,"transition":null}},{"map_id":637,"name":"Forest","skin":"forest_1","x":3,"y":7,"layer":"overworld","access":{"type":"standard","conditions":[]},"interactions":{"content":null,"transition":null}},{"map_id":638,"name":"Empty","skin":"underground","x":3,"y":7,"layer":"underground","access":{"type":"blocked","conditions":[]},"interactions":{"content":null,"transition":null}},{"map_id":639,"name":"Empty","skin":"interior","x":3,"y":7,"layer":"interior","access":{"type":"blocked","conditions":[]},"interactions":{"content":null,"transition":null}},{"map_id":640,"name":"Forest","skin":"forest_2","x":4,"y":7,"layer":"overworld","access":{"type":"standard","conditions":[]},"interactions":{"content":null,"transition":null}},{"map_id":641,"name":"Empty","skin":"underground","x":4,"y":7,"layer":"underground","access":{"type":"blocked","conditions":[]},"interactions":{"content":null,"transition":null}},{"map_id":642,"name":"Empty","skin":"interior","x":4,"y":7,"layer":"interior","access":{"type":"blocked","conditions":[]},"interactions":{"content":null,"transition":null}},{"map_id":643,"name":"Forest","skin":"forest_3","x":5,"y":7,"layer":"overworld","access":{"type":"standard","conditions":[]},"interactions":{"content":null,"transition":null}},{"map_id":644,"name":"Empty","skin":"underground","x":5,"y":7,"layer":"underground","access":{"type":"blocked","conditions":[]},"interactions":{"content":null,"transition":null}},{"map_id":645,"name":"Empty","skin":"interior","x":5,"y":7,"layer":"interior","access":{"type":"blocked","conditions":[]},"interactions":{"content":null,"transition":null}},{"map_id":646,"name":"Forest","skin":"forest_1","x":6,"y":7,"layer":"overworld","access":{"type":"standard","conditions":[]},"interactions":{"content":null,"transition":null}},{"map_id":647,"name":"Empty","skin":"underground","x":6,"y":7,"layer":"underground","access":{"type":"blocked","conditions":[]},"interactions":{"content":null,"transition":null}},{"map_id":648,"name":"Empty","skin":"interior","x":6,"y":7,"layer":"interior","access":{"type":"blocked","conditions":[]},"interactions":{"content":null,"transition":null}},{"map_id":649,"name":"Forest","skin":"forest_2","x":7,"y":7,"layer":"overworld","access":{"type":"standard","conditions":[]},"interactions":{"content":null,"transition":null}},{"map_id":650,"name":"Empty","skin":"underground","x":7,"y":7,"layer":"underground","access":{"type":"blocked","conditions":[]},"interactions":{"content":null,"transition":null}}],"total":1428,"page":13,"size":50,"pages":29}