{"data":[{"map_id":351,"name":"Empty","skin":"interior","x":9,"y":1,"layer":"interior","access":{"type":"blocked","conditions":[]},"interactions":{"content":null,"transition":null}},{"map_id":352,"name":"Forest","skin":"forest_owlbear1","x":10,"y":1,"layer":"overworld","access":{"type":"standard","conditions":[]},"interactions":{"content":{"type":"monster","code":"owlbear"},"transition":null}},{"map_id":353,"name":"Empty","skin":"underground","x":10,"y":1,"layer":"underground","access":{"type":"blocked","conditions":[]},"interactions":{"content":null,"transition":null}},{"map_id":354,"name":"Empty","skin":"interior","x":10,"y":1,"layer":"interior","access":{"type":"blocked","conditions":[]},"interactions":{"content":null,"transition":null}},{"map_id":355,"name":"Forest","skin":"forest_3","x":11,"y":1,"layer":"overworld","access":{"type":"standard","conditions":[]},"interactions":{"content":null,"transition":null}},{"map_id":356,"name":"Empty","skin":"underground","x":11,"y":1,"layer":"underground","access":{"type":"blocked","conditions":[]},"interactions":{"content":null,"transition":null}},{"map_id":357,"name":"Empty","skin":"interior","x":11,"y":1,"layer":"interior","access":{"type":"blocked","conditions":[]},"interactions":{"content":null,"transition":null}},{"map_id":358,"name":"Forest","skin":"forest_1","x":-5,"y":2,"layer":"overworld","access":{"type":"standard","conditions":[]},"interactions":{"content":null,"transition":null}},{"map_id":359,"name":"Empty","skin":"underground","x":-5,"y":2,"layer":"underground","access":{"type":"blocked","conditions":[]},"interactions":{"content":null,"transition":null}},{"map_id":360,"name":"Empty","skin":"interior","x":-5,"y":2,"layer":"interior","access":{"type":"blocked","conditions":[]},"interactions":{"content":null,"transition":null}},{"map_id":361,"name":"Forest","skin":"forest_1","x":-4,"y":2,"layer":"overworld","access":{"type":"standard","conditions":[]},"interactions":{"content":null,"transition":null}},{"map_id":362,"name":"Empty","skin":"underground","x":-4,"y":2,"layer":"underground","access":{"type":"blocked","conditions":[]},"interactions":{"content":null,"transition":null}},{"map_id":363,"name":"Empty","skin":"interior","x":-4,"y":2,"layer":"interior","access":{"type":"blocked","conditions":[]},"interactions":{"content":null,"transition":null}},{"map_id":364,"name":"Forest","skin":"forest_1","x":-3,"y":2,"layer":"overworld","access":{"type":"standard","conditions":[]},"interactions":{"content":null,"transition":null}},{"map_id":365,"name":"Empty","skin":"underground","x":-3,"y":2,"layer":"underground","access":{"type":"blocked","conditions":[]},"interactions":{"content":null,"transition":null}},{"map_id":366,"name":"Empty","skin":"interior","x":-3,"y":2,"layer":"interior","access":{"type":"blocked","conditions":[]},"interactions":{"content":null,"transition":null}},{"map_id":367,"name":"Forest","skin":"forest_3","x":-2,"y":2,"layer":"overworld","access":{"type":"standard","conditions":[]},"interactions":{"content":null,"transition":null}},{"map_id":368,"name":"Empty","skin":"underground","x":-2,"y":2,"layer":"underground","access":{"type":"blocked","conditions":[]},"interactions":{"content":null,"transition":null}},{"map_id":369,"name":"Empty","skin":"interior","x":-2,"y":2,"layer":"interior","access":{"type":"blocked","conditions":[]},"interactions":{"content":null,"transition":null}},{"map_id":370,"name":"Forest","skin":"forest_2","x":-1,"y":2,"layer":"overworld","access":{"type":"standard","conditions":[]},"interactions":{"content":null,"transition":null}},{"map_id":371,"name":"Empty","skin":"underground","x":-1,"y":2,"layer":"underground","access":{"type":"blocked","conditions":[]},"interactions":{"content":null,"transition":null}},{"map_id":372,"name":"Empty","skin":"interior","x":-1,"y":2,"layer":"interior","access":{"type":"blocked","conditions":[]},"interactions":{"content":null,"transition":null}},{"map_id":373,"name":"City","skin":"forest_cow1","x":0,"y":2,"layer":"overworld","access":{"type":"standard","conditions":[]},"interactions":{"content":{"type":"monster","code":"cow"},"transition":null}},{"map_id":374,"name":"Empty","skin":"underground","x":0,"y":2,"layer":"underground","access":{"type":"blocked","conditions":[]},"interactions":{"content":null,"transition":null}},{"map_id":375,"name":"Empty","skin":"interior","x":0,"y":2,"layer":"interior","access":{"type":"blocked","conditions":[]},"interactions":{"content":null,"transition":null}},{"map_id":376,"name":"City","skin":"forest_village3","x":1,"y":2,"layer":"overworld","access":{"type":"standard","conditions":[]},"interactions":{"content":{"type":"tasks_master","code":"monsters"},"transition":null}},{"map_id":377,"name":"Empty","skin":"underground","x":1,"y":2,"layer":"underground","access":{"type":"blocked","conditions":[]},"interactions":{"content":null,"transition":null}},{"map_id":378,"name":"Empty","skin":"interior","x":1,"y":2,"layer":"interior","access":{"type":"blocked","conditions":[]},"interactions":{"content":null,"transition":null}},{"map_id":379,"name":"City","skin":"forest_village1","x":2,"y":2,"layer":"overworld","access":{"type":"standard","conditions":[]},"interactions":{"content":{"type":"resource","code":"sunflower_field"},"transition":null}},{"map_id":380,"name":"Empty","skin":"underground","x":2,"y":2,"layer":"underground","access":{"type":"blocked","conditions":[]},"interactions":{"content":null,"transition":null}},{"map_id":381,"name":"Empty","skin":"interior","x":2,"y":2,"layer":"interior","access":{"type":"blocked","conditions":[]},"interactions":{"content":null,"transition":null}},{"map_id":382,"name":"City","skin":"forest_village2","x":3,"y":2,"layer":"overworld","access":{"type":"standard","conditions":[]},"interactions":{"content":null,"transition":null}},{"map_id":383,"name":"Empty","skin":"underground","x":3,"y":2,"layer":"underground","access":{"type":"blocked","conditions":[]},"interactions":{"content":null,"transition":null}},{"map_id":384,"name":"Empty","skin":"interior","x":3,"y":2,"layer":"interior","access":{"type":"blocked","conditions":[]},"interactions":{"content":null,"transition":null}},{"map_id":385,"name":"Lake","skin":"forest_lake3","x":4,"y":2,"layer":"overworld","access":{"type":"standard","conditions":[]},"interactions":{"content":{"type":"resource","code":"gudgeon_spot"},"transition":null}},{"map_id":386,"name":"Empty","skin":"underground","x":4,"y":2,"layer":"underground","access":{"type":"blocked","conditions":[]},"interactions":{"content":null,"transition":null}},{"map_id":387,"name":"Empty","skin":"interior","x":4,"y":2,"layer":"interior","access":{"type":"blocked","conditions":[]},"interactions":{"content":null,"transition":null}},{"map_id":388,"name":"Lake","skin":"forest_lake4","x":5,"y":2,"layer":"overworld","access":{"type":"standard","conditions":[]},"interactions":{"content":{"type":"resource","code":"shrimp_spot"},"transition":null}},{"map_id":389,"name":"Empty","skin":"underground","x":5,"y":2,"layer":"underground","access":{"type":"blocked","conditions":[]},"interactions":{"content":null,"transition":null}},{"map_id":390,"name":"Empty","skin":"interior","x":5,"y":2,"layer":"interior","access":{"type":"blocked","conditions":[]},"interactions":{"content":null,"transition":null}},{"map_id":391,"name":"Forest","skin":"forest_4","x":6,"y":2,"layer":"overworld","access":{"type":"standard","conditions":[]},"interactions":{"content":null,"transition":null}},{"map_id":392,"name":"Empty","skin":"underground","x":6,"y":2,"layer":"underground","access":{"type":"blocked","conditions":[]},"interactions":{"content":null,"transition":null}},{"map_id":393,"name":"Empty","skin":"interior","x":6,"y":2,"layer":"interior","access":{"type":"blocked","conditions":[]},"interactions":{"content":null,"transition":null}},{"map_id":394,"name":"Forest","skin":"forest_4","x":7,"y":2,"layer":"overworld","access":{"type":"standard","conditions":[]},"interactions":{"content":null,"transition":null}},{"map_id":395,"name":"Empty","skin":"underground","x":7,"y":2,"layer":"underground","access":{"type":"blocked","conditions":[]},"interactions":{"content":null,"transition":null}},{"map_id":396,"name":"Empty","skin":"interior","x":7,"y":2,"layer":"interior","access":{"type":"blocked","conditions":[]},"interactions":{"content":null,"transition":null}},{"map_id":397,"name":"Forest","skin":"forest_2","x":8,"y":2,"layer":"overworld","access":{"type":"standard","conditions":[]},"interactions":{"content":null,"transition":null}},{"map_id":398,"name":"Empty","skin":"underground","x":8,"y":2,"layer":"underground","access":{"type":"blocked","conditions":[]},"interactions":{"content":null,"transition":null}},{"map_id":399,"name":"Empty","skin":"interior","x":8,"y":2,"layer":"interior","access":{"type":"blocked","conditions":[]},"interactions":{"content":null,"transition":null}},{"map_id":400,"name":"Forest","skin":"forest_4","x":9,"y":2,"layer":"overworld","access":{"type":"standard","conditions":[]},"interactions":{"content":null,"transition":null}}],"total":1428,"page":8,"size":50,"pages":29}