{"data":[{"name":"Lake","skin":"forest_lake1","x":6,"y":12,"content":{"type":"resource","code":"bass_fishing_spot"}},{"name":"Lake","skin":"forest_lake2","x":7,"y":12,"content":{"type":"resource","code":"trout_fishing_spot"}},{"name":"Forest","skin":"forest_3","x":8,"y":12,"content":null},{"name":"Forest","skin":"forest_1","x":9,"y":12,"content":null},{"name":"Forest","skin":"forest_3","x":10,"y":12,"content":null},{"name":"Forest","skin":"forest_2","x":11,"y":12,"content":null},{"name":"Forest","skin":"forest_2","x":-5,"y":13,"content":null},{"name":"Forest","skin":"forest_4","x":-4,"y":13,"content":null},{"name":"Forest","skin":"forest_3","x":-3,"y":13,"content":null},{"name":"Forest","skin":"forest_mithrilore1","x":-2,"y":13,"content":{"type":"resource","code":"mithril_rocks"}},{"name":"Forest","skin":"forest_hellhound2","x":-1,"y":13,"content":{"type":"monster","code":"hellhound"}},{"name":"Forest","skin":"forest_house1","x":0,"y":13,"content":null},{"name":"Forest","skin":"forest_cultistacolyte1","x":1,"y":13,"content":{"type":"monster","code":"cultist_acolyte"}},{"name":"Forest","skin":"forest_road4","x":2,"y":13,"content":null},{"name":"Forest","skin":"forest_road6","x":3,"y":13,"content":null},{"name":"Forest","skin":"forest_road10","x":4,"y":13,"content":{"type":"tasks_master","code":"items"}},{"name":"Forest","skin":"forest_road9","x":5,"y":13,"content":null},{"name":"Forest","skin":"forest_road5","x":6,"y":13,"content":{"type":"npc","code":"rune_vendor"}},{"name":"Forest","skin":"forest_bank2","x":7,"y":13,"content":{"type":"bank","code":"bank"}},{"name":"Forest","skin":"forest_2","x":8,"y":13,"content":null},{"name":"Forest","skin":"forest_2","x":9,"y":13,"content":null},{"name":"Forest","skin":"forest_4","x":10,"y":13,"content":null},{"name":"Forest","skin":"forest_2","x":11,"y":13,"content":null},{"name":"Forest","skin":"forest_3","x":-5,"y":14,"content":null},{"name":"Forest","skin":"forest_4","x":-4,"y":14,"content":null},{"name":"Forest","skin":"forest_4","x":-3,"y":14,"content":null},{"name":"Forest","skin":"forest_2","x":-2,"y":14,"content":null},{"name":"Forest","skin":"forest_cultistacolyte2","x":-1,"y":14,"content":{"type":"monster","code":"cultist_acolyte"}},{"name":"Forest","skin":"forest_imp2","x":0,"y":14,"content":{"type":"monster","code":"imp"}},{"name":"Forest","skin":"forest_hellhound1","x":1,"y":14,"content":{"type":"monster","code":"hellhound"}},{"name":"Forest","skin":"forest_2","x":2,"y":14,"content":null},{"name":"Forest","skin":"forest_1","x":3,"y":14,"content":null},{"name":"Forest","skin":"forest_mapletree2","x":4,"y":14,"content":{"type":"resource","code":"maple_tree"}},{"name":"Forest","skin":"forest_1","x":5,"y":14,"content":null},{"name":"Forest","skin":"forest_4","x":6,"y":14,"content":null},{"name":"Forest","skin":"forest_nettle1","x":7,"y":14,"content":{"type":"resource","code":"nettle"}},{"name":"Forest","skin":"forest_1","x":8,"y":14,"content":null},{"name":"Forest","skin":"forest_4","x":9,"y":14,"content":null},{"name":"Forest","skin":"forest_3","x":10,"y":14,"content":null},{"name":"Forest","skin":"forest_4","x":11,"y":14,"content":null},{"name":"Forest","skin":"forest_1","x":-5,"y":15,"content":null},{"name":"Forest","skin":"forest_1","x":-4,"y":15,"content":null},{"name":"Forest","skin":"forest_3","x":-3,"y":15,"content":null},{"name":"Forest","skin":"forest_3","x":-2,"y":15,"content":null},{"name":"Forest","skin":"forest_1","x":-1,"y":15,"content":null},{"name":"Forest","skin":"forest_1","x":0,"y":15,"content":null},{"name":"Forest","skin":"forest_3","x":1,"y":15,"content":null},{"name":"Forest","skin":"forest_3","x":2,"y":15,"content":null},{"name":"Forest","skin":"forest_1","x":3,"y":15,"content":null},{"name":"Forest","skin":"forest_1","x":4,"y":15,"content":null}],"total":357,"page":7,"size":50,"pages":8}