{"data":[{"name":"Graveyard","skin":"forest_skeleton1","x":8,"y":6,"content":{"type":"monster","code":"skeleton"}},{"name":"Graveyard","skin":"forest_skeleton2","x":9,"y":6,"content":{"type":"resource","code":"dead_tree"}},{"name":"Graveyard","skin":"forest_skeleton3","x":10,"y":6,"content":{"type":"monster","code":"vampire"}},{"name":"Forest","skin":"forest_3","x":11,"y":6,"content":null},{"name":"Forest","skin":"forest_2","x":-5,"y":7,"content":null},{"name":"Forest","skin":"forest_1","x":-4,"y":7,"content":null},{"name":"Forest","skin":"forest_2","x":-3,"y":7,"content":null},{"name":"Forest","skin":"forest_4","x":-2,"y":7,"content":null},{"name":"Forest","skin":"forest_1","x":-1,"y":7,"content":null},{"name":"Forest","skin":"forest_2","x":0,"y":7,"content":null},{"name":"Forest","skin":"forest_ironore2","x":1,"y":7,"content":{"type":"resource","code":"iron_rocks"}},{"name":"Forest","skin":"forest_road1","x":2,"y":7,"content":null},{"name":"Forest","skin":"forest_1","x":3,"y":7,"content":null},{"name":"Forest","skin":"forest_2","x":4,"y":7,"content":null},{"name":"Forest","skin":"forest_3","x":5,"y":7,"content":null},{"name":"Forest","skin":"forest_1","x":6,"y":7,"content":null},{"name":"Forest","skin":"forest_2","x":7,"y":7,"content":null},{"name":"Graveyard","skin":"forest_skeleton4","x":8,"y":7,"content":{"type":"monster","code":"death_knight"}},{"name":"Graveyard","skin":"forest_skeleton5","x":9,"y":7,"content":{"type":"monster","code":"lich"}},{"name":"Graveyard","skin":"forest_skeleton6","x":10,"y":7,"content":{"type":"monster","code":"death_knight"}},{"name":"Forest","skin":"forest_bat2","x":11,"y":7,"content":{"type":"monster","code":"bat"}},{"name":"Forest","skin":"forest_1","x":-5,"y":8,"content":null},{"name":"Forest","skin":"forest_2","x":-4,"y":8,"content":null},{"name":"Forest","skin":"forest_1","x":-3,"y":8,"content":null},{"name":"Forest","skin":"forest_1","x":-2,"y":8,"content":null},{"name":"Forest","skin":"forest_2","x":-1,"y":8,"content":null},{"name":"Forest","skin":"forest_2","x":0,"y":8,"content":null},{"name":"Forest","skin":"forest_3","x":1,"y":8,"content":null},{"name":"Forest","skin":"forest_highwayman1","x":2,"y":8,"content":{"type":"monster","code":"highwayman"}},{"name":"Forest","skin":"forest_3","x":3,"y":8,"content":null},{"name":"Forest","skin":"forest_2","x":4,"y":8,"content":null},{"name":"Forest","skin":"forest_3","x":5,"y":8,"content":null},{"name":"Forest","skin":"forest_1","x":6,"y":8,"content":null},{"name":"Forest","skin":"forest_2","x":7,"y":8,"content":null},{"name":"Graveyard","skin":"forest_skeleton7","x":8,"y":8,"content":{"type":"monster","code":"skeleton"}},{"name":"Graveyard","skin":"forest_skeleton8","x":9,"y":8,"content":{"type":"resource","code":"dead_tree"}},{"name":"Graveyard","skin":"forest_skeleton9","x":10,"y":8,"content":{"type":"monster","code":"vampire"}},{"name":"Forest","skin":"forest_3","x":11,"y":8,"content":null},{"name":"Forest","skin":"forest_1","x":-5,"y":9,"content":null},{"name":"Forest","skin":"forest_1","x":-4,"y":9,"content":null},{"name":"Forest","skin":"forest_2","x":-3,"y":9,"content":null},{"name":"Forest","skin":"forest_4","x":-2,"y":9,"content":null},{"name":"Forest","skin":"forest_1","x":-1,"y":9,"content":null},{"name":"Forest","skin":"forest_2","x":0,"y":9,"content":null},{"name":"Forest","skin":"forest_sprucetree1","x":1,"y":9,"content":{"type":"resource","code":"spruce_tree"}},{"name":"Forest","skin":"forest_road3","x":2,"y":9,"content":null},{"name":"Forest","skin":"forest_1","x":3,"y":9,"content":null},{"name":"Forest","skin":"forest_2","x":4,"y":9,"content":null},{"name":"Forest","skin":"forest_3","x":5,"y":9,"content":null},{"name":"Forest","skin":"forest_1","x":6,"y":9,"content":null}],"total":357,"page":5,"size":50,"pages":8}