{"data":[{"map_id":201,"name":"Empty","skin":"interior","x":10,"y":-2,"layer":"interior","access":{"type":"blocked","conditions":[]},"interactions":{"content":null,"transition":null}},{"map_id":202,"name":"Forest","skin":"forest_1","x":11,"y":-2,"layer":"overworld","access":{"type":"standard","conditions":[]},"interactions":{"content":null,"transition":null}},{"map_id":203,"name":"Empty","skin":"underground","x":11,"y":-2,"layer":"underground","access":{"type":"blocked","conditions":[]},"interactions":{"content":null,"transition":null}},{"map_id":204,"name":"Empty","skin":"interior","x":11,"y":-2,"layer":"interior","access":{"type":"blocked","conditions":[]},"interactions":{"content":null,"transition":null}},{"map_id":205,"name":"Forest","skin":"forest_3","x":-5,"y":-1,"layer":"overworld","access":{"type":"standard","conditions":[]},"interactions":{"content":null,"transition":null}},{"map_id":206,"name":"Empty","skin":"underground","x":-5,"y":-1,"layer":"underground","access":{"type":"blocked","conditions":[]},"interactions":{"content":null,"transition":null}},{"map_id":207,"name":"Empty","skin":"interior","x":-5,"y":-1,"layer":"interior","access":{"type":"blocked","conditions":[]},"interactions":{"content":null,"transition":null}},{"map_id":208,"name":"Forest","skin":"forest_3","x":-4,"y":-1,"layer":"overworld","access":{"type":"standard","conditions":[]},"interactions":{"content":null,"transition":null}},{"map_id":209,"name":"Empty","skin":"underground","x":-4,"y":-1,"layer":"underground","access":{"type":"blocked","conditions":[]},"interactions":{"content":null,"transition":null}},{"map_id":210,"name":"Empty","skin":"interior","x":-4,"y":-1,"layer":"interior","access":{"type":"blocked","conditions":[]},"interactions":{"content":null,"transition":null}},{"map_id":211,"name":"Forest","skin":"forest_3","x":-3,"y":-1,"layer":"overworld","access":{"type":"standard","conditions":[]},"interactions":{"content":null,"transition":null}},{"map_id":212,"name":"Empty","skin":"underground","x":-3,"y":-1,"layer":"underground","access":{"type":"blocked","conditions":[]},"interactions":{"content":null,"transition":null}},{"map_id":213,"name":"Empty","skin":"interior","x":-3,"y":-1,"layer":"interior","access":{"type":"blocked","conditions":[]},"interactions":{"content":null,"transition":null}},{"map_id":214,"name":"Forest","skin":"forest_2","x":-2,"y":-1,"layer":"overworld","access":{"type":"standard","conditions":[]},"interactions":{"content":null,"transition":null}},{"map_id":215,"name":"Empty","skin":"underground","x":-2,"y":-1,"layer":"underground","access":{"type":"blocked","conditions":[]},"interactions":{"content":null,"transition":null}},{"map_id":216,"name":"Empty","skin":"interior","x":-2,"y":-1,"layer":"interior","access":{"type":"blocked","conditions":[]},"interactions":{"content":null,"transition":null}},{"map_id":217,"name":"Forest","skin":"forest_2","x":-1,"y":-1,"layer":"overworld","access":{"type":"standard","conditions":[]},"interactions":{"content":null,"transition":null}},{"map_id":218,"name":"Empty","skin":"underground","x":-1,"y":-1,"layer":"underground","access":{"type":"blocked","conditions":[]},"interactions":{"content":null,"transition":null}},{"map_id":219,"name":"Empty","skin":"interior","x":-1,"y":-1,"layer":"interior","access":{"type":"blocked","conditions":[]},"interactions":{"content":null,"transition":null}},{"map_id":220,"name":"Forest","skin":"forest_greenslime2","x":0,"y":-1,"layer":"overworld","access":{"type":"standard","conditions":[]},"interactions":{"content":{"type":"monster","code":"green_slime"},"transition":null}},{"map_id":221,"name":"Empty","skin":"underground","x":0,"y":-1,"layer":"underground","access":{"type":"blocked","conditions":[]},"interactions":{"content":null,"transition":null}},{"map_id":222,"name":"Empty","skin":"interior","x":0,"y":-1,"layer":"interior","access":{"type":"blocked","conditions":[]},"interactions":{"content":null,"transition":null}},{"map_id":223,"name":"Forest","skin":"forest_redslime1","x":1,"y":-1,"layer":"overworld","access":{"type":"standard","conditions":[]},"interactions":{"content":{"type":"monster","code":"red_slime"},"transition":null}},{"map_id":224,"name":"Empty","skin":"underground","x":1,"y":-1,"layer":"underground","access":{"type":"blocked","conditions":[]},"interactions":{"content":null,"transition":null}},{"map_id":225,"name":"Empty","skin":"interior","x":1,"y":-1,"layer":"interior","access":{"type":"blocked","conditions":[]},"interactions":{"content":null,"transition":null}},{"map_id":226,"name":"Forest","skin":"forest_blueslime2","x":2,"y":-1,"layer":"overworld","access":{"type":"standard","conditions":[]},"interactions":{"content":{"type":"monster","code":"blue_slime"},"transition":null}},{"map_id":227,"name":"Empty","skin":"underground","x":2,"y":-1,"layer":"underground","access":{"type":"blocked","conditions":[]},"interactions":{"content":null,"transition":null}},{"map_id":228,"name":"Empty","skin":"interior","x":2,"y":-1,"layer":"interior","access":{"type":"blocked","conditions":[]},"interactions":{"content":null,"transition":null}},{"map_id":229,"name":"Forest","skin":"forest_kingslime1","x":3,"y":-1,"layer":"overworld","access":{"type":"standard","conditions":[]},"interactions":{"content":{"type":"monster","code":"king_slime"},"transition":null}},{"map_id":230,"name":"Empty","skin":"underground","x":3,"y":-1,"layer":"underground","access":{"type":"blocked","conditions":[]},"interactions":{"content":null,"transition":null}},{"map_id":231,"name":"Empty","skin":"interior","x":3,"y":-1,"layer":"interior","access":{"type":"blocked","conditions":[]},"interactions":{"content":null,"transition":null}},{"map_id":232,"name":"Forest","skin":"forest_yellowslime2","x":4,"y":-1,"layer":"overworld","access":{"type":"standard","conditions":[]},"interactions":{"content":{"type":"monster","code":"yellow_slime"},"transition":null}},{"map_id":233,"name":"Empty","skin":"underground","x":4,"y":-1,"layer":"underground","access":{"type":"blocked","conditions":[]},"interactions":{"content":null,"transition":null}},{"map_id":234,"name":"Empty","skin":"interior","x":4,"y":-1,"layer":"interior","access":{"type":"blocked","conditions":[]},"interactions":{"content":null,"transition":null}},{"map_id":235,"name":"Forest","skin":"forest_road12","x":5,"y":-1,"layer":"overworld","access":{"type":"standard","conditions":[]},"interactions":{"content":null,"transition":null}},{"map_id":236,"name":"Empty","skin":"underground","x":5,"y":-1,"layer":"underground","access":{"type":"blocked","conditions":[]},"interactions":{"content":null,"transition":null}},{"map_id":237,"name":"Empty","skin":"interior","x":5,"y":-1,"layer":"interior","access":{"type":"blocked","conditions":[]},"interactions":{"content":null,"transition":null}},{"map_id":238,"name":"Forest","skin":"forest_road13","x":6,"y":-1,"layer":"overworld","access":{"type":"standard","conditions":[]},"interactions":{"content":null,"transition":null}},{"map_id":239,"name":"Empty","skin":"underground","x":6,"y":-1,"layer":"underground","access":{"type":"blocked","conditions":[]},"interactions":{"content":null,"transition":null}},{"map_id":240,"name":"Empty","skin":"interior","x":6,"y":-1,"layer":"interior","access":{"type":"blocked","conditions":[]},"interactions":{"content":null,"transition":null}},{"map_id":241,"name":"Forest","skin":"forest_road14","x":7,"y":-1,"layer":"overworld","access":{"type":"standard","conditions":[]},"interactions":{"content":null,"transition":null}},{"map_id":242,"name":"Empty","skin":"underground","x":7,"y":-1,"layer":"underground","access":{"type":"blocked","conditions":[]},"interactions":{"content":null,"transition":null}},{"map_id":243,"name":"Empty","skin":"interior","x":7,"y":-1,"layer":"interior","access":{"type":"blocked","conditions":[]},"interactions":{"content":null,"transition":null}},{"map_id":244,"name":"Forest","skin":"forest_road15","x":8,"y":-1,"layer":"overworld","access":{"type":"standard","conditions":[]},"interactions":{"content":null,"transition":null}},{"map_id":245,"name":"Empty","skin":"underground","x":8,"y":-1,"layer":"underground","access":{"type":"blocked","conditions":[]},"interactions":{"content":null,"transition":null}},{"map_id":246,"name":"Empty","skin":"interior","x":8,"y":-1,"layer":"interior","access":{"type":"blocked","conditions":[]},"interactions":{"content":null,"transition":null}},{"map_id":247,"name":"Forest","skin":"forest_1","x":9,"y":-1,"layer":"overworld","access":{"type":"standard","conditions":[]},"interactions":{"content":null,"transition":null}},{"map_id":248,"name":"Empty","skin":"underground","x":9,"y":-1,"layer":"underground","access":{"type":"blocked","conditions":[]},"interactions":{"content":null,"transition":null}},{"map_id":249,"name":"Empty","skin":"interior","x":9,"y":-1,"layer":"interior","access":{"type":"blocked","conditions":[]},"interactions":{"content":null,"transition":null}},{"map_id":250,"name":"Forest","skin":"forest_1","x":10,"y":-1,"layer":"overworld","access":{"type":"standard","conditions":[]},"interactions":{"content":null,"transition":null}}],"total":1428,"page":5,"size":50,"pages":29}