{
    "data": [
        {
            "map_id": 1,
            "name": "Forest",
            "skin": "forest_3",
            "x": -5,
            "y": -5,
            "layer": "overworld",
            "access": {
                "type": "standard",
                "conditions": []
            },
            "interactions": {
                "content": null,
                "transition": null
            }
        },
        {
            "map_id": 2,
            "name": "Empty",
            "skin": "underground",
            "x": -5,
            "y": -5,
            "layer": "underground",
            "access": {
                "type": "blocked",
                "conditions": []
            },
            "interactions": {
                "content": null,
                "transition": null
            }
        },
        {
            "map_id": 3,
            "name": "Empty",
            "skin": "interior",
            "x": -5,
            "y": -5,
            "layer": "interior",
            "access": {
                "type": "blocked",
                "conditions": []
            },
            "interactions": {
                "content": null,
                "transition": null
            }
        },
        {
            "map_id": 4,
            "name": "Forest",
            "skin": "forest_2",
            "x": -4,
            "y": -5,
            "layer": "overworld",
            "access": {
                "type": "standard",
                "conditions": []
            },
            "interactions": {
                "content": null,
                "transition": null
            }
        },
        {
            "map_id": 5,
            "name": "Empty",
            "skin": "underground",
            "x": -4,
            "y": -5,
            "layer": "underground",
            "access": {
                "type": "blocked",
                "conditions": []
            },
            "interactions": {
                "content": null,
                "transition": null
            }
        },
        {
            "map_id": 6,
            "name": "Empty",
            "skin": "interior",
            "x": -4,
            "y": -5,
            "layer": "interior",
            "access": {
                "type": "blocked",
                "conditions": []
            },
            "interactions": {
                "content": null,
                "transition": null
            }
        },
        {
            "map_id": 7,
            "name": "Forest",
            "skin": "forest_2",
            "x": -3,
            "y": -5,
            "layer": "overworld",
            "access": {
                "type": "standard",
                "conditions": []
            },
            "interactions": {
                "content": null,
                "transition": null
            }
        },
        {
            "map_id": 8,
            "name": "Empty",
            "skin": "underground",
            "x": -3,
            "y": -5,
            "layer": "underground",
            "access": {
                "type": "blocked",
                "conditions": []
            },
            "interactions": {
                "content": null,
                "transition": null
            }
        },
        {
            "map_id": 9,
            "name": "Empty",
            "skin": "interior",
            "x": -3,
            "y": -5,
            "layer": "interior",
            "access": {
                "type": "blocked",
                "conditions": []
            },
            "interactions": {
                "content": null,
                "transition": null
            }
        },
        {
            "map_id": 10,
            "name": "Forest",
            "skin": "forest_3",
            "x": -2,
            "y": -5,
            "layer": "overworld",
            "access": {
                "type": "standard",
                "conditions": []
            },
            "interactions": {
                "content": null,
                "transition": null
            }
        },
        {
            "map_id": 11,
            "name": "Empty",
            "skin": "underground",
            "x": -2,
            "y": -5,
            "layer": "underground",
            "access": {
                "type": "blocked",
                "conditions": []
            },
            "interactions": {
                "content": null,
                "transition": null
            }
        },
        {
            "map_id": 12,
            "name": "Empty",
            "skin": "interior",
            "x": -2,
            "y": -5,
            "layer": "interior",
            "access": {
                "type": "blocked",
                "conditions": []
            },
            "interactions": {
                "content": null,
                "transition": null
            }
        },
        {
            "map_id": 13,
            "name": "Forest",
            "skin": "forest_1",
            "x": -1,
            "y": -5,
            "layer": "overworld",
            "access": {
                "type": "standard",
                "conditions": []
            },
            "interactions": {
                "content": null,
                "transition": null
            }
        },
        {
            "map_id": 14,
            "name": "Empty",
            "skin": "underground",
            "x": -1,
            "y": -5,
            "layer": "underground",
            "access": {
                "type": "blocked",
                "conditions": []
            },
            "interactions": {
                "content": null,
                "transition": null
            }
        },
        {
            "map_id": 15,
            "name": "Empty",
            "skin": "interior",
            "x": -1,
            "y": -5,
            "layer": "interior",
            "access": {
                "type": "blocked",
                "conditions": []
            },
            "interactions": {
                "content": null,
                "transition": null
            }
        },
        {
            "map_id": 16,
            "name": "Forest",
            "skin": "forest_2",
            "x": 0,
            "y": -5,
            "layer": "overworld",
            "access": {
                "type": "standard",
                "conditions": []
            },
            "interactions": {
                "content": null,
                "transition": null
            }
        },
        {
            "map_id": 17,
            "name": "Empty",
            "skin": "underground",
            "x": 0,
            "y": -5,
            "layer": "underground",
            "access": {
                "type": "blocked",
                "conditions": []
            },
            "interactions": {
                "content": null,
                "transition": null
            }
        },
        {
            "map_id": 18,
            "name": "Empty",
            "skin": "interior",
            "x": 0,
            "y": -5,
            "layer": "interior",
            "access": {
                "type": "blocked",
                "conditions": []
            },
            "interactions": {
                "content": null,
                "transition": null
            }
        },
        {
            "map_id": 19,
            "name": "Forest",
            "skin": "forest_3",
            "x": 1,
            "y": -5,
            "layer": "overworld",
            "access": {
                "type": "standard",
                "conditions": []
            },
            "interactions": {
                "content": null,
                "transition": null
            }
        },
        {
            "map_id": 20,
            "name": "Empty",
            "skin": "underground",
            "x": 1,
            "y": -5,
            "layer": "underground",
            "access": {
                "type": "blocked",
                "conditions": []
            },
            "interactions": {
                "content": null,
                "transition": null
            }
        },
        {
            "map_id": 21,
            "name": "Empty",
            "skin": "interior",
            "x": 1,
            "y": -5,
            "layer": "interior",
            "access": {
                "type": "blocked",
                "conditions": []
            },
            "interactions": {
                "content": null,
                "transition": null
            }
        },
        {
            "map_id": 22,
            "name": "Forest",
            "skin": "forest_2",
            "x": 2,
            "y": -5,
            "layer": "overworld",
            "access": {
                "type": "standard",
                "conditions": []
            },
            "interactions": {
                "content": null,
                "transition": null
            }
        },
        {
            "map_id": 23,
            "name": "Empty",
            "skin": "underground",
            "x": 2,
            "y": -5,
            "layer": "underground",
            "access": {
                "type": "blocked",
                "conditions": []
            },
            "interactions": {
                "content": null,
                "transition": null
            }
        },
        {
            "map_id": 24,
            "name": "Empty",
            "skin": "interior",
            "x": 2,
            "y": -5,
            "layer": "interior",
            "access": {
                "type": "blocked",
                "conditions": []
            },
            "interactions": {
                "content": null,
                "transition": null
            }
        },
        {
            "map_id": 25,
            "name": "Forest",
            "skin": "forest_3",
            "x": 3,
            "y": -5,
            "layer": "overworld",
            "access": {
                "type": "standard",
                "conditions": []
            },
            "interactions": {
                "content": null,
                "transition": null
            }
        },
        {
            "map_id": 26,
            "name": "Empty",
            "skin": "underground",
            "x": 3,
            "y": -5,
            "layer": "underground",
            "access": {
                "type": "blocked",
                "conditions": []
            },
            "interactions": {
                "content": null,
                "transition": null
            }
        },
        {
            "map_id": 27,
            "name": "Empty",
            "skin": "interior",
            "x": 3,
            "y": -5,
            "layer": "interior",
            "access": {
                "type": "blocked",
                "conditions": []
            },
            "interactions": {
                "content": null,
                "transition": null
            }
        },
        {
            "map_id": 28,
            "name": "Forest",
            "skin": "forest_1",
            "x": 4,
            "y": -5,
            "layer": "overworld",
            "access": {
                "type": "standard",
                "conditions": []
            },
            "interactions": {
                "content": null,
                "transition": null
            }
        },
        {
            "map_id": 29,
            "name": "Empty",
            "skin": "underground",
            "x": 4,
            "y": -5,
            "layer": "underground",
            "access": {
                "type": "blocked",
                "conditions": []
            },
            "interactions": {
                "content": null,
                "transition": null
            }
        },
        {
            "map_id": 30,
            "name": "Empty",
            "skin": "interior",
            "x": 4,
            "y": -5,
            "layer": "interior",
            "access": {
                "type": "blocked",
                "conditions": []
            },
            "interactions": {
                "content": null,
                "transition": null
            }
        },
        {
            "map_id": 31,
            "name": "Forest",
            "skin": "forest_2",
            "x": 5,
            "y": -5,
            "layer": "overworld",
            "access": {
                "type": "standard",
                "conditions": []
            },
            "interactions": {
                "content": null,
                "transition": null
            }
        },
        {
            "map_id": 32,
            "name": "Empty",
            "skin": "underground",
            "x": 5,
            "y": -5,
            "layer": "underground",
            "access": {
                "type": "blocked",
                "conditions": []
            },
            "interactions": {
                "content": null,
                "transition": null
            }
        },
        {
            "map_id": 33,
            "name": "Empty",
            "skin": "interior",
            "x": 5,
            "y": -5,
            "layer": "interior",
            "access": {
                "type": "blocked",
                "conditions": []
            },
            "interactions": {
                "content": null,
                "transition": null
            }
        },
        {
            "map_id": 34,
            "name": "Forest",
            "skin": "forest_3",
            "x": 6,
            "y": -5,
            "layer": "overworld",
            "access": {
                "type": "standard",
                "conditions": []
            },
            "interactions": {
                "content": null,
                "transition": null
            }
        },
        {
            "map_id": 35,
            "name": "Empty",
            "skin": "underground",
            "x": 6,
            "y": -5,
            "layer": "underground",
            "access": {
                "type": "blocked",
                "conditions": []
            },
            "interactions": {
                "content": null,
                "transition": null
            }
        },
        {
            "map_id": 36,
            "name": "Empty",
            "skin": "interior",
            "x": 6,
            "y": -5,
            "layer": "interior",
            "access": {
                "type": "blocked",
                "conditions": []
            },
            "interactions": {
                "content": null,
                "transition": null
            }
        },
        {
            "map_id": 37,
            "name": "Forest",
            "skin": "forest_1",
            "x": 7,
            "y": -5,
            "layer": "overworld",
            "access": {
                "type": "standard",
                "conditions": []
            },
            "interactions": {
                "content": null,
                "transition": null
            }
        },
        {
            "map_id": 38,
            "name": "Empty",
            "skin": "underground",
            "x": 7,
            "y": -5,
            "layer": "underground",
            "access": {
                "type": "blocked",
                "conditions": []
            },
            "interactions": {
                "content": null,
                "transition": null
            }
        },
        {
            "map_id": 39,
            "name": "Empty",
            "skin": "interior",
            "x": 7,
            "y": -5,
            "layer": "interior",
            "access": {
                "type": "blocked",
                "conditions": []
            },
            "interactions": {
                "content": null,
                "transition": null
            }
        },
        {
            "map_id": 40,
            "name": "Forest",
            "skin": "forest_2",
            "x": 8,
            "y": -5,
            "layer": "overworld",
            "access": {
                "type": "standard",
                "conditions": []
            },
            "interactions": {
                "content": null,
                "transition": null
            }
        },
        {
            "map_id": 41,
            "name": "Empty",
            "skin": "underground",
            "x": 8,
            "y": -5,
            "layer": "underground",
            "access": {
                "type": "blocked",
                "conditions": []
            },
            "interactions": {
                "content": null,
                "transition": null
            }
        },
        {
            "map_id": 42,
            "name": "Empty",
            "skin": "interior",
            "x": 8,
            "y": -5,
            "layer": "interior",
            "access": {
                "type": "blocked",
                "conditions": []
            },
            "interactions": {
                "content": null,
                "transition": null
            }
        },
        {
            "map_id": 43,
            "name": "Forest",
            "skin": "forest_3",
            "x": 9,
            "y": -5,
            "layer": "overworld",
            "access": {
                "type": "standard",
                "conditions": []
            },
            "interactions": {
                "content": null,
                "transition": null
            }
        },
        {
            "map_id": 44,
            "name": "Empty",
            "skin": "underground",
            "x": 9,
            "y": -5,
            "layer": "underground",
            "access": {
                "type": "blocked",
                "conditions": []
            },
            "interactions": {
                "content": null,
                "transition": null
            }
        },
        {
            "map_id": 45,
            "name": "Empty",
            "skin": "interior",
            "x": 9,
            "y": -5,
            "layer": "interior",
            "access": {
                "type": "blocked",
                "conditions": []
            },
            "interactions": {
                "content": null,
                "transition": null
            }
        },
        {
            "map_id": 46,
            "name": "Forest",
            "skin": "forest_2",
            "x": 10,
            "y": -5,
            "layer": "overworld",
            "access": {
                "type": "standard",
                "conditions": []
            },
            "interactions": {
                "content": null,
                "transition": null
            }
        },
        {
            "map_id": 47,
            "name": "Empty",
            "skin": "underground",
            "x": 10,
            "y": -5,
            "layer": "underground",
            "access": {
                "type": "blocked",
                "conditions": []
            },
            "interactions": {
                "content": null,
                "transition": null
            }
        },
        {
            "map_id": 48,
            "name": "Empty",
            "skin": "interior",
            "x": 10,
            "y": -5,
            "layer": "interior",
            "access": {
                "type": "blocked",
                "conditions": []
            },
            "interactions": {
                "content": null,
                "transition": null
            }
        },
        {
            "map_id": 49,
            "name": "Forest",
            "skin": "forest_3",
            "x": 11,
            "y": -5,
            "layer": "overworld",
            "access": {
                "type": "standard",
                "conditions": []
            },
            "interactions": {
                "content": null,
                "transition": null
            }
        },
        {
            "map_id": 50,
            "name": "Empty",
            "skin": "underground",
            "x": 11,
            "y": -5,
            "layer": "underground",
            "access": {
                "type": "blocked",
                "conditions": []
            },
            "interactions": {
                "content": null,
                "transition": null
            }
        }
    ],
    "total": 1428,
    "page": 1,
    "size": 50,
    "pages": 29
}