{"data":[{"map_id":751,"name":"Forest","skin":"forest_2","x":7,"y":9,"layer":"overworld","access":{"type":"standard","conditions":[]},"interactions":{"content":null,"transition":null}},{"map_id":752,"name":"Empty","skin":"underground","x":7,"y":9,"layer":"underground","access":{"type":"blocked","conditions":[]},"interactions":{"content":null,"transition":null}},{"map_id":753,"name":"Empty","skin":"interior","x":7,"y":9,"layer":"interior","access":{"type":"blocked","conditions":[]},"interactions":{"content":null,"transition":null}},{"map_id":754,"name":"Forest","skin":"forest_1","x":8,"y":9,"layer":"overworld","access":{"type":"standard","conditions":[]},"interactions":{"content":null,"transition":null}},{"map_id":755,"name":"Empty","skin":"underground","x":8,"y":9,"layer":"underground","access":{"type":"blocked","conditions":[]},"interactions":{"content":null,"transition":null}},{"map_id":756,"name":"Empty","skin":"interior","x":8,"y":9,"layer":"interior","access":{"type":"blocked","conditions":[]},"interactions":{"content":null,"transition":null}},{"map_id":757,"name":"Forest","skin":"forest_cursed_tree1","x":9,"y":9,"layer":"overworld","access":{"type":"standard","conditions":[]},"interactions":{"content":{"type":"monster","code":"cursed_tree"},"transition":null}},{"map_id":758,"name":"Empty","skin":"underground","x":9,"y":9,"layer":"underground","access":{"type":"blocked","conditions":[]},"interactions":{"content":null,"transition":null}},{"map_id":759,"name":"Empty","skin":"interior","x":9,"y":9,"layer":"interior","access":{"type":"blocked","conditions":[]},"interactions":{"content":null,"transition":null}},{"map_id":760,"name":"Forest","skin":"forest_2","x":10,"y":9,"layer":"overworld","access":{"type":"standard","conditions":[]},"interactions":{"content":null,"transition":null}},{"map_id":761,"name":"Empty","skin":"underground","x":10,"y":9,"layer":"underground","access":{"type":"blocked","conditions":[]},"interactions":{"content":null,"transition":null}},{"map_id":762,"name":"Empty","skin":"interior","x":10,"y":9,"layer":"interior","access":{"type":"blocked","conditions":[]},"interactions":{"content":null,"transition":null}},{"map_id":763,"name":"Forest","skin":"forest_3","x":11,"y":9,"layer":"overworld","access":{"type":"standard","conditions":[]},"interactions":{"content":null,"transition":null}},{"map_id":764,"name":"Empty","skin":"underground","x":11,"y":9,"layer":"underground","access":{"type":"blocked","conditions":[]},"interactions":{"content":null,"transition":null}},{"map_id":765,"name":"Empty","skin":"interior","x":11,"y":9,"layer":"interior","access":{"type":"blocked","conditions":[]},"interactions":{"content":null,"transition":null}},{"map_id":766,"name":"Forest","skin":"forest_2","x":-5,"y":10,"layer":"overworld","access":{"type":"standard","conditions":[]},"interactions":{"content":null,"transition":null}},{"map_id":767,"name":"Empty","skin":"underground","x":-5,"y":10,"layer":"underground","access":{"type":"blocked","conditions":[]},"interactions":{"content":null,"transition":null}},{"map_id":768,"name":"Empty","skin":"interior","x":-5,"y":10,"layer":"interior","access":{"type":"blocked","conditions":[]},"interactions":{"content":null,"transition":null}},{"map_id":769,"name":"Forest","skin":"forest_1","x":-4,"y":10,"layer":"overworld","access":{"type":"standard","conditions":[]},"interactions":{"content":null,"transition":null}},{"map_id":770,"name":"Empty","skin":"underground","x":-4,"y":10,"layer":"underground","access":{"type":"blocked","conditions":[]},"interactions":{"content":null,"transition":null}},{"map_id":771,"name":"Empty","skin":"interior","x":-4,"y":10,"layer":"interior","access":{"type":"blocked","conditions":[]},"interactions":{"content":null,"transition":null}},{"map_id":772,"name":"Forest","skin":"forest_3","x":-3,"y":10,"layer":"overworld","access":{"type":"standard","conditions":[]},"interactions":{"content":null,"transition":null}},{"map_id":773,"name":"Empty","skin":"underground","x":-3,"y":10,"layer":"underground","access":{"type":"blocked","conditions":[]},"interactions":{"content":null,"transition":null}},{"map_id":774,"name":"Empty","skin":"interior","x":-3,"y":10,"layer":"interior","access":{"type":"blocked","conditions":[]},"interactions":{"content":null,"transition":null}},{"map_id":775,"name":"Forest","skin":"forest_1","x":-2,"y":10,"layer":"overworld","access":{"type":"standard","conditions":[]},"interactions":{"content":null,"transition":null}},{"map_id":776,"name":"Empty","skin":"underground","x":-2,"y":10,"layer":"underground","access":{"type":"blocked","conditions":[]},"interactions":{"content":null,"transition":null}},{"map_id":777,"name":"Empty","skin":"interior","x":-2,"y":10,"layer":"interior","access":{"type":"blocked","conditions":[]},"interactions":{"content":null,"transition":null}},{"map_id":778,"name":"Forest","skin":"forest_2","x":-1,"y":10,"layer":"overworld","access":{"type":"standard","conditions":[]},"interactions":{"content":null,"transition":null}},{"map_id":779,"name":"Empty","skin":"underground","x":-1,"y":10,"layer":"underground","access":{"type":"blocked","conditions":[]},"interactions":{"content":null,"transition":null}},{"map_id":780,"name":"Empty","skin":"interior","x":-1,"y":10,"layer":"interior","access":{"type":"blocked","conditions":[]},"interactions":{"content":null,"transition":null}},{"map_id":781,"name":"Forest","skin":"forest_3","x":0,"y":10,"layer":"overworld","access":{"type":"standard","conditions":[]},"interactions":{"content":null,"transition":null}},{"map_id":782,"name":"Empty","skin":"underground","x":0,"y":10,"layer":"underground","access":{"type":"blocked","conditions":[]},"interactions":{"content":null,"transition":null}},{"map_id":783,"name":"Empty","skin":"interior","x":0,"y":10,"layer":"interior","access":{"type":"blocked","conditions":[]},"interactions":{"content":null,"transition":null}},{"map_id":784,"name":"Forest","skin":"forest_glowstem1","x":1,"y":10,"layer":"overworld","access":{"type":"standard","conditions":[]},"interactions":{"content":{"type":"resource","code":"glowstem"},"transition":null}},{"map_id":785,"name":"Empty","skin":"underground","x":1,"y":10,"layer":"underground","access":{"type":"blocked","conditions":[]},"interactions":{"content":null,"transition":null}},{"map_id":786,"name":"Empty","skin":"interior","x":1,"y":10,"layer":"interior","access":{"type":"blocked","conditions":[]},"interactions":{"content":null,"transition":null}},{"map_id":787,"name":"Forest","skin":"forest_road7","x":2,"y":10,"layer":"overworld","access":{"type":"standard","conditions":[]},"interactions":{"content":null,"transition":null}},{"map_id":788,"name":"Empty","skin":"underground","x":2,"y":10,"layer":"underground","access":{"type":"blocked","conditions":[]},"interactions":{"content":null,"transition":null}},{"map_id":789,"name":"Empty","skin":"interior","x":2,"y":10,"layer":"interior","access":{"type":"blocked","conditions":[]},"interactions":{"content":null,"transition":null}},{"map_id":790,"name":"Forest","skin":"forest_2","x":3,"y":10,"layer":"overworld","access":{"type":"standard","conditions":[]},"interactions":{"content":null,"transition":null}},{"map_id":791,"name":"Empty","skin":"underground","x":3,"y":10,"layer":"underground","access":{"type":"blocked","conditions":[]},"interactions":{"content":null,"transition":null}},{"map_id":792,"name":"Empty","skin":"interior","x":3,"y":10,"layer":"interior","access":{"type":"blocked","conditions":[]},"interactions":{"content":null,"transition":null}},{"map_id":793,"name":"Forest","skin":"forest_1","x":4,"y":10,"layer":"overworld","access":{"type":"standard","conditions":[]},"interactions":{"content":null,"transition":null}},{"map_id":794,"name":"Empty","skin":"underground","x":4,"y":10,"layer":"underground","access":{"type":"blocked","conditions":[]},"interactions":{"content":null,"transition":null}},{"map_id":795,"name":"Empty","skin":"interior","x":4,"y":10,"layer":"interior","access":{"type":"blocked","conditions":[]},"interactions":{"content":null,"transition":null}},{"map_id":796,"name":"Forest","skin":"forest_3","x":5,"y":10,"layer":"overworld","access":{"type":"standard","conditions":[]},"interactions":{"content":null,"transition":null}},{"map_id":797,"name":"Empty","skin":"underground","x":5,"y":10,"layer":"underground","access":{"type":"blocked","conditions":[]},"interactions":{"content":null,"transition":null}},{"map_id":798,"name":"Empty","skin":"interior","x":5,"y":10,"layer":"interior","access":{"type":"blocked","conditions":[]},"interactions":{"content":null,"transition":null}},{"map_id":799,"name":"Forest","skin":"forest_2","x":6,"y":10,"layer":"overworld","access":{"type":"standard","conditions":[]},"interactions":{"content":null,"transition":null}},{"map_id":800,"name":"Empty","skin":"underground","x":6,"y":10,"layer":"underground","access":{"type":"blocked","conditions":[]},"interactions":{"content":null,"transition":null}}],"total":1428,"page":16,"size":50,"pages":29}