{"data":[{"map_id":1001,"name":"Empty","skin":"underground","x":5,"y":14,"layer":"underground","access":{"type":"blocked","conditions":[]},"interactions":{"content":null,"transition":null}},{"map_id":1002,"name":"Empty","skin":"interior","x":5,"y":14,"layer":"interior","access":{"type":"blocked","conditions":[]},"interactions":{"content":null,"transition":null}},{"map_id":1003,"name":"Forest","skin":"forest_4","x":6,"y":14,"layer":"overworld","access":{"type":"standard","conditions":[]},"interactions":{"content":null,"transition":null}},{"map_id":1004,"name":"Empty","skin":"underground","x":6,"y":14,"layer":"underground","access":{"type":"blocked","conditions":[]},"interactions":{"content":null,"transition":null}},{"map_id":1005,"name":"Empty","skin":"interior","x":6,"y":14,"layer":"interior","access":{"type":"blocked","conditions":[]},"interactions":{"content":null,"transition":null}},{"map_id":1006,"name":"Forest","skin":"forest_nettle1","x":7,"y":14,"layer":"overworld","access":{"type":"standard","conditions":[]},"interactions":{"content":{"type":"resource","code":"nettle"},"transition":null}},{"map_id":1007,"name":"Empty","skin":"underground","x":7,"y":14,"layer":"underground","access":{"type":"blocked","conditions":[]},"interactions":{"content":null,"transition":null}},{"map_id":1008,"name":"Empty","skin":"interior","x":7,"y":14,"layer":"interior","access":{"type":"blocked","conditions":[]},"interactions":{"content":null,"transition":null}},{"map_id":1009,"name":"Forest","skin":"forest_1","x":8,"y":14,"layer":"overworld","access":{"type":"standard","conditions":[]},"interactions":{"content":null,"transition":null}},{"map_id":1010,"name":"Empty","skin":"underground","x":8,"y":14,"layer":"underground","access":{"type":"blocked","conditions":[]},"interactions":{"content":null,"transition":null}},{"map_id":1011,"name":"Empty","skin":"interior","x":8,"y":14,"layer":"interior","access":{"type":"blocked","conditions":[]},"interactions":{"content":null,"transition":null}},{"map_id":1012,"name":"Forest","skin":"forest_4","x":9,"y":14,"layer":"overworld","access":{"type":"standard","conditions":[]},"interactions":{"content":null,"transition":null}},{"map_id":1013,"name":"Empty","skin":"underground","x":9,"y":14,"layer":"underground","access":{"type":"blocked","conditions":[]},"interactions":{"content":null,"transition":null}},{"map_id":1014,"name":"Empty","skin":"interior","x":9,"y":14,"layer":"interior","access":{"type":"blocked","conditions":[]},"interactions":{"content":null,"transition":null}},{"map_id":1015,"name":"Forest","skin":"forest_3","x":10,"y":14,"layer":"overworld","access":{"type":"standard","conditions":[]},"interactions":{"content":null,"transition":null}},{"map_id":1016,"name":"Empty","skin":"underground","x":10,"y":14,"layer":"underground","access":{"type":"blocked","conditions":[]},"interactions":{"content":null,"transition":null}},{"map_id":1017,"name":"Empty","skin":"interior","x":10,"y":14,"layer":"interior","access":{"type":"blocked","conditions":[]},"interactions":{"content":null,"transition":null}},{"map_id":1018,"name":"Forest","skin":"forest_4","x":11,"y":14,"layer":"overworld","access":{"type":"standard","conditions":[]},"interactions":{"content":null,"transition":null}},{"map_id":1019,"name":"Empty","skin":"underground","x":11,"y":14,"layer":"underground","access":{"type":"blocked","conditions":[]},"interactions":{"content":null,"transition":null}},{"map_id":1020,"name":"Empty","skin":"interior","x":11,"y":14,"layer":"interior","access":{"type":"blocked","conditions":[]},"interactions":{"content":null,"transition":null}},{"map_id":1021,"name":"Forest","skin":"forest_coastline3","x":-5,"y":15,"layer":"overworld","access":{"type":"blocked","conditions":[]},"interactions":{"content":null,"transition":null}},{"map_id":1022,"name":"Empty","skin":"underground","x":-5,"y":15,"layer":"underground","access":{"type":"blocked","conditions":[]},"interactions":{"content":null,"transition":null}},{"map_id":1023,"name":"Empty","skin":"interior","x":-5,"y":15,"layer":"interior","access":{"type":"blocked","conditions":[]},"interactions":{"content":null,"transition":null}},{"map_id":1024,"name":"Forest","skin":"forest_coastline4","x":-4,"y":15,"layer":"overworld","access":{"type":"standard","conditions":[]},"interactions":{"content":null,"transition":null}},{"map_id":1025,"name":"Empty","skin":"underground","x":-4,"y":15,"layer":"underground","access":{"type":"blocked","conditions":[]},"interactions":{"content":null,"transition":null}},{"map_id":1026,"name":"Empty","skin":"interior","x":-4,"y":15,"layer":"interior","access":{"type":"blocked","conditions":[]},"interactions":{"content":null,"transition":null}},{"map_id":1027,"name":"Forest","skin":"forest_coastline5","x":-3,"y":15,"layer":"overworld","access":{"type":"standard","conditions":[]},"interactions":{"content":null,"transition":null}},{"map_id":1028,"name":"Empty","skin":"underground","x":-3,"y":15,"layer":"underground","access":{"type":"blocked","conditions":[]},"interactions":{"content":null,"transition":null}},{"map_id":1029,"name":"Empty","skin":"interior","x":-3,"y":15,"layer":"interior","access":{"type":"blocked","conditions":[]},"interactions":{"content":null,"transition":null}},{"map_id":1030,"name":"Forest","skin":"forest_3","x":-2,"y":15,"layer":"overworld","access":{"type":"standard","conditions":[]},"interactions":{"content":null,"transition":null}},{"map_id":1031,"name":"Empty","skin":"underground","x":-2,"y":15,"layer":"underground","access":{"type":"blocked","conditions":[]},"interactions":{"content":null,"transition":null}},{"map_id":1032,"name":"Empty","skin":"interior","x":-2,"y":15,"layer":"interior","access":{"type":"blocked","conditions":[]},"interactions":{"content":null,"transition":null}},{"map_id":1033,"name":"Forest","skin":"forest_1","x":-1,"y":15,"layer":"overworld","access":{"type":"standard","conditions":[]},"interactions":{"content":null,"transition":null}},{"map_id":1034,"name":"Empty","skin":"underground","x":-1,"y":15,"layer":"underground","access":{"type":"blocked","conditions":[]},"interactions":{"content":null,"transition":null}},{"map_id":1035,"name":"Empty","skin":"interior","x":-1,"y":15,"layer":"interior","access":{"type":"blocked","conditions":[]},"interactions":{"content":null,"transition":null}},{"map_id":1036,"name":"Forest","skin":"forest_1","x":0,"y":15,"layer":"overworld","access":{"type":"standard","conditions":[]},"interactions":{"content":null,"transition":null}},{"map_id":1037,"name":"Empty","skin":"underground","x":0,"y":15,"layer":"underground","access":{"type":"blocked","conditions":[]},"interactions":{"content":null,"transition":null}},{"map_id":1038,"name":"Empty","skin":"interior","x":0,"y":15,"layer":"interior","access":{"type":"blocked","conditions":[]},"interactions":{"content":null,"transition":null}},{"map_id":1039,"name":"Forest","skin":"forest_3","x":1,"y":15,"layer":"overworld","access":{"type":"standard","conditions":[]},"interactions":{"content":null,"transition":null}},{"map_id":1040,"name":"Empty","skin":"underground","x":1,"y":15,"layer":"underground","access":{"type":"blocked","conditions":[]},"interactions":{"content":null,"transition":null}},{"map_id":1041,"name":"Empty","skin":"interior","x":1,"y":15,"layer":"interior","access":{"type":"blocked","conditions":[]},"interactions":{"content":null,"transition":null}},{"map_id":1042,"name":"Forest","skin":"forest_road20","x":2,"y":15,"layer":"overworld","access":{"type":"standard","conditions":[]},"interactions":{"content":null,"transition":null}},{"map_id":1043,"name":"Empty","skin":"underground","x":2,"y":15,"layer":"underground","access":{"type":"blocked","conditions":[]},"interactions":{"content":null,"transition":null}},{"map_id":1044,"name":"Empty","skin":"interior","x":2,"y":15,"layer":"interior","access":{"type":"blocked","conditions":[]},"interactions":{"content":null,"transition":null}},{"map_id":1045,"name":"Forest","skin":"forest_1","x":3,"y":15,"layer":"overworld","access":{"type":"standard","conditions":[]},"interactions":{"content":null,"transition":null}},{"map_id":1046,"name":"Empty","skin":"underground","x":3,"y":15,"layer":"underground","access":{"type":"blocked","conditions":[]},"interactions":{"content":null,"transition":null}},{"map_id":1047,"name":"Empty","skin":"interior","x":3,"y":15,"layer":"interior","access":{"type":"blocked","conditions":[]},"interactions":{"content":null,"transition":null}},{"map_id":1048,"name":"Forest","skin":"forest_1","x":4,"y":15,"layer":"overworld","access":{"type":"standard","conditions":[]},"interactions":{"content":null,"transition":null}},{"map_id":1049,"name":"Empty","skin":"underground","x":4,"y":15,"layer":"underground","access":{"type":"blocked","conditions":[]},"interactions":{"content":null,"transition":null}},{"map_id":1050,"name":"Empty","skin":"interior","x":4,"y":15,"layer":"interior","access":{"type":"blocked","conditions":[]},"interactions":{"content":null,"transition":null}}],"total":1428,"page":21,"size":50,"pages":29}