{"data":[{"name":"Forest","skin":"forest_4","x":5,"y":15,"content":null},{"name":"Forest","skin":"forest_3","x":6,"y":15,"content":null},{"name":"Forest","skin":"forest_2","x":7,"y":15,"content":null},{"name":"Forest","skin":"forest_2","x":8,"y":15,"content":null},{"name":"Forest","skin":"forest_2","x":9,"y":15,"content":null},{"name":"Forest","skin":"forest_3","x":10,"y":15,"content":null},{"name":"Forest","skin":"forest_3","x":11,"y":15,"content":null}],"total":357,"page":8,"size":50,"pages":8}