{"data":[{"map_id":851,"name":"Empty","skin":"underground","x":6,"y":11,"layer":"underground","access":{"type":"blocked","conditions":[]},"interactions":{"content":null,"transition":null}},{"map_id":852,"name":"Empty","skin":"interior","x":6,"y":11,"layer":"interior","access":{"type":"blocked","conditions":[]},"interactions":{"content":null,"transition":null}},{"map_id":853,"name":"Forest","skin":"forest_2","x":7,"y":11,"layer":"overworld","access":{"type":"standard","conditions":[]},"interactions":{"content":null,"transition":null}},{"map_id":854,"name":"Empty","skin":"underground","x":7,"y":11,"layer":"underground","access":{"type":"blocked","conditions":[]},"interactions":{"content":null,"transition":null}},{"map_id":855,"name":"Empty","skin":"interior","x":7,"y":11,"layer":"interior","access":{"type":"blocked","conditions":[]},"interactions":{"content":null,"transition":null}},{"map_id":856,"name":"Forest","skin":"forest_2","x":8,"y":11,"layer":"overworld","access":{"type":"standard","conditions":[]},"interactions":{"content":null,"transition":null}},{"map_id":857,"name":"Empty","skin":"underground","x":8,"y":11,"layer":"underground","access":{"type":"blocked","conditions":[]},"interactions":{"content":null,"transition":null}},{"map_id":858,"name":"Empty","skin":"interior","x":8,"y":11,"layer":"interior","access":{"type":"blocked","conditions":[]},"interactions":{"content":null,"transition":null}},{"map_id":859,"name":"Forest","skin":"forest_1","x":9,"y":11,"layer":"overworld","access":{"type":"standard","conditions":[]},"interactions":{"content":null,"transition":null}},{"map_id":860,"name":"Empty","skin":"underground","x":9,"y":11,"layer":"underground","access":{"type":"blocked","conditions":[]},"interactions":{"content":null,"transition":null}},{"map_id":861,"name":"Empty","skin":"interior","x":9,"y":11,"layer":"interior","access":{"type":"blocked","conditions":[]},"interactions":{"content":null,"transition":null}},{"map_id":862,"name":"Forest","skin":"forest_2","x":10,"y":11,"layer":"overworld","access":{"type":"standard","conditions":[]},"interactions":{"content":null,"transition":null}},{"map_id":863,"name":"Empty","skin":"underground","x":10,"y":11,"layer":"underground","access":{"type":"blocked","conditions":[]},"interactions":{"content":null,"transition":null}},{"map_id":864,"name":"Empty","skin":"interior","x":10,"y":11,"layer":"interior","access":{"type":"blocked","conditions":[]},"interactions":{"content":null,"transition":null}},{"map_id":865,"name":"Forest","skin":"forest_2","x":11,"y":11,"layer":"overworld","access":{"type":"standard","conditions":[]},"interactions":{"content":null,"transition":null}},{"map_id":866,"name":"Empty","skin":"underground","x":11,"y":11,"layer":"underground","access":{"type":"blocked","conditions":[]},"interactions":{"content":null,"transition":null}},{"map_id":867,"name":"Empty","skin":"interior","x":11,"y":11,"layer":"interior","access":{"type":"blocked","conditions":[]},"interactions":{"content":null,"transition":null}},{"map_id":868,"name":"Forest","skin":"forest_4","x":-5,"y":12,"layer":"overworld","access":{"type":"standard","conditions":[]},"interactions":{"content":null,"transition":null}},{"map_id":869,"name":"Empty","skin":"underground","x":-5,"y":12,"layer":"underground","access":{"type":"blocked","conditions":[]},"interactions":{"content":null,"transition":null}},{"map_id":870,"name":"Empty","skin":"interior","x":-5,"y":12,"layer":"interior","access":{"type":"blocked","conditions":[]},"interactions":{"content":null,"transition":null}},{"map_id":871,"name":"Forest","skin":"forest_3","x":-4,"y":12,"layer":"overworld","access":{"type":"standard","conditions":[]},"interactions":{"content":null,"transition":null}},{"map_id":872,"name":"Empty","skin":"underground","x":-4,"y":12,"layer":"underground","access":{"type":"blocked","conditions":[]},"interactions":{"content":null,"transition":null}},{"map_id":873,"name":"Empty","skin":"interior","x":-4,"y":12,"layer":"interior","access":{"type":"blocked","conditions":[]},"interactions":{"content":null,"transition":null}},{"map_id":874,"name":"Forest","skin":"forest_spider1","x":-3,"y":12,"layer":"overworld","access":{"type":"standard","conditions":[]},"interactions":{"content":{"type":"monster","code":"spider"},"transition":null}},{"map_id":875,"name":"Empty","skin":"underground","x":-3,"y":12,"layer":"underground","access":{"type":"blocked","conditions":[]},"interactions":{"content":null,"transition":null}},{"map_id":876,"name":"Empty","skin":"interior","x":-3,"y":12,"layer":"interior","access":{"type":"blocked","conditions":[]},"interactions":{"content":null,"transition":null}},{"map_id":877,"name":"Forest","skin":"forest_3","x":-2,"y":12,"layer":"overworld","access":{"type":"standard","conditions":[]},"interactions":{"content":null,"transition":null}},{"map_id":878,"name":"Empty","skin":"underground","x":-2,"y":12,"layer":"underground","access":{"type":"blocked","conditions":[]},"interactions":{"content":null,"transition":null}},{"map_id":879,"name":"Empty","skin":"interior","x":-2,"y":12,"layer":"interior","access":{"type":"blocked","conditions":[]},"interactions":{"content":null,"transition":null}},{"map_id":880,"name":"Forest","skin":"forest_cultis1","x":-1,"y":12,"layer":"overworld","access":{"type":"standard","conditions":[]},"interactions":{"content":null,"transition":null}},{"map_id":881,"name":"Empty","skin":"underground","x":-1,"y":12,"layer":"underground","access":{"type":"blocked","conditions":[]},"interactions":{"content":null,"transition":null}},{"map_id":882,"name":"Empty","skin":"interior","x":-1,"y":12,"layer":"interior","access":{"type":"blocked","conditions":[]},"interactions":{"content":null,"transition":null}},{"map_id":883,"name":"Forest","skin":"forest_imp1","x":0,"y":12,"layer":"overworld","access":{"type":"standard","conditions":[]},"interactions":{"content":{"type":"monster","code":"imp"},"transition":null}},{"map_id":884,"name":"Empty","skin":"underground","x":0,"y":12,"layer":"underground","access":{"type":"blocked","conditions":[]},"interactions":{"content":null,"transition":null}},{"map_id":885,"name":"Empty","skin":"interior","x":0,"y":12,"layer":"interior","access":{"type":"blocked","conditions":[]},"interactions":{"content":null,"transition":null}},{"map_id":886,"name":"Forest","skin":"forest_mapletree1","x":1,"y":12,"layer":"overworld","access":{"type":"standard","conditions":[]},"interactions":{"content":{"type":"resource","code":"maple_tree"},"transition":null}},{"map_id":887,"name":"Empty","skin":"underground","x":1,"y":12,"layer":"underground","access":{"type":"blocked","conditions":[]},"interactions":{"content":null,"transition":null}},{"map_id":888,"name":"Empty","skin":"interior","x":1,"y":12,"layer":"interior","access":{"type":"blocked","conditions":[]},"interactions":{"content":null,"transition":null}},{"map_id":889,"name":"Forest","skin":"forest_road3","x":2,"y":12,"layer":"overworld","access":{"type":"standard","conditions":[]},"interactions":{"content":null,"transition":null}},{"map_id":890,"name":"Empty","skin":"underground","x":2,"y":12,"layer":"underground","access":{"type":"blocked","conditions":[]},"interactions":{"content":null,"transition":null}},{"map_id":891,"name":"Empty","skin":"interior","x":2,"y":12,"layer":"interior","access":{"type":"blocked","conditions":[]},"interactions":{"content":null,"transition":null}},{"map_id":892,"name":"Forest","skin":"forest_4","x":3,"y":12,"layer":"overworld","access":{"type":"standard","conditions":[]},"interactions":{"content":null,"transition":null}},{"map_id":893,"name":"Empty","skin":"underground","x":3,"y":12,"layer":"underground","access":{"type":"blocked","conditions":[]},"interactions":{"content":null,"transition":null}},{"map_id":894,"name":"Empty","skin":"interior","x":3,"y":12,"layer":"interior","access":{"type":"blocked","conditions":[]},"interactions":{"content":null,"transition":null}},{"map_id":895,"name":"Forest","skin":"forest_4","x":4,"y":12,"layer":"overworld","access":{"type":"standard","conditions":[]},"interactions":{"content":null,"transition":null}},{"map_id":896,"name":"Empty","skin":"underground","x":4,"y":12,"layer":"underground","access":{"type":"blocked","conditions":[]},"interactions":{"content":null,"transition":null}},{"map_id":897,"name":"Empty","skin":"interior","x":4,"y":12,"layer":"interior","access":{"type":"blocked","conditions":[]},"interactions":{"content":null,"transition":null}},{"map_id":898,"name":"Forest","skin":"forest_sheep1","x":5,"y":12,"layer":"overworld","access":{"type":"standard","conditions":[]},"interactions":{"content":{"type":"monster","code":"sheep"},"transition":null}},{"map_id":899,"name":"Empty","skin":"underground","x":5,"y":12,"layer":"underground","access":{"type":"blocked","conditions":[]},"interactions":{"content":null,"transition":null}},{"map_id":900,"name":"Empty","skin":"interior","x":5,"y":12,"layer":"interior","access":{"type":"blocked","conditions":[]},"interactions":{"content":null,"transition":null}}],"total":1428,"page":18,"size":50,"pages":29}