{"data":[{"map_id":1201,"name":"Sea","skin":"water","x":4,"y":18,"layer":"overworld","access":{"type":"blocked","conditions":[]},"interactions":{"content":null,"transition":null}},{"map_id":1202,"name":"Empty","skin":"underground","x":4,"y":18,"layer":"underground","access":{"type":"blocked","conditions":[]},"interactions":{"content":null,"transition":null}},{"map_id":1203,"name":"Empty","skin":"interior","x":4,"y":18,"layer":"interior","access":{"type":"blocked","conditions":[]},"interactions":{"content":null,"transition":null}},{"map_id":1204,"name":"Sea","skin":"water","x":5,"y":18,"layer":"overworld","access":{"type":"blocked","conditions":[]},"interactions":{"content":null,"transition":null}},{"map_id":1205,"name":"Empty","skin":"underground","x":5,"y":18,"layer":"underground","access":{"type":"blocked","conditions":[]},"interactions":{"content":null,"transition":null}},{"map_id":1206,"name":"Empty","skin":"interior","x":5,"y":18,"layer":"interior","access":{"type":"blocked","conditions":[]},"interactions":{"content":null,"transition":null}},{"map_id":1207,"name":"Sea","skin":"water","x":6,"y":18,"layer":"overworld","access":{"type":"blocked","conditions":[]},"interactions":{"content":null,"transition":null}},{"map_id":1208,"name":"Empty","skin":"underground","x":6,"y":18,"layer":"underground","access":{"type":"blocked","conditions":[]},"interactions":{"content":null,"transition":null}},{"map_id":1209,"name":"Empty","skin":"interior","x":6,"y":18,"layer":"interior","access":{"type":"blocked","conditions":[]},"interactions":{"content":null,"transition":null}},{"map_id":1210,"name":"Sea","skin":"water","x":7,"y":18,"layer":"overworld","access":{"type":"blocked","conditions":[]},"interactions":{"content":null,"transition":null}},{"map_id":1211,"name":"Empty","skin":"underground","x":7,"y":18,"layer":"underground","access":{"type":"blocked","conditions":[]},"interactions":{"content":null,"transition":null}},{"map_id":1212,"name":"Empty","skin":"interior","x":7,"y":18,"layer":"interior","access":{"type":"blocked","conditions":[]},"interactions":{"content":null,"transition":null}},{"map_id":1213,"name":"Sea","skin":"water","x":8,"y":18,"layer":"overworld","access":{"type":"blocked","conditions":[]},"interactions":{"content":null,"transition":null}},{"map_id":1214,"name":"Empty","skin":"underground","x":8,"y":18,"layer":"underground","access":{"type":"blocked","conditions":[]},"interactions":{"content":null,"transition":null}},{"map_id":1215,"name":"Empty","skin":"interior","x":8,"y":18,"layer":"interior","access":{"type":"blocked","conditions":[]},"interactions":{"content":null,"transition":null}},{"map_id":1216,"name":"Sea","skin":"water","x":9,"y":18,"layer":"overworld","access":{"type":"blocked","conditions":[]},"interactions":{"content":null,"transition":null}},{"map_id":1217,"name":"Empty","skin":"underground","x":9,"y":18,"layer":"underground","access":{"type":"blocked","conditions":[]},"interactions":{"content":null,"transition":null}},{"map_id":1218,"name":"Empty","skin":"interior","x":9,"y":18,"layer":"interior","access":{"type":"blocked","conditions":[]},"interactions":{"content":null,"transition":null}},{"map_id":1219,"name":"Sea","skin":"water","x":10,"y":18,"layer":"overworld","access":{"type":"blocked","conditions":[]},"interactions":{"content":null,"transition":null}},{"map_id":1220,"name":"Empty","skin":"underground","x":10,"y":18,"layer":"underground","access":{"type":"blocked","conditions":[]},"interactions":{"content":null,"transition":null}},{"map_id":1221,"name":"Empty","skin":"interior","x":10,"y":18,"layer":"interior","access":{"type":"blocked","conditions":[]},"interactions":{"content":null,"transition":null}},{"map_id":1222,"name":"Sea","skin":"water","x":11,"y":18,"layer":"overworld","access":{"type":"blocked","conditions":[]},"interactions":{"content":null,"transition":null}},{"map_id":1223,"name":"Empty","skin":"underground","x":11,"y":18,"layer":"underground","access":{"type":"blocked","conditions":[]},"interactions":{"content":null,"transition":null}},{"map_id":1224,"name":"Empty","skin":"interior","x":11,"y":18,"layer":"interior","access":{"type":"blocked","conditions":[]},"interactions":{"content":null,"transition":null}},{"map_id":1225,"name":"Sea","skin":"water","x":-5,"y":19,"layer":"overworld","access":{"type":"blocked","conditions":[]},"interactions":{"content":null,"transition":null}},{"map_id":1226,"name":"Sandwhisper Mine","skin":"desertmine_3","x":-5,"y":19,"layer":"underground","access":{"type":"standard","conditions":[]},"interactions":{"content":{"type":"monster","code":"dusk_beetle"},"transition":null}},{"map_id":1227,"name":"Empty","skin":"interior","x":-5,"y":19,"layer":"interior","access":{"type":"blocked","conditions":[]},"interactions":{"content":null,"transition":null}},{"map_id":1228,"name":"Sandwhisper Isle","skin":"desertisland_9","x":-4,"y":19,"layer":"overworld","access":{"type":"standard","conditions":[]},"interactions":{"content":{"type":"resource","code":"swordfish_spot"},"transition":null}},{"map_id":1229,"name":"Sandwhisper Mine","skin":"desertmine_4","x":-4,"y":19,"layer":"underground","access":{"type":"standard","conditions":[]},"interactions":{"content":{"type":"resource","code":"adamantite_rocks"},"transition":null}},{"map_id":1230,"name":"Empress House","skin":"desertisland_house1","x":-4,"y":19,"layer":"interior","access":{"type":"standard","conditions":[]},"interactions":{"content":null,"transition":null}},{"map_id":1231,"name":"Sandwhisper Isle","skin":"desertisland_10","x":-3,"y":19,"layer":"overworld","access":{"type":"standard","conditions":[]},"interactions":{"content":{"type":"monster","code":"sandwarden"},"transition":{"map_id":1233,"x":-3,"y":19,"layer":"interior","conditions":[{"code":"sandwhisper_key","operator":"cost","value":1}]}}},{"map_id":1232,"name":"Sandwhisper Mine","skin":"desertmine_5","x":-3,"y":19,"layer":"underground","access":{"type":"standard","conditions":[]},"interactions":{"content":{"type":"monster","code":"dusk_beetle"},"transition":{"map_id":1238,"x":-1,"y":19,"layer":"underground","conditions":[]}}},{"map_id":1233,"name":"Empress House","skin":"desertisland_house2","x":-3,"y":19,"layer":"interior","access":{"type":"standard","conditions":[]},"interactions":{"content":null,"transition":{"map_id":1231,"x":-3,"y":19,"layer":"overworld","conditions":[]}}},{"map_id":1234,"name":"Sandwhisper Isle","skin":"desertisland_11","x":-2,"y":19,"layer":"overworld","access":{"type":"standard","conditions":[{"code":"secure_the_island","operator":"achievement_unlocked","value":1}]},"interactions":{"content":{"type":"bank","code":"bank"},"transition":null}},{"map_id":1235,"name":"Empty","skin":"underground","x":-2,"y":19,"layer":"underground","access":{"type":"blocked","conditions":[]},"interactions":{"content":null,"transition":null}},{"map_id":1236,"name":"Empress House","skin":"desertisland_house3","x":-2,"y":19,"layer":"interior","access":{"type":"standard","conditions":[]},"interactions":{"content":{"type":"monster","code":"sandwhisper_empress"},"transition":null}},{"map_id":1237,"name":"Sandwhisper Isle","skin":"desertisland_19","x":-1,"y":19,"layer":"overworld","access":{"type":"standard","conditions":[]},"interactions":{"content":{"type":"monster","code":"desert_scorpion"},"transition":null}},{"map_id":1238,"name":"Sandwhisper Mine","skin":"desertmine_6","x":-1,"y":19,"layer":"underground","access":{"type":"standard","conditions":[]},"interactions":{"content":null,"transition":{"map_id":1232,"x":-3,"y":19,"layer":"underground","conditions":[]}}},{"map_id":1239,"name":"Empty","skin":"interior","x":-1,"y":19,"layer":"interior","access":{"type":"blocked","conditions":[]},"interactions":{"content":null,"transition":null}},{"map_id":1240,"name":"Sandwhisper Isle","skin":"desertisland_12","x":0,"y":19,"layer":"overworld","access":{"type":"standard","conditions":[]},"interactions":{"content":{"type":"resource","code":"torch_cactus"},"transition":null}},{"map_id":1241,"name":"Empty","skin":"underground","x":0,"y":19,"layer":"underground","access":{"type":"blocked","conditions":[]},"interactions":{"content":null,"transition":null}},{"map_id":1242,"name":"Empty","skin":"interior","x":0,"y":19,"layer":"interior","access":{"type":"blocked","conditions":[]},"interactions":{"content":null,"transition":null}},{"map_id":1243,"name":"Sea","skin":"water","x":1,"y":19,"layer":"overworld","access":{"type":"blocked","conditions":[]},"interactions":{"content":null,"transition":null}},{"map_id":1244,"name":"Empty","skin":"underground","x":1,"y":19,"layer":"underground","access":{"type":"blocked","conditions":[]},"interactions":{"content":null,"transition":null}},{"map_id":1245,"name":"Empty","skin":"interior","x":1,"y":19,"layer":"interior","access":{"type":"blocked","conditions":[]},"interactions":{"content":null,"transition":null}},{"map_id":1246,"name":"Sea","skin":"water","x":2,"y":19,"layer":"overworld","access":{"type":"blocked","conditions":[]},"interactions":{"content":null,"transition":null}},{"map_id":1247,"name":"Empty","skin":"underground","x":2,"y":19,"layer":"underground","access":{"type":"blocked","conditions":[]},"interactions":{"content":null,"transition":null}},{"map_id":1248,"name":"Empty","skin":"interior","x":2,"y":19,"layer":"interior","access":{"type":"blocked","conditions":[]},"interactions":{"content":null,"transition":null}},{"map_id":1249,"name":"Sea","skin":"water","x":3,"y":19,"layer":"overworld","access":{"type":"blocked","conditions":[]},"interactions":{"content":null,"transition":null}},{"map_id":1250,"name":"Empty","skin":"underground","x":3,"y":19,"layer":"underground","access":{"type":"blocked","conditions":[]},"interactions":{"content":null,"transition":null}}],"total":1428,"page":25,"size":50,"pages":29}