{"data":[{"map_id":901,"name":"Lake","skin":"forest_lake1","x":6,"y":12,"layer":"overworld","access":{"type":"standard","conditions":[]},"interactions":{"content":{"type":"resource","code":"bass_spot"},"transition":null}},{"map_id":902,"name":"Empty","skin":"underground","x":6,"y":12,"layer":"underground","access":{"type":"blocked","conditions":[]},"interactions":{"content":null,"transition":null}},{"map_id":903,"name":"Empty","skin":"interior","x":6,"y":12,"layer":"interior","access":{"type":"blocked","conditions":[]},"interactions":{"content":null,"transition":null}},{"map_id":904,"name":"Lake","skin":"forest_lake2","x":7,"y":12,"layer":"overworld","access":{"type":"standard","conditions":[]},"interactions":{"content":{"type":"resource","code":"trout_spot"},"transition":null}},{"map_id":905,"name":"Empty","skin":"underground","x":7,"y":12,"layer":"underground","access":{"type":"blocked","conditions":[]},"interactions":{"content":null,"transition":null}},{"map_id":906,"name":"Empty","skin":"interior","x":7,"y":12,"layer":"interior","access":{"type":"blocked","conditions":[]},"interactions":{"content":null,"transition":null}},{"map_id":907,"name":"Forest","skin":"forest_3","x":8,"y":12,"layer":"overworld","access":{"type":"standard","conditions":[]},"interactions":{"content":null,"transition":null}},{"map_id":908,"name":"Empty","skin":"underground","x":8,"y":12,"layer":"underground","access":{"type":"blocked","conditions":[]},"interactions":{"content":null,"transition":null}},{"map_id":909,"name":"Empty","skin":"interior","x":8,"y":12,"layer":"interior","access":{"type":"blocked","conditions":[]},"interactions":{"content":null,"transition":null}},{"map_id":910,"name":"Forest","skin":"forest_1","x":9,"y":12,"layer":"overworld","access":{"type":"standard","conditions":[]},"interactions":{"content":null,"transition":null}},{"map_id":911,"name":"Empty","skin":"underground","x":9,"y":12,"layer":"underground","access":{"type":"blocked","conditions":[]},"interactions":{"content":null,"transition":null}},{"map_id":912,"name":"Empty","skin":"interior","x":9,"y":12,"layer":"interior","access":{"type":"blocked","conditions":[]},"interactions":{"content":null,"transition":null}},{"map_id":913,"name":"Forest","skin":"forest_3","x":10,"y":12,"layer":"overworld","access":{"type":"standard","conditions":[]},"interactions":{"content":null,"transition":null}},{"map_id":914,"name":"Empty","skin":"underground","x":10,"y":12,"layer":"underground","access":{"type":"blocked","conditions":[]},"interactions":{"content":null,"transition":null}},{"map_id":915,"name":"Empty","skin":"interior","x":10,"y":12,"layer":"interior","access":{"type":"blocked","conditions":[]},"interactions":{"content":null,"transition":null}},{"map_id":916,"name":"Forest","skin":"forest_2","x":11,"y":12,"layer":"overworld","access":{"type":"standard","conditions":[]},"interactions":{"content":null,"transition":null}},{"map_id":917,"name":"Empty","skin":"underground","x":11,"y":12,"layer":"underground","access":{"type":"blocked","conditions":[]},"interactions":{"content":null,"transition":null}},{"map_id":918,"name":"Empty","skin":"interior","x":11,"y":12,"layer":"interior","access":{"type":"blocked","conditions":[]},"interactions":{"content":null,"transition":null}},{"map_id":919,"name":"Forest","skin":"forest_2","x":-5,"y":13,"layer":"overworld","access":{"type":"standard","conditions":[]},"interactions":{"content":null,"transition":null}},{"map_id":920,"name":"Empty","skin":"underground","x":-5,"y":13,"layer":"underground","access":{"type":"blocked","conditions":[]},"interactions":{"content":null,"transition":null}},{"map_id":921,"name":"Empty","skin":"interior","x":-5,"y":13,"layer":"interior","access":{"type":"blocked","conditions":[]},"interactions":{"content":null,"transition":null}},{"map_id":922,"name":"Forest","skin":"forest_4","x":-4,"y":13,"layer":"overworld","access":{"type":"standard","conditions":[]},"interactions":{"content":null,"transition":null}},{"map_id":923,"name":"Empty","skin":"underground","x":-4,"y":13,"layer":"underground","access":{"type":"blocked","conditions":[]},"interactions":{"content":null,"transition":null}},{"map_id":924,"name":"Empty","skin":"interior","x":-4,"y":13,"layer":"interior","access":{"type":"blocked","conditions":[]},"interactions":{"content":null,"transition":null}},{"map_id":925,"name":"Forest","skin":"forest_3","x":-3,"y":13,"layer":"overworld","access":{"type":"standard","conditions":[]},"interactions":{"content":null,"transition":null}},{"map_id":926,"name":"Empty","skin":"underground","x":-3,"y":13,"layer":"underground","access":{"type":"blocked","conditions":[]},"interactions":{"content":null,"transition":null}},{"map_id":927,"name":"Empty","skin":"interior","x":-3,"y":13,"layer":"interior","access":{"type":"blocked","conditions":[]},"interactions":{"content":null,"transition":null}},{"map_id":928,"name":"Forest","skin":"forest_3","x":-2,"y":13,"layer":"overworld","access":{"type":"standard","conditions":[]},"interactions":{"content":null,"transition":null}},{"map_id":929,"name":"Empty","skin":"underground","x":-2,"y":13,"layer":"underground","access":{"type":"blocked","conditions":[]},"interactions":{"content":null,"transition":null}},{"map_id":930,"name":"Empty","skin":"interior","x":-2,"y":13,"layer":"interior","access":{"type":"blocked","conditions":[]},"interactions":{"content":null,"transition":null}},{"map_id":931,"name":"Forest","skin":"forest_hellhound2","x":-1,"y":13,"layer":"overworld","access":{"type":"standard","conditions":[]},"interactions":{"content":{"type":"monster","code":"hellhound"},"transition":null}},{"map_id":932,"name":"Rosenblood House","skin":"rosenblood_house3","x":-1,"y":13,"layer":"interior","access":{"type":"standard","conditions":[{"code":"clean_the_lab","operator":"achievement_unlocked","value":1}]},"interactions":{"content":{"type":"monster","code":"rosenblood"},"transition":null}},{"map_id":933,"name":"Empty","skin":"underground","x":-1,"y":13,"layer":"underground","access":{"type":"blocked","conditions":[]},"interactions":{"content":null,"transition":null}},{"map_id":934,"name":"Forest","skin":"forest_house1","x":0,"y":13,"layer":"overworld","access":{"type":"standard","conditions":[]},"interactions":{"content":{"type":"monster","code":"cultist_acolyte"},"transition":{"map_id":935,"x":0,"y":13,"layer":"interior","conditions":[{"code":"cultist_cloak","operator":"has_item","value":1}]}}},{"map_id":935,"name":"Rosenblood House","skin":"rosenblood_house2","x":0,"y":13,"layer":"interior","access":{"type":"standard","conditions":[]},"interactions":{"content":{"type":"monster","code":"cultist_alchemist"},"transition":{"map_id":934,"x":0,"y":13,"layer":"overworld","conditions":[]}}},{"map_id":936,"name":"Empty","skin":"underground","x":0,"y":13,"layer":"underground","access":{"type":"blocked","conditions":[]},"interactions":{"content":null,"transition":null}},{"map_id":937,"name":"Forest","skin":"forest_cultistacolyte1","x":1,"y":13,"layer":"overworld","access":{"type":"standard","conditions":[]},"interactions":{"content":{"type":"monster","code":"cultist_acolyte"},"transition":null}},{"map_id":938,"name":"Rosenblood House","skin":"rosenblood_house1","x":1,"y":13,"layer":"interior","access":{"type":"standard","conditions":[]},"interactions":{"content":{"type":"monster","code":"cultist_alchemist"},"transition":null}},{"map_id":939,"name":"Empty","skin":"underground","x":1,"y":13,"layer":"underground","access":{"type":"blocked","conditions":[]},"interactions":{"content":null,"transition":null}},{"map_id":940,"name":"Forest","skin":"forest_road4_cultistwizard","x":2,"y":13,"layer":"overworld","access":{"type":"standard","conditions":[]},"interactions":{"content":{"type":"npc","code":"cultist_wizard"},"transition":null}},{"map_id":941,"name":"Empty","skin":"underground","x":2,"y":13,"layer":"underground","access":{"type":"blocked","conditions":[]},"interactions":{"content":null,"transition":null}},{"map_id":942,"name":"Empty","skin":"interior","x":2,"y":13,"layer":"interior","access":{"type":"blocked","conditions":[]},"interactions":{"content":null,"transition":null}},{"map_id":943,"name":"Forest","skin":"forest_road6","x":3,"y":13,"layer":"overworld","access":{"type":"standard","conditions":[]},"interactions":{"content":null,"transition":null}},{"map_id":944,"name":"Empty","skin":"underground","x":3,"y":13,"layer":"underground","access":{"type":"blocked","conditions":[]},"interactions":{"content":null,"transition":null}},{"map_id":945,"name":"Empty","skin":"interior","x":3,"y":13,"layer":"interior","access":{"type":"blocked","conditions":[]},"interactions":{"content":null,"transition":null}},{"map_id":946,"name":"Forest","skin":"forest_road10","x":4,"y":13,"layer":"overworld","access":{"type":"standard","conditions":[]},"interactions":{"content":{"type":"tasks_master","code":"items"},"transition":null}},{"map_id":947,"name":"Empty","skin":"underground","x":4,"y":13,"layer":"underground","access":{"type":"blocked","conditions":[]},"interactions":{"content":null,"transition":null}},{"map_id":948,"name":"Empty","skin":"interior","x":4,"y":13,"layer":"interior","access":{"type":"blocked","conditions":[]},"interactions":{"content":null,"transition":null}},{"map_id":949,"name":"Forest","skin":"forest_road9","x":5,"y":13,"layer":"overworld","access":{"type":"standard","conditions":[]},"interactions":{"content":null,"transition":null}},{"map_id":950,"name":"Empty","skin":"underground","x":5,"y":13,"layer":"underground","access":{"type":"blocked","conditions":[]},"interactions":{"content":null,"transition":null}}],"total":1428,"page":19,"size":50,"pages":29}