{"data":[{"map_id":101,"name":"Empty","skin":"underground","x":11,"y":-4,"layer":"underground","access":{"type":"blocked","conditions":[]},"interactions":{"content":null,"transition":null}},{"map_id":102,"name":"Empty","skin":"interior","x":11,"y":-4,"layer":"interior","access":{"type":"blocked","conditions":[]},"interactions":{"content":null,"transition":null}},{"map_id":103,"name":"Forest","skin":"forest_2","x":-5,"y":-3,"layer":"overworld","access":{"type":"standard","conditions":[]},"interactions":{"content":null,"transition":null}},{"map_id":104,"name":"Empty","skin":"underground","x":-5,"y":-3,"layer":"underground","access":{"type":"blocked","conditions":[]},"interactions":{"content":null,"transition":null}},{"map_id":105,"name":"Empty","skin":"interior","x":-5,"y":-3,"layer":"interior","access":{"type":"blocked","conditions":[]},"interactions":{"content":null,"transition":null}},{"map_id":106,"name":"Forest","skin":"forest_2","x":-4,"y":-3,"layer":"overworld","access":{"type":"standard","conditions":[]},"interactions":{"content":null,"transition":null}},{"map_id":107,"name":"Empty","skin":"underground","x":-4,"y":-3,"layer":"underground","access":{"type":"blocked","conditions":[]},"interactions":{"content":null,"transition":null}},{"map_id":108,"name":"Empty","skin":"interior","x":-4,"y":-3,"layer":"interior","access":{"type":"blocked","conditions":[]},"interactions":{"content":null,"transition":null}},{"map_id":109,"name":"Forest","skin":"forest_pig1","x":-3,"y":-3,"layer":"overworld","access":{"type":"standard","conditions":[]},"interactions":{"content":{"type":"monster","code":"pig"},"transition":null}},{"map_id":110,"name":"Empty","skin":"underground","x":-3,"y":-3,"layer":"underground","access":{"type":"blocked","conditions":[]},"interactions":{"content":null,"transition":null}},{"map_id":111,"name":"Empty","skin":"interior","x":-3,"y":-3,"layer":"interior","access":{"type":"blocked","conditions":[]},"interactions":{"content":null,"transition":null}},{"map_id":112,"name":"Forest","skin":"forest_woodcuttingstation1","x":-2,"y":-3,"layer":"overworld","access":{"type":"standard","conditions":[]},"interactions":{"content":{"type":"workshop","code":"woodcutting"},"transition":null}},{"map_id":113,"name":"Empty","skin":"underground","x":-2,"y":-3,"layer":"underground","access":{"type":"blocked","conditions":[]},"interactions":{"content":null,"transition":null}},{"map_id":114,"name":"Empty","skin":"interior","x":-2,"y":-3,"layer":"interior","access":{"type":"blocked","conditions":[]},"interactions":{"content":null,"transition":null}},{"map_id":115,"name":"Forest","skin":"forest_1","x":-1,"y":-3,"layer":"overworld","access":{"type":"standard","conditions":[]},"interactions":{"content":null,"transition":null}},{"map_id":116,"name":"Empty","skin":"underground","x":-1,"y":-3,"layer":"underground","access":{"type":"blocked","conditions":[]},"interactions":{"content":null,"transition":null}},{"map_id":117,"name":"Empty","skin":"interior","x":-1,"y":-3,"layer":"interior","access":{"type":"blocked","conditions":[]},"interactions":{"content":null,"transition":null}},{"map_id":118,"name":"Forest","skin":"forest_2","x":0,"y":-3,"layer":"overworld","access":{"type":"standard","conditions":[]},"interactions":{"content":null,"transition":null}},{"map_id":119,"name":"Empty","skin":"underground","x":0,"y":-3,"layer":"underground","access":{"type":"blocked","conditions":[]},"interactions":{"content":null,"transition":null}},{"map_id":120,"name":"Empty","skin":"interior","x":0,"y":-3,"layer":"interior","access":{"type":"blocked","conditions":[]},"interactions":{"content":null,"transition":null}},{"map_id":121,"name":"Forest","skin":"forest_3","x":1,"y":-3,"layer":"overworld","access":{"type":"standard","conditions":[]},"interactions":{"content":null,"transition":null}},{"map_id":122,"name":"Empty","skin":"underground","x":1,"y":-3,"layer":"underground","access":{"type":"blocked","conditions":[]},"interactions":{"content":null,"transition":null}},{"map_id":123,"name":"Empty","skin":"interior","x":1,"y":-3,"layer":"interior","access":{"type":"blocked","conditions":[]},"interactions":{"content":null,"transition":null}},{"map_id":124,"name":"Forest","skin":"forest_2","x":2,"y":-3,"layer":"overworld","access":{"type":"standard","conditions":[]},"interactions":{"content":null,"transition":null}},{"map_id":125,"name":"Empty","skin":"underground","x":2,"y":-3,"layer":"underground","access":{"type":"blocked","conditions":[]},"interactions":{"content":null,"transition":null}},{"map_id":126,"name":"Empty","skin":"interior","x":2,"y":-3,"layer":"interior","access":{"type":"blocked","conditions":[]},"interactions":{"content":null,"transition":null}},{"map_id":127,"name":"Forest","skin":"forest_3","x":3,"y":-3,"layer":"overworld","access":{"type":"standard","conditions":[]},"interactions":{"content":null,"transition":null}},{"map_id":128,"name":"Empty","skin":"underground","x":3,"y":-3,"layer":"underground","access":{"type":"blocked","conditions":[]},"interactions":{"content":null,"transition":null}},{"map_id":129,"name":"Empty","skin":"interior","x":3,"y":-3,"layer":"interior","access":{"type":"blocked","conditions":[]},"interactions":{"content":null,"transition":null}},{"map_id":130,"name":"Forest","skin":"forest_1","x":4,"y":-3,"layer":"overworld","access":{"type":"standard","conditions":[]},"interactions":{"content":null,"transition":null}},{"map_id":131,"name":"Empty","skin":"underground","x":4,"y":-3,"layer":"underground","access":{"type":"blocked","conditions":[]},"interactions":{"content":null,"transition":null}},{"map_id":132,"name":"Empty","skin":"interior","x":4,"y":-3,"layer":"interior","access":{"type":"blocked","conditions":[]},"interactions":{"content":null,"transition":null}},{"map_id":133,"name":"Forest","skin":"forest_2","x":5,"y":-3,"layer":"overworld","access":{"type":"standard","conditions":[]},"interactions":{"content":null,"transition":null}},{"map_id":134,"name":"Empty","skin":"underground","x":5,"y":-3,"layer":"underground","access":{"type":"blocked","conditions":[]},"interactions":{"content":null,"transition":null}},{"map_id":135,"name":"Empty","skin":"interior","x":5,"y":-3,"layer":"interior","access":{"type":"blocked","conditions":[]},"interactions":{"content":null,"transition":null}},{"map_id":136,"name":"Forest","skin":"forest_goldore1","x":6,"y":-3,"layer":"overworld","access":{"type":"standard","conditions":[]},"interactions":{"content":{"type":"resource","code":"gold_rocks"},"transition":null}},{"map_id":137,"name":"Empty","skin":"underground","x":6,"y":-3,"layer":"underground","access":{"type":"blocked","conditions":[]},"interactions":{"content":null,"transition":null}},{"map_id":138,"name":"Empty","skin":"interior","x":6,"y":-3,"layer":"interior","access":{"type":"blocked","conditions":[]},"interactions":{"content":null,"transition":null}},{"map_id":139,"name":"Forest","skin":"forest_cyclops2","x":7,"y":-3,"layer":"overworld","access":{"type":"standard","conditions":[]},"interactions":{"content":{"type":"monster","code":"cyclops"},"transition":null}},{"map_id":140,"name":"Empty","skin":"underground","x":7,"y":-3,"layer":"underground","access":{"type":"blocked","conditions":[]},"interactions":{"content":null,"transition":null}},{"map_id":141,"name":"Empty","skin":"interior","x":7,"y":-3,"layer":"interior","access":{"type":"blocked","conditions":[]},"interactions":{"content":null,"transition":null}},{"map_id":142,"name":"Forest","skin":"forest_cyclops1","x":8,"y":-3,"layer":"overworld","access":{"type":"standard","conditions":[]},"interactions":{"content":{"type":"monster","code":"cyclops"},"transition":null}},{"map_id":143,"name":"Empty","skin":"underground","x":8,"y":-3,"layer":"underground","access":{"type":"blocked","conditions":[]},"interactions":{"content":null,"transition":null}},{"map_id":144,"name":"Empty","skin":"interior","x":8,"y":-3,"layer":"interior","access":{"type":"blocked","conditions":[]},"interactions":{"content":null,"transition":null}},{"map_id":145,"name":"Forest","skin":"forest_goblin_wolfrider2","x":9,"y":-3,"layer":"overworld","access":{"type":"standard","conditions":[]},"interactions":{"content":{"type":"monster","code":"goblin_wolfrider"},"transition":null}},{"map_id":146,"name":"Empty","skin":"underground","x":9,"y":-3,"layer":"underground","access":{"type":"blocked","conditions":[]},"interactions":{"content":null,"transition":null}},{"map_id":147,"name":"Empty","skin":"interior","x":9,"y":-3,"layer":"interior","access":{"type":"blocked","conditions":[]},"interactions":{"content":null,"transition":null}},{"map_id":148,"name":"Forest","skin":"forest_2","x":10,"y":-3,"layer":"overworld","access":{"type":"standard","conditions":[]},"interactions":{"content":null,"transition":null}},{"map_id":149,"name":"Empty","skin":"underground","x":10,"y":-3,"layer":"underground","access":{"type":"blocked","conditions":[]},"interactions":{"content":null,"transition":null}},{"map_id":150,"name":"Empty","skin":"interior","x":10,"y":-3,"layer":"interior","access":{"type":"blocked","conditions":[]},"interactions":{"content":null,"transition":null}}],"total":1428,"page":3,"size":50,"pages":29}