{"data":[{"map_id":1251,"name":"Empty","skin":"interior","x":3,"y":19,"layer":"interior","access":{"type":"blocked","conditions":[]},"interactions":{"content":null,"transition":null}},{"map_id":1252,"name":"Sea","skin":"water","x":4,"y":19,"layer":"overworld","access":{"type":"blocked","conditions":[]},"interactions":{"content":null,"transition":null}},{"map_id":1253,"name":"Empty","skin":"underground","x":4,"y":19,"layer":"underground","access":{"type":"blocked","conditions":[]},"interactions":{"content":null,"transition":null}},{"map_id":1254,"name":"Empty","skin":"interior","x":4,"y":19,"layer":"interior","access":{"type":"blocked","conditions":[]},"interactions":{"content":null,"transition":null}},{"map_id":1255,"name":"Sea","skin":"water","x":5,"y":19,"layer":"overworld","access":{"type":"blocked","conditions":[]},"interactions":{"content":null,"transition":null}},{"map_id":1256,"name":"Empty","skin":"underground","x":5,"y":19,"layer":"underground","access":{"type":"blocked","conditions":[]},"interactions":{"content":null,"transition":null}},{"map_id":1257,"name":"Empty","skin":"interior","x":5,"y":19,"layer":"interior","access":{"type":"blocked","conditions":[]},"interactions":{"content":null,"transition":null}},{"map_id":1258,"name":"Sea","skin":"water","x":6,"y":19,"layer":"overworld","access":{"type":"blocked","conditions":[]},"interactions":{"content":null,"transition":null}},{"map_id":1259,"name":"Empty","skin":"underground","x":6,"y":19,"layer":"underground","access":{"type":"blocked","conditions":[]},"interactions":{"content":null,"transition":null}},{"map_id":1260,"name":"Empty","skin":"interior","x":6,"y":19,"layer":"interior","access":{"type":"blocked","conditions":[]},"interactions":{"content":null,"transition":null}},{"map_id":1261,"name":"Sea","skin":"water","x":7,"y":19,"layer":"overworld","access":{"type":"blocked","conditions":[]},"interactions":{"content":null,"transition":null}},{"map_id":1262,"name":"Empty","skin":"underground","x":7,"y":19,"layer":"underground","access":{"type":"blocked","conditions":[]},"interactions":{"content":null,"transition":null}},{"map_id":1263,"name":"Empty","skin":"interior","x":7,"y":19,"layer":"interior","access":{"type":"blocked","conditions":[]},"interactions":{"content":null,"transition":null}},{"map_id":1264,"name":"Sea","skin":"water","x":8,"y":19,"layer":"overworld","access":{"type":"blocked","conditions":[]},"interactions":{"content":null,"transition":null}},{"map_id":1265,"name":"Empty","skin":"underground","x":8,"y":19,"layer":"underground","access":{"type":"blocked","conditions":[]},"interactions":{"content":null,"transition":null}},{"map_id":1266,"name":"Empty","skin":"interior","x":8,"y":19,"layer":"interior","access":{"type":"blocked","conditions":[]},"interactions":{"content":null,"transition":null}},{"map_id":1267,"name":"Sea","skin":"water","x":9,"y":19,"layer":"overworld","access":{"type":"blocked","conditions":[]},"interactions":{"content":null,"transition":null}},{"map_id":1268,"name":"Empty","skin":"underground","x":9,"y":19,"layer":"underground","access":{"type":"blocked","conditions":[]},"interactions":{"content":null,"transition":null}},{"map_id":1269,"name":"Empty","skin":"interior","x":9,"y":19,"layer":"interior","access":{"type":"blocked","conditions":[]},"interactions":{"content":null,"transition":null}},{"map_id":1270,"name":"Sea","skin":"water","x":10,"y":19,"layer":"overworld","access":{"type":"blocked","conditions":[]},"interactions":{"content":null,"transition":null}},{"map_id":1271,"name":"Empty","skin":"underground","x":10,"y":19,"layer":"underground","access":{"type":"blocked","conditions":[]},"interactions":{"content":null,"transition":null}},{"map_id":1272,"name":"Empty","skin":"interior","x":10,"y":19,"layer":"interior","access":{"type":"blocked","conditions":[]},"interactions":{"content":null,"transition":null}},{"map_id":1273,"name":"Sea","skin":"water","x":11,"y":19,"layer":"overworld","access":{"type":"blocked","conditions":[]},"interactions":{"content":null,"transition":null}},{"map_id":1274,"name":"Empty","skin":"underground","x":11,"y":19,"layer":"underground","access":{"type":"blocked","conditions":[]},"interactions":{"content":null,"transition":null}},{"map_id":1275,"name":"Empty","skin":"interior","x":11,"y":19,"layer":"interior","access":{"type":"blocked","conditions":[]},"interactions":{"content":null,"transition":null}},{"map_id":1276,"name":"Sea","skin":"water","x":-5,"y":20,"layer":"overworld","access":{"type":"blocked","conditions":[]},"interactions":{"content":null,"transition":null}},{"map_id":1277,"name":"Empty","skin":"underground","x":-5,"y":20,"layer":"underground","access":{"type":"blocked","conditions":[]},"interactions":{"content":null,"transition":null}},{"map_id":1278,"name":"Empty","skin":"interior","x":-5,"y":20,"layer":"interior","access":{"type":"blocked","conditions":[]},"interactions":{"content":null,"transition":null}},{"map_id":1279,"name":"Sandwhisper Isle","skin":"desertisland_13","x":-4,"y":20,"layer":"overworld","access":{"type":"standard","conditions":[]},"interactions":{"content":{"type":"monster","code":"sand_snake"},"transition":null}},{"map_id":1280,"name":"Empty","skin":"underground","x":-4,"y":20,"layer":"underground","access":{"type":"blocked","conditions":[]},"interactions":{"content":null,"transition":null}},{"map_id":1281,"name":"Empty","skin":"interior","x":-4,"y":20,"layer":"interior","access":{"type":"blocked","conditions":[]},"interactions":{"content":null,"transition":null}},{"map_id":1282,"name":"Sandwhisper Isle","skin":"desertisland_14","x":-3,"y":20,"layer":"overworld","access":{"type":"standard","conditions":[]},"interactions":{"content":{"type":"resource","code":"palm_tree"},"transition":null}},{"map_id":1283,"name":"Empty","skin":"underground","x":-3,"y":20,"layer":"underground","access":{"type":"blocked","conditions":[]},"interactions":{"content":null,"transition":null}},{"map_id":1284,"name":"Empty","skin":"interior","x":-3,"y":20,"layer":"interior","access":{"type":"blocked","conditions":[]},"interactions":{"content":null,"transition":null}},{"map_id":1285,"name":"Sandwhisper Isle","skin":"desertisland_15","x":-2,"y":20,"layer":"overworld","access":{"type":"standard","conditions":[]},"interactions":{"content":{"type":"monster","code":"sandwarden"},"transition":null}},{"map_id":1286,"name":"Empty","skin":"underground","x":-2,"y":20,"layer":"underground","access":{"type":"blocked","conditions":[]},"interactions":{"content":null,"transition":null}},{"map_id":1287,"name":"Empty","skin":"interior","x":-2,"y":20,"layer":"interior","access":{"type":"blocked","conditions":[]},"interactions":{"content":null,"transition":null}},{"map_id":1288,"name":"Sea","skin":"water","x":-1,"y":20,"layer":"overworld","access":{"type":"blocked","conditions":[]},"interactions":{"content":null,"transition":null}},{"map_id":1289,"name":"Empty","skin":"underground","x":-1,"y":20,"layer":"underground","access":{"type":"blocked","conditions":[]},"interactions":{"content":null,"transition":null}},{"map_id":1290,"name":"Empty","skin":"interior","x":-1,"y":20,"layer":"interior","access":{"type":"blocked","conditions":[]},"interactions":{"content":null,"transition":null}},{"map_id":1291,"name":"Sea","skin":"sea2","x":0,"y":20,"layer":"overworld","access":{"type":"blocked","conditions":[]},"interactions":{"content":null,"transition":null}},{"map_id":1292,"name":"Empty","skin":"underground","x":0,"y":20,"layer":"underground","access":{"type":"blocked","conditions":[]},"interactions":{"content":null,"transition":null}},{"map_id":1293,"name":"Empty","skin":"interior","x":0,"y":20,"layer":"interior","access":{"type":"blocked","conditions":[]},"interactions":{"content":null,"transition":null}},{"map_id":1294,"name":"Sea","skin":"water","x":1,"y":20,"layer":"overworld","access":{"type":"blocked","conditions":[]},"interactions":{"content":null,"transition":null}},{"map_id":1295,"name":"Empty","skin":"underground","x":1,"y":20,"layer":"underground","access":{"type":"blocked","conditions":[]},"interactions":{"content":null,"transition":null}},{"map_id":1296,"name":"Empty","skin":"interior","x":1,"y":20,"layer":"interior","access":{"type":"blocked","conditions":[]},"interactions":{"content":null,"transition":null}},{"map_id":1297,"name":"Sea","skin":"water","x":2,"y":20,"layer":"overworld","access":{"type":"blocked","conditions":[]},"interactions":{"content":null,"transition":null}},{"map_id":1298,"name":"Empty","skin":"underground","x":2,"y":20,"layer":"underground","access":{"type":"blocked","conditions":[]},"interactions":{"content":null,"transition":null}},{"map_id":1299,"name":"Empty","skin":"interior","x":2,"y":20,"layer":"interior","access":{"type":"blocked","conditions":[]},"interactions":{"content":null,"transition":null}},{"map_id":1300,"name":"Sea","skin":"water","x":3,"y":20,"layer":"overworld","access":{"type":"blocked","conditions":[]},"interactions":{"content":null,"transition":null}}],"total":1428,"page":26,"size":50,"pages":29}