{"data":[{"map_id":1151,"name":"Empty","skin":"underground","x":4,"y":17,"layer":"underground","access":{"type":"blocked","conditions":[]},"interactions":{"content":null,"transition":null}},{"map_id":1152,"name":"Empty","skin":"interior","x":4,"y":17,"layer":"interior","access":{"type":"blocked","conditions":[]},"interactions":{"content":null,"transition":null}},{"map_id":1153,"name":"Sea","skin":"water","x":5,"y":17,"layer":"overworld","access":{"type":"blocked","conditions":[]},"interactions":{"content":null,"transition":null}},{"map_id":1154,"name":"Empty","skin":"underground","x":5,"y":17,"layer":"underground","access":{"type":"blocked","conditions":[]},"interactions":{"content":null,"transition":null}},{"map_id":1155,"name":"Empty","skin":"interior","x":5,"y":17,"layer":"interior","access":{"type":"blocked","conditions":[]},"interactions":{"content":null,"transition":null}},{"map_id":1156,"name":"Sea","skin":"water","x":6,"y":17,"layer":"overworld","access":{"type":"blocked","conditions":[]},"interactions":{"content":null,"transition":null}},{"map_id":1157,"name":"Empty","skin":"underground","x":6,"y":17,"layer":"underground","access":{"type":"blocked","conditions":[]},"interactions":{"content":null,"transition":null}},{"map_id":1158,"name":"Empty","skin":"interior","x":6,"y":17,"layer":"interior","access":{"type":"blocked","conditions":[]},"interactions":{"content":null,"transition":null}},{"map_id":1159,"name":"Sea","skin":"water","x":7,"y":17,"layer":"overworld","access":{"type":"blocked","conditions":[]},"interactions":{"content":null,"transition":null}},{"map_id":1160,"name":"Empty","skin":"underground","x":7,"y":17,"layer":"underground","access":{"type":"blocked","conditions":[]},"interactions":{"content":null,"transition":null}},{"map_id":1161,"name":"Empty","skin":"interior","x":7,"y":17,"layer":"interior","access":{"type":"blocked","conditions":[]},"interactions":{"content":null,"transition":null}},{"map_id":1162,"name":"Sea","skin":"water","x":8,"y":17,"layer":"overworld","access":{"type":"blocked","conditions":[]},"interactions":{"content":null,"transition":null}},{"map_id":1163,"name":"Empty","skin":"underground","x":8,"y":17,"layer":"underground","access":{"type":"blocked","conditions":[]},"interactions":{"content":null,"transition":null}},{"map_id":1164,"name":"Empty","skin":"interior","x":8,"y":17,"layer":"interior","access":{"type":"blocked","conditions":[]},"interactions":{"content":null,"transition":null}},{"map_id":1165,"name":"Sea","skin":"water","x":9,"y":17,"layer":"overworld","access":{"type":"blocked","conditions":[]},"interactions":{"content":null,"transition":null}},{"map_id":1166,"name":"Empty","skin":"underground","x":9,"y":17,"layer":"underground","access":{"type":"blocked","conditions":[]},"interactions":{"content":null,"transition":null}},{"map_id":1167,"name":"Empty","skin":"interior","x":9,"y":17,"layer":"interior","access":{"type":"blocked","conditions":[]},"interactions":{"content":null,"transition":null}},{"map_id":1168,"name":"Sea","skin":"water","x":10,"y":17,"layer":"overworld","access":{"type":"blocked","conditions":[]},"interactions":{"content":null,"transition":null}},{"map_id":1169,"name":"Empty","skin":"underground","x":10,"y":17,"layer":"underground","access":{"type":"blocked","conditions":[]},"interactions":{"content":null,"transition":null}},{"map_id":1170,"name":"Empty","skin":"interior","x":10,"y":17,"layer":"interior","access":{"type":"blocked","conditions":[]},"interactions":{"content":null,"transition":null}},{"map_id":1171,"name":"Sea","skin":"water","x":11,"y":17,"layer":"overworld","access":{"type":"blocked","conditions":[]},"interactions":{"content":null,"transition":null}},{"map_id":1172,"name":"Empty","skin":"underground","x":11,"y":17,"layer":"underground","access":{"type":"blocked","conditions":[]},"interactions":{"content":null,"transition":null}},{"map_id":1173,"name":"Empty","skin":"interior","x":11,"y":17,"layer":"interior","access":{"type":"blocked","conditions":[]},"interactions":{"content":null,"transition":null}},{"map_id":1174,"name":"Sea","skin":"water","x":-5,"y":18,"layer":"overworld","access":{"type":"blocked","conditions":[]},"interactions":{"content":null,"transition":null}},{"map_id":1175,"name":"Sandwhisper Mine","skin":"desertmine_1","x":-5,"y":18,"layer":"underground","access":{"type":"standard","conditions":[]},"interactions":{"content":{"type":"resource","code":"adamantite_rocks"},"transition":null}},{"map_id":1176,"name":"Empty","skin":"interior","x":-5,"y":18,"layer":"interior","access":{"type":"blocked","conditions":[]},"interactions":{"content":null,"transition":null}},{"map_id":1177,"name":"Sandwhisper Isle","skin":"desertisland_5","x":-4,"y":18,"layer":"overworld","access":{"type":"standard","conditions":[]},"interactions":{"content":{"type":"resource","code":"palm_tree"},"transition":{"map_id":1178,"x":-4,"y":18,"layer":"underground","conditions":[]}}},{"map_id":1178,"name":"Sandwhisper Mine","skin":"desertmine_2","x":-4,"y":18,"layer":"underground","access":{"type":"standard","conditions":[]},"interactions":{"content":null,"transition":{"map_id":1177,"x":-4,"y":18,"layer":"overworld","conditions":[]}}},{"map_id":1179,"name":"Empty","skin":"interior","x":-4,"y":18,"layer":"interior","access":{"type":"blocked","conditions":[]},"interactions":{"content":null,"transition":null}},{"map_id":1180,"name":"Sandwhisper Isle","skin":"desertisland_6","x":-3,"y":18,"layer":"overworld","access":{"type":"standard","conditions":[]},"interactions":{"content":{"type":"resource","code":"torch_cactus"},"transition":null}},{"map_id":1181,"name":"Empty","skin":"underground","x":-3,"y":18,"layer":"underground","access":{"type":"blocked","conditions":[]},"interactions":{"content":null,"transition":null}},{"map_id":1182,"name":"Empty","skin":"interior","x":-3,"y":18,"layer":"interior","access":{"type":"blocked","conditions":[]},"interactions":{"content":null,"transition":null}},{"map_id":1183,"name":"Sandwhisper Isle","skin":"desertisland_7","x":-2,"y":18,"layer":"overworld","access":{"type":"standard","conditions":[]},"interactions":{"content":{"type":"npc","code":"sandwhisper_trader"},"transition":null}},{"map_id":1184,"name":"Empty","skin":"underground","x":-2,"y":18,"layer":"underground","access":{"type":"blocked","conditions":[]},"interactions":{"content":null,"transition":null}},{"map_id":1185,"name":"Empty","skin":"interior","x":-2,"y":18,"layer":"interior","access":{"type":"blocked","conditions":[]},"interactions":{"content":null,"transition":null}},{"map_id":1186,"name":"Sandwhisper Isle","skin":"desertisland_18","x":-1,"y":18,"layer":"overworld","access":{"type":"standard","conditions":[]},"interactions":{"content":{"type":"monster","code":"sand_snake"},"transition":null}},{"map_id":1187,"name":"Empty","skin":"underground","x":-1,"y":18,"layer":"underground","access":{"type":"blocked","conditions":[]},"interactions":{"content":null,"transition":null}},{"map_id":1188,"name":"Empty","skin":"interior","x":-1,"y":18,"layer":"interior","access":{"type":"blocked","conditions":[]},"interactions":{"content":null,"transition":null}},{"map_id":1189,"name":"Sandwhisper Isle","skin":"desertisland_8","x":0,"y":18,"layer":"overworld","access":{"type":"standard","conditions":[]},"interactions":{"content":{"type":"monster","code":"desert_scorpion"},"transition":null}},{"map_id":1190,"name":"Empty","skin":"underground","x":0,"y":18,"layer":"underground","access":{"type":"blocked","conditions":[]},"interactions":{"content":null,"transition":null}},{"map_id":1191,"name":"Empty","skin":"interior","x":0,"y":18,"layer":"interior","access":{"type":"blocked","conditions":[]},"interactions":{"content":null,"transition":null}},{"map_id":1192,"name":"Sea","skin":"water","x":1,"y":18,"layer":"overworld","access":{"type":"blocked","conditions":[]},"interactions":{"content":null,"transition":null}},{"map_id":1193,"name":"Empty","skin":"underground","x":1,"y":18,"layer":"underground","access":{"type":"blocked","conditions":[]},"interactions":{"content":null,"transition":null}},{"map_id":1194,"name":"Empty","skin":"interior","x":1,"y":18,"layer":"interior","access":{"type":"blocked","conditions":[]},"interactions":{"content":null,"transition":null}},{"map_id":1195,"name":"Sea","skin":"water","x":2,"y":18,"layer":"overworld","access":{"type":"blocked","conditions":[]},"interactions":{"content":null,"transition":null}},{"map_id":1196,"name":"Empty","skin":"underground","x":2,"y":18,"layer":"underground","access":{"type":"blocked","conditions":[]},"interactions":{"content":null,"transition":null}},{"map_id":1197,"name":"Empty","skin":"interior","x":2,"y":18,"layer":"interior","access":{"type":"blocked","conditions":[]},"interactions":{"content":null,"transition":null}},{"map_id":1198,"name":"Sea","skin":"water","x":3,"y":18,"layer":"overworld","access":{"type":"blocked","conditions":[]},"interactions":{"content":null,"transition":null}},{"map_id":1199,"name":"Empty","skin":"underground","x":3,"y":18,"layer":"underground","access":{"type":"blocked","conditions":[]},"interactions":{"content":null,"transition":null}},{"map_id":1200,"name":"Empty","skin":"interior","x":3,"y":18,"layer":"interior","access":{"type":"blocked","conditions":[]},"interactions":{"content":null,"transition":null}}],"total":1428,"page":24,"size":50,"pages":29}