{"data":[{"map_id":1301,"name":"Empty","skin":"underground","x":3,"y":20,"layer":"underground","access":{"type":"blocked","conditions":[]},"interactions":{"content":null,"transition":null}},{"map_id":1302,"name":"Empty","skin":"interior","x":3,"y":20,"layer":"interior","access":{"type":"blocked","conditions":[]},"interactions":{"content":null,"transition":null}},{"map_id":1303,"name":"Sea","skin":"water","x":4,"y":20,"layer":"overworld","access":{"type":"blocked","conditions":[]},"interactions":{"content":null,"transition":null}},{"map_id":1304,"name":"Empty","skin":"underground","x":4,"y":20,"layer":"underground","access":{"type":"blocked","conditions":[]},"interactions":{"content":null,"transition":null}},{"map_id":1305,"name":"Empty","skin":"interior","x":4,"y":20,"layer":"interior","access":{"type":"blocked","conditions":[]},"interactions":{"content":null,"transition":null}},{"map_id":1306,"name":"Sea","skin":"water","x":5,"y":20,"layer":"overworld","access":{"type":"blocked","conditions":[]},"interactions":{"content":null,"transition":null}},{"map_id":1307,"name":"Empty","skin":"underground","x":5,"y":20,"layer":"underground","access":{"type":"blocked","conditions":[]},"interactions":{"content":null,"transition":null}},{"map_id":1308,"name":"Empty","skin":"interior","x":5,"y":20,"layer":"interior","access":{"type":"blocked","conditions":[]},"interactions":{"content":null,"transition":null}},{"map_id":1309,"name":"Sea","skin":"water","x":6,"y":20,"layer":"overworld","access":{"type":"blocked","conditions":[]},"interactions":{"content":null,"transition":null}},{"map_id":1310,"name":"Empty","skin":"underground","x":6,"y":20,"layer":"underground","access":{"type":"blocked","conditions":[]},"interactions":{"content":null,"transition":null}},{"map_id":1311,"name":"Empty","skin":"interior","x":6,"y":20,"layer":"interior","access":{"type":"blocked","conditions":[]},"interactions":{"content":null,"transition":null}},{"map_id":1312,"name":"Sea","skin":"water","x":7,"y":20,"layer":"overworld","access":{"type":"blocked","conditions":[]},"interactions":{"content":null,"transition":null}},{"map_id":1313,"name":"Empty","skin":"underground","x":7,"y":20,"layer":"underground","access":{"type":"blocked","conditions":[]},"interactions":{"content":null,"transition":null}},{"map_id":1314,"name":"Empty","skin":"interior","x":7,"y":20,"layer":"interior","access":{"type":"blocked","conditions":[]},"interactions":{"content":null,"transition":null}},{"map_id":1315,"name":"Sea","skin":"water","x":8,"y":20,"layer":"overworld","access":{"type":"blocked","conditions":[]},"interactions":{"content":null,"transition":null}},{"map_id":1316,"name":"Empty","skin":"underground","x":8,"y":20,"layer":"underground","access":{"type":"blocked","conditions":[]},"interactions":{"content":null,"transition":null}},{"map_id":1317,"name":"Empty","skin":"interior","x":8,"y":20,"layer":"interior","access":{"type":"blocked","conditions":[]},"interactions":{"content":null,"transition":null}},{"map_id":1318,"name":"Sea","skin":"water","x":9,"y":20,"layer":"overworld","access":{"type":"blocked","conditions":[]},"interactions":{"content":null,"transition":null}},{"map_id":1319,"name":"Empty","skin":"underground","x":9,"y":20,"layer":"underground","access":{"type":"blocked","conditions":[]},"interactions":{"content":null,"transition":null}},{"map_id":1320,"name":"Empty","skin":"interior","x":9,"y":20,"layer":"interior","access":{"type":"blocked","conditions":[]},"interactions":{"content":null,"transition":null}},{"map_id":1321,"name":"Sea","skin":"water","x":10,"y":20,"layer":"overworld","access":{"type":"blocked","conditions":[]},"interactions":{"content":null,"transition":null}},{"map_id":1322,"name":"Empty","skin":"underground","x":10,"y":20,"layer":"underground","access":{"type":"blocked","conditions":[]},"interactions":{"content":null,"transition":null}},{"map_id":1323,"name":"Empty","skin":"interior","x":10,"y":20,"layer":"interior","access":{"type":"blocked","conditions":[]},"interactions":{"content":null,"transition":null}},{"map_id":1324,"name":"Sea","skin":"water","x":11,"y":20,"layer":"overworld","access":{"type":"blocked","conditions":[]},"interactions":{"content":null,"transition":null}},{"map_id":1325,"name":"Empty","skin":"underground","x":11,"y":20,"layer":"underground","access":{"type":"blocked","conditions":[]},"interactions":{"content":null,"transition":null}},{"map_id":1326,"name":"Empty","skin":"interior","x":11,"y":20,"layer":"interior","access":{"type":"blocked","conditions":[]},"interactions":{"content":null,"transition":null}},{"map_id":1327,"name":"Sea","skin":"water","x":-5,"y":21,"layer":"overworld","access":{"type":"blocked","conditions":[]},"interactions":{"content":null,"transition":null}},{"map_id":1328,"name":"Empty","skin":"underground","x":-5,"y":21,"layer":"underground","access":{"type":"blocked","conditions":[]},"interactions":{"content":null,"transition":null}},{"map_id":1329,"name":"Empty","skin":"interior","x":-5,"y":21,"layer":"interior","access":{"type":"blocked","conditions":[]},"interactions":{"content":null,"transition":null}},{"map_id":1330,"name":"Sea","skin":"water","x":-4,"y":21,"layer":"overworld","access":{"type":"blocked","conditions":[]},"interactions":{"content":null,"transition":null}},{"map_id":1331,"name":"Empty","skin":"underground","x":-4,"y":21,"layer":"underground","access":{"type":"blocked","conditions":[]},"interactions":{"content":null,"transition":null}},{"map_id":1332,"name":"Empty","skin":"interior","x":-4,"y":21,"layer":"interior","access":{"type":"blocked","conditions":[]},"interactions":{"content":null,"transition":null}},{"map_id":1333,"name":"Sea","skin":"water","x":-3,"y":21,"layer":"overworld","access":{"type":"blocked","conditions":[]},"interactions":{"content":null,"transition":null}},{"map_id":1334,"name":"Empty","skin":"underground","x":-3,"y":21,"layer":"underground","access":{"type":"blocked","conditions":[]},"interactions":{"content":null,"transition":null}},{"map_id":1335,"name":"Empty","skin":"interior","x":-3,"y":21,"layer":"interior","access":{"type":"blocked","conditions":[]},"interactions":{"content":null,"transition":null}},{"map_id":1336,"name":"Sandwhisper Isle","skin":"desertisland_16","x":-2,"y":21,"layer":"overworld","access":{"type":"standard","conditions":[]},"interactions":{"content":null,"transition":{"map_id":1093,"x":2,"y":16,"layer":"overworld","conditions":[{"code":"gold","operator":"cost","value":1000}]}}},{"map_id":1337,"name":"Empty","skin":"underground","x":-2,"y":21,"layer":"underground","access":{"type":"blocked","conditions":[]},"interactions":{"content":null,"transition":null}},{"map_id":1338,"name":"Empty","skin":"interior","x":-2,"y":21,"layer":"interior","access":{"type":"blocked","conditions":[]},"interactions":{"content":null,"transition":null}},{"map_id":1339,"name":"Sea","skin":"water","x":-1,"y":21,"layer":"overworld","access":{"type":"blocked","conditions":[]},"interactions":{"content":null,"transition":null}},{"map_id":1340,"name":"Empty","skin":"underground","x":-1,"y":21,"layer":"underground","access":{"type":"blocked","conditions":[]},"interactions":{"content":null,"transition":null}},{"map_id":1341,"name":"Empty","skin":"interior","x":-1,"y":21,"layer":"interior","access":{"type":"blocked","conditions":[]},"interactions":{"content":null,"transition":null}},{"map_id":1342,"name":"Sea","skin":"water","x":0,"y":21,"layer":"overworld","access":{"type":"blocked","conditions":[]},"interactions":{"content":null,"transition":null}},{"map_id":1343,"name":"Empty","skin":"underground","x":0,"y":21,"layer":"underground","access":{"type":"blocked","conditions":[]},"interactions":{"content":null,"transition":null}},{"map_id":1344,"name":"Empty","skin":"interior","x":0,"y":21,"layer":"interior","access":{"type":"blocked","conditions":[]},"interactions":{"content":null,"transition":null}},{"map_id":1345,"name":"Sea","skin":"water","x":1,"y":21,"layer":"overworld","access":{"type":"blocked","conditions":[]},"interactions":{"content":null,"transition":null}},{"map_id":1346,"name":"Empty","skin":"underground","x":1,"y":21,"layer":"underground","access":{"type":"blocked","conditions":[]},"interactions":{"content":null,"transition":null}},{"map_id":1347,"name":"Empty","skin":"interior","x":1,"y":21,"layer":"interior","access":{"type":"blocked","conditions":[]},"interactions":{"content":null,"transition":null}},{"map_id":1348,"name":"Sea","skin":"water","x":2,"y":21,"layer":"overworld","access":{"type":"blocked","conditions":[]},"interactions":{"content":null,"transition":null}},{"map_id":1349,"name":"Empty","skin":"underground","x":2,"y":21,"layer":"underground","access":{"type":"blocked","conditions":[]},"interactions":{"content":null,"transition":null}},{"map_id":1350,"name":"Empty","skin":"interior","x":2,"y":21,"layer":"interior","access":{"type":"blocked","conditions":[]},"interactions":{"content":null,"transition":null}}],"total":1428,"page":27,"size":50,"pages":29}