{
    "data": [
        {
            "name": "Forest",
            "skin": "forest_1",
            "x": 9,
            "y": 3,
            "content": null
        },
        {
            "name": "Forest",
            "skin": "forest_3",
            "x": 10,
            "y": 3,
            "content": null
        },
        {
            "name": "Forest",
            "skin": "forest_1",
            "x": 11,
            "y": 3,
            "content": null
        },
        {
            "name": "Forest",
            "skin": "forest_3",
            "x": -5,
            "y": 4,
            "content": null
        },
        {
            "name": "Forest",
            "skin": "forest_2",
            "x": -4,
            "y": 4,
            "content": null
        },
        {
            "name": "Forest",
            "skin": "forest_3",
            "x": -3,
            "y": 4,
            "content": null
        },
        {
            "name": "Forest",
            "skin": "forest_2",
            "x": -2,
            "y": 4,
            "content": null
        },
        {
            "name": "Forest",
            "skin": "forest_1",
            "x": -1,
            "y": 4,
            "content": null
        },
        {
            "name": "Forest",
            "skin": "forest_3",
            "x": 0,
            "y": 4,
            "content": null
        },
        {
            "name": "Forest",
            "skin": "forest_3",
            "x": 1,
            "y": 4,
            "content": null
        },
        {
            "name": "Forest",
            "skin": "forest_village5",
            "x": 2,
            "y": 4,
            "content": null
        },
        {
            "name": "Forest",
            "skin": "forest_1",
            "x": 3,
            "y": 4,
            "content": null
        },
        {
            "name": "Forest",
            "skin": "forest_2",
            "x": 4,
            "y": 4,
            "content": null
        },
        {
            "name": "Forest",
            "skin": "forest_flyingserpent1",
            "x": 5,
            "y": 4,
            "content": {
                "type": "monster",
                "code": "flying_serpent"
            }
        },
        {
            "name": "Forest",
            "skin": "forest_mushmush2",
            "x": 6,
            "y": 4,
            "content": {
                "type": "monster",
                "code": "mushmush"
            }
        },
        {
            "name": "Forest",
            "skin": "forest_flyingserpent2",
            "x": 7,
            "y": 4,
            "content": {
                "type": "monster",
                "code": "flying_serpent"
            }
        },
        {
            "name": "Forest",
            "skin": "forest_2",
            "x": 8,
            "y": 4,
            "content": null
        },
        {
            "name": "Forest",
            "skin": "forest_2",
            "x": 9,
            "y": 4,
            "content": null
        },
        {
            "name": "Forest",
            "skin": "forest_2",
            "x": 10,
            "y": 4,
            "content": null
        },
        {
            "name": "Forest",
            "skin": "forest_2",
            "x": 11,
            "y": 4,
            "content": null
        },
        {
            "name": "Forest",
            "skin": "forest_3",
            "x": -5,
            "y": 5,
            "content": null
        },
        {
            "name": "Forest",
            "skin": "forest_3",
            "x": -4,
            "y": 5,
            "content": null
        },
        {
            "name": "Forest",
            "skin": "forest_4",
            "x": -3,
            "y": 5,
            "content": null
        },
        {
            "name": "Forest",
            "skin": "forest_1",
            "x": -2,
            "y": 5,
            "content": null
        },
        {
            "name": "Forest",
            "skin": "forest_3",
            "x": -1,
            "y": 5,
            "content": null
        },
        {
            "name": "Forest",
            "skin": "forest_2",
            "x": 0,
            "y": 5,
            "content": null
        },
        {
            "name": "Forest (Forge)",
            "skin": "forest_miningstation1",
            "x": 1,
            "y": 5,
            "content": {
                "type": "workshop",
                "code": "mining"
            }
        },
        {
            "name": "Forest",
            "skin": "forest_village6",
            "x": 2,
            "y": 5,
            "content": null
        },
        {
            "name": "Forest",
            "skin": "forest_birchtree2",
            "x": 3,
            "y": 5,
            "content": {
                "type": "resource",
                "code": "birch_tree"
            }
        },
        {
            "name": "Forest",
            "skin": "forest_2",
            "x": 4,
            "y": 5,
            "content": null
        },
        {
            "name": "Forest",
            "skin": "forest_3",
            "x": 5,
            "y": 5,
            "content": null
        },
        {
            "name": "Forest",
            "skin": "forest_3",
            "x": 6,
            "y": 5,
            "content": null
        },
        {
            "name": "Forest",
            "skin": "forest_3",
            "x": 7,
            "y": 5,
            "content": null
        },
        {
            "name": "Forest",
            "skin": "forest_3",
            "x": 8,
            "y": 5,
            "content": null
        },
        {
            "name": "Forest",
            "skin": "forest_3",
            "x": 9,
            "y": 5,
            "content": null
        },
        {
            "name": "Forest",
            "skin": "forest_3",
            "x": 10,
            "y": 5,
            "content": null
        },
        {
            "name": "Forest",
            "skin": "forest_3",
            "x": 11,
            "y": 5,
            "content": null
        },
        {
            "name": "Forest",
            "skin": "forest_1",
            "x": -5,
            "y": 6,
            "content": null
        },
        {
            "name": "Forest",
            "skin": "forest_portal2",
            "x": -4,
            "y": 6,
            "content": {
                "type": "monster",
                "code": "efreet_sultan"
            }
        },
        {
            "name": "Forest",
            "skin": "forest_4",
            "x": -3,
            "y": 6,
            "content": null
        },
        {
            "name": "Forest",
            "skin": "forest_3",
            "x": -2,
            "y": 6,
            "content": null
        },
        {
            "name": "Forest",
            "skin": "forest_birchtree1",
            "x": -1,
            "y": 6,
            "content": {
                "type": "resource",
                "code": "birch_tree"
            }
        },
        {
            "name": "Forest",
            "skin": "forest_2",
            "x": 0,
            "y": 6,
            "content": null
        },
        {
            "name": "Forest",
            "skin": "forest_coal1",
            "x": 1,
            "y": 6,
            "content": {
                "type": "resource",
                "code": "coal_rocks"
            }
        },
        {
            "name": "Forest",
            "skin": "forest_sprucetree2",
            "x": 2,
            "y": 6,
            "content": {
                "type": "resource",
                "code": "spruce_tree"
            }
        },
        {
            "name": "Forest",
            "skin": "forest_1",
            "x": 3,
            "y": 6,
            "content": null
        },
        {
            "name": "Forest",
            "skin": "forest_2",
            "x": 4,
            "y": 6,
            "content": null
        },
        {
            "name": "Forest",
            "skin": "forest_2",
            "x": 5,
            "y": 6,
            "content": null
        },
        {
            "name": "Forest",
            "skin": "forest_3",
            "x": 6,
            "y": 6,
            "content": null
        },
        {
            "name": "Forest",
            "skin": "forest_2",
            "x": 7,
            "y": 6,
            "content": null
        }
    ],
    "total": 357,
    "page": 4,
    "size": 50,
    "pages": 8
}