{"data":[{"map_id":401,"name":"Empty","skin":"underground","x":9,"y":2,"layer":"underground","access":{"type":"blocked","conditions":[]},"interactions":{"content":null,"transition":null}},{"map_id":402,"name":"Empty","skin":"interior","x":9,"y":2,"layer":"interior","access":{"type":"blocked","conditions":[]},"interactions":{"content":null,"transition":null}},{"map_id":403,"name":"Forest","skin":"forest_owlbear1","x":10,"y":2,"layer":"overworld","access":{"type":"standard","conditions":[]},"interactions":{"content":{"type":"monster","code":"owlbear"},"transition":null}},{"map_id":404,"name":"Empty","skin":"underground","x":10,"y":2,"layer":"underground","access":{"type":"blocked","conditions":[]},"interactions":{"content":null,"transition":null}},{"map_id":405,"name":"Empty","skin":"interior","x":10,"y":2,"layer":"interior","access":{"type":"blocked","conditions":[]},"interactions":{"content":null,"transition":null}},{"map_id":406,"name":"Forest","skin":"forest_4","x":11,"y":2,"layer":"overworld","access":{"type":"standard","conditions":[]},"interactions":{"content":null,"transition":null}},{"map_id":407,"name":"Empty","skin":"underground","x":11,"y":2,"layer":"underground","access":{"type":"blocked","conditions":[]},"interactions":{"content":null,"transition":null}},{"map_id":408,"name":"Empty","skin":"interior","x":11,"y":2,"layer":"interior","access":{"type":"blocked","conditions":[]},"interactions":{"content":null,"transition":null}},{"map_id":409,"name":"Forest","skin":"forest_2","x":-5,"y":3,"layer":"overworld","access":{"type":"standard","conditions":[]},"interactions":{"content":null,"transition":null}},{"map_id":410,"name":"Empty","skin":"underground","x":-5,"y":3,"layer":"underground","access":{"type":"blocked","conditions":[]},"interactions":{"content":null,"transition":null}},{"map_id":411,"name":"Empty","skin":"interior","x":-5,"y":3,"layer":"interior","access":{"type":"blocked","conditions":[]},"interactions":{"content":null,"transition":null}},{"map_id":412,"name":"Forest","skin":"forest_2","x":-4,"y":3,"layer":"overworld","access":{"type":"standard","conditions":[]},"interactions":{"content":null,"transition":null}},{"map_id":413,"name":"Empty","skin":"underground","x":-4,"y":3,"layer":"underground","access":{"type":"blocked","conditions":[]},"interactions":{"content":null,"transition":null}},{"map_id":414,"name":"Empty","skin":"interior","x":-4,"y":3,"layer":"interior","access":{"type":"blocked","conditions":[]},"interactions":{"content":null,"transition":null}},{"map_id":415,"name":"Forest","skin":"forest_2","x":-3,"y":3,"layer":"overworld","access":{"type":"standard","conditions":[]},"interactions":{"content":null,"transition":null}},{"map_id":416,"name":"Empty","skin":"underground","x":-3,"y":3,"layer":"underground","access":{"type":"blocked","conditions":[]},"interactions":{"content":null,"transition":null}},{"map_id":417,"name":"Empty","skin":"interior","x":-3,"y":3,"layer":"interior","access":{"type":"blocked","conditions":[]},"interactions":{"content":null,"transition":null}},{"map_id":418,"name":"Forest","skin":"forest_1","x":-2,"y":3,"layer":"overworld","access":{"type":"standard","conditions":[]},"interactions":{"content":null,"transition":null}},{"map_id":419,"name":"Empty","skin":"underground","x":-2,"y":3,"layer":"underground","access":{"type":"blocked","conditions":[]},"interactions":{"content":null,"transition":null}},{"map_id":420,"name":"Empty","skin":"interior","x":-2,"y":3,"layer":"interior","access":{"type":"blocked","conditions":[]},"interactions":{"content":null,"transition":null}},{"map_id":421,"name":"Forest","skin":"forest_4","x":-1,"y":3,"layer":"overworld","access":{"type":"standard","conditions":[]},"interactions":{"content":null,"transition":null}},{"map_id":422,"name":"Empty","skin":"underground","x":-1,"y":3,"layer":"underground","access":{"type":"blocked","conditions":[]},"interactions":{"content":null,"transition":null}},{"map_id":423,"name":"Empty","skin":"interior","x":-1,"y":3,"layer":"interior","access":{"type":"blocked","conditions":[]},"interactions":{"content":null,"transition":null}},{"map_id":424,"name":"Forest","skin":"forest_2","x":0,"y":3,"layer":"overworld","access":{"type":"standard","conditions":[]},"interactions":{"content":null,"transition":null}},{"map_id":425,"name":"Empty","skin":"underground","x":0,"y":3,"layer":"underground","access":{"type":"blocked","conditions":[]},"interactions":{"content":null,"transition":null}},{"map_id":426,"name":"Empty","skin":"interior","x":0,"y":3,"layer":"interior","access":{"type":"blocked","conditions":[]},"interactions":{"content":null,"transition":null}},{"map_id":427,"name":"City","skin":"forest_jewelrycrafting1","x":1,"y":3,"layer":"overworld","access":{"type":"standard","conditions":[]},"interactions":{"content":{"type":"workshop","code":"jewelrycrafting"},"transition":null}},{"map_id":428,"name":"Empty","skin":"underground","x":1,"y":3,"layer":"underground","access":{"type":"blocked","conditions":[]},"interactions":{"content":null,"transition":null}},{"map_id":429,"name":"Empty","skin":"interior","x":1,"y":3,"layer":"interior","access":{"type":"blocked","conditions":[]},"interactions":{"content":null,"transition":null}},{"map_id":430,"name":"City","skin":"forest_alchemy1","x":2,"y":3,"layer":"overworld","access":{"type":"standard","conditions":[]},"interactions":{"content":{"type":"workshop","code":"alchemy"},"transition":null}},{"map_id":431,"name":"Empty","skin":"underground","x":2,"y":3,"layer":"underground","access":{"type":"blocked","conditions":[]},"interactions":{"content":null,"transition":null}},{"map_id":432,"name":"Empty","skin":"interior","x":2,"y":3,"layer":"interior","access":{"type":"blocked","conditions":[]},"interactions":{"content":null,"transition":null}},{"map_id":433,"name":"City","skin":"forest_tailor1","x":3,"y":3,"layer":"overworld","access":{"type":"standard","conditions":[]},"interactions":{"content":{"type":"npc","code":"tailor"},"transition":null}},{"map_id":434,"name":"Empty","skin":"underground","x":3,"y":3,"layer":"underground","access":{"type":"blocked","conditions":[]},"interactions":{"content":null,"transition":null}},{"map_id":435,"name":"Empty","skin":"interior","x":3,"y":3,"layer":"interior","access":{"type":"blocked","conditions":[]},"interactions":{"content":null,"transition":null}},{"map_id":436,"name":"Forest","skin":"forest_2","x":4,"y":3,"layer":"overworld","access":{"type":"standard","conditions":[]},"interactions":{"content":null,"transition":null}},{"map_id":437,"name":"Empty","skin":"underground","x":4,"y":3,"layer":"underground","access":{"type":"blocked","conditions":[]},"interactions":{"content":null,"transition":null}},{"map_id":438,"name":"Empty","skin":"interior","x":4,"y":3,"layer":"interior","access":{"type":"blocked","conditions":[]},"interactions":{"content":null,"transition":null}},{"map_id":439,"name":"Forest","skin":"forest_mushmush1","x":5,"y":3,"layer":"overworld","access":{"type":"standard","conditions":[]},"interactions":{"content":{"type":"monster","code":"mushmush"},"transition":null}},{"map_id":440,"name":"Empty","skin":"underground","x":5,"y":3,"layer":"underground","access":{"type":"blocked","conditions":[]},"interactions":{"content":null,"transition":null}},{"map_id":441,"name":"Empty","skin":"interior","x":5,"y":3,"layer":"interior","access":{"type":"blocked","conditions":[]},"interactions":{"content":null,"transition":null}},{"map_id":442,"name":"Forest","skin":"forest_4","x":6,"y":3,"layer":"overworld","access":{"type":"standard","conditions":[]},"interactions":{"content":null,"transition":null}},{"map_id":443,"name":"Empty","skin":"underground","x":6,"y":3,"layer":"underground","access":{"type":"blocked","conditions":[]},"interactions":{"content":null,"transition":null}},{"map_id":444,"name":"Empty","skin":"interior","x":6,"y":3,"layer":"interior","access":{"type":"blocked","conditions":[]},"interactions":{"content":null,"transition":null}},{"map_id":445,"name":"Forest","skin":"forest_1","x":7,"y":3,"layer":"overworld","access":{"type":"standard","conditions":[]},"interactions":{"content":null,"transition":null}},{"map_id":446,"name":"Empty","skin":"underground","x":7,"y":3,"layer":"underground","access":{"type":"blocked","conditions":[]},"interactions":{"content":null,"transition":null}},{"map_id":447,"name":"Empty","skin":"interior","x":7,"y":3,"layer":"interior","access":{"type":"blocked","conditions":[]},"interactions":{"content":null,"transition":null}},{"map_id":448,"name":"Forest","skin":"forest_1","x":8,"y":3,"layer":"overworld","access":{"type":"standard","conditions":[]},"interactions":{"content":null,"transition":null}},{"map_id":449,"name":"Empty","skin":"underground","x":8,"y":3,"layer":"underground","access":{"type":"blocked","conditions":[]},"interactions":{"content":null,"transition":null}},{"map_id":450,"name":"Empty","skin":"interior","x":8,"y":3,"layer":"interior","access":{"type":"blocked","conditions":[]},"interactions":{"content":null,"transition":null}}],"total":1428,"page":9,"size":50,"pages":29}