{"data":[{"map_id":701,"name":"Empty","skin":"underground","x":7,"y":8,"layer":"underground","access":{"type":"blocked","conditions":[]},"interactions":{"content":null,"transition":null}},{"map_id":702,"name":"Empty","skin":"interior","x":7,"y":8,"layer":"interior","access":{"type":"blocked","conditions":[]},"interactions":{"content":null,"transition":null}},{"map_id":703,"name":"Graveyard","skin":"forest_skeleton7","x":8,"y":8,"layer":"overworld","access":{"type":"standard","conditions":[]},"interactions":{"content":{"type":"monster","code":"skeleton"},"transition":null}},{"map_id":704,"name":"Empty","skin":"underground","x":8,"y":8,"layer":"underground","access":{"type":"blocked","conditions":[]},"interactions":{"content":null,"transition":null}},{"map_id":705,"name":"Empty","skin":"interior","x":8,"y":8,"layer":"interior","access":{"type":"blocked","conditions":[]},"interactions":{"content":null,"transition":null}},{"map_id":706,"name":"Graveyard","skin":"forest_skeleton8","x":9,"y":8,"layer":"overworld","access":{"type":"standard","conditions":[]},"interactions":{"content":{"type":"resource","code":"dead_tree"},"transition":null}},{"map_id":707,"name":"Lich Tomb","skin":"lichmine_1","x":9,"y":8,"layer":"underground","access":{"type":"standard","conditions":[]},"interactions":{"content":{"type":"monster","code":"lich"},"transition":null}},{"map_id":708,"name":"Empty","skin":"interior","x":9,"y":8,"layer":"interior","access":{"type":"blocked","conditions":[]},"interactions":{"content":null,"transition":null}},{"map_id":709,"name":"Graveyard","skin":"forest_skeleton9","x":10,"y":8,"layer":"overworld","access":{"type":"standard","conditions":[]},"interactions":{"content":{"type":"monster","code":"vampire"},"transition":null}},{"map_id":710,"name":"Empty","skin":"underground","x":10,"y":8,"layer":"underground","access":{"type":"blocked","conditions":[]},"interactions":{"content":null,"transition":null}},{"map_id":711,"name":"Empty","skin":"interior","x":10,"y":8,"layer":"interior","access":{"type":"blocked","conditions":[]},"interactions":{"content":null,"transition":null}},{"map_id":712,"name":"Forest","skin":"forest_3","x":11,"y":8,"layer":"overworld","access":{"type":"standard","conditions":[]},"interactions":{"content":null,"transition":null}},{"map_id":713,"name":"Empty","skin":"underground","x":11,"y":8,"layer":"underground","access":{"type":"blocked","conditions":[]},"interactions":{"content":null,"transition":null}},{"map_id":714,"name":"Empty","skin":"interior","x":11,"y":8,"layer":"interior","access":{"type":"blocked","conditions":[]},"interactions":{"content":null,"transition":null}},{"map_id":715,"name":"Forest","skin":"forest_1","x":-5,"y":9,"layer":"overworld","access":{"type":"standard","conditions":[]},"interactions":{"content":null,"transition":null}},{"map_id":716,"name":"Empty","skin":"underground","x":-5,"y":9,"layer":"underground","access":{"type":"blocked","conditions":[]},"interactions":{"content":null,"transition":null}},{"map_id":717,"name":"Empty","skin":"interior","x":-5,"y":9,"layer":"interior","access":{"type":"blocked","conditions":[]},"interactions":{"content":null,"transition":null}},{"map_id":718,"name":"Forest","skin":"forest_1","x":-4,"y":9,"layer":"overworld","access":{"type":"standard","conditions":[]},"interactions":{"content":null,"transition":null}},{"map_id":719,"name":"Empty","skin":"underground","x":-4,"y":9,"layer":"underground","access":{"type":"blocked","conditions":[]},"interactions":{"content":null,"transition":null}},{"map_id":720,"name":"Empty","skin":"interior","x":-4,"y":9,"layer":"interior","access":{"type":"blocked","conditions":[]},"interactions":{"content":null,"transition":null}},{"map_id":721,"name":"Forest","skin":"forest_2","x":-3,"y":9,"layer":"overworld","access":{"type":"standard","conditions":[]},"interactions":{"content":null,"transition":null}},{"map_id":722,"name":"Empty","skin":"underground","x":-3,"y":9,"layer":"underground","access":{"type":"blocked","conditions":[]},"interactions":{"content":null,"transition":null}},{"map_id":723,"name":"Empty","skin":"interior","x":-3,"y":9,"layer":"interior","access":{"type":"blocked","conditions":[]},"interactions":{"content":null,"transition":null}},{"map_id":724,"name":"Forest","skin":"forest_4","x":-2,"y":9,"layer":"overworld","access":{"type":"standard","conditions":[]},"interactions":{"content":null,"transition":null}},{"map_id":725,"name":"Empty","skin":"underground","x":-2,"y":9,"layer":"underground","access":{"type":"blocked","conditions":[]},"interactions":{"content":null,"transition":null}},{"map_id":726,"name":"Empty","skin":"interior","x":-2,"y":9,"layer":"interior","access":{"type":"blocked","conditions":[]},"interactions":{"content":null,"transition":null}},{"map_id":727,"name":"Forest","skin":"forest_1","x":-1,"y":9,"layer":"overworld","access":{"type":"standard","conditions":[]},"interactions":{"content":null,"transition":null}},{"map_id":728,"name":"Empty","skin":"underground","x":-1,"y":9,"layer":"underground","access":{"type":"blocked","conditions":[]},"interactions":{"content":null,"transition":null}},{"map_id":729,"name":"Empty","skin":"interior","x":-1,"y":9,"layer":"interior","access":{"type":"blocked","conditions":[]},"interactions":{"content":null,"transition":null}},{"map_id":730,"name":"Forest","skin":"forest_2","x":0,"y":9,"layer":"overworld","access":{"type":"standard","conditions":[]},"interactions":{"content":null,"transition":null}},{"map_id":731,"name":"Empty","skin":"underground","x":0,"y":9,"layer":"underground","access":{"type":"blocked","conditions":[]},"interactions":{"content":null,"transition":null}},{"map_id":732,"name":"Empty","skin":"interior","x":0,"y":9,"layer":"interior","access":{"type":"blocked","conditions":[]},"interactions":{"content":null,"transition":null}},{"map_id":733,"name":"Forest","skin":"forest_sprucetree1","x":1,"y":9,"layer":"overworld","access":{"type":"standard","conditions":[]},"interactions":{"content":{"type":"resource","code":"spruce_tree"},"transition":null}},{"map_id":734,"name":"Empty","skin":"underground","x":1,"y":9,"layer":"underground","access":{"type":"blocked","conditions":[]},"interactions":{"content":null,"transition":null}},{"map_id":735,"name":"Empty","skin":"interior","x":1,"y":9,"layer":"interior","access":{"type":"blocked","conditions":[]},"interactions":{"content":null,"transition":null}},{"map_id":736,"name":"Forest","skin":"forest_road3","x":2,"y":9,"layer":"overworld","access":{"type":"standard","conditions":[]},"interactions":{"content":null,"transition":null}},{"map_id":737,"name":"Empty","skin":"underground","x":2,"y":9,"layer":"underground","access":{"type":"blocked","conditions":[]},"interactions":{"content":null,"transition":null}},{"map_id":738,"name":"Empty","skin":"interior","x":2,"y":9,"layer":"interior","access":{"type":"blocked","conditions":[]},"interactions":{"content":null,"transition":null}},{"map_id":739,"name":"Forest","skin":"forest_1","x":3,"y":9,"layer":"overworld","access":{"type":"standard","conditions":[]},"interactions":{"content":null,"transition":null}},{"map_id":740,"name":"Empty","skin":"underground","x":3,"y":9,"layer":"underground","access":{"type":"blocked","conditions":[]},"interactions":{"content":null,"transition":null}},{"map_id":741,"name":"Empty","skin":"interior","x":3,"y":9,"layer":"interior","access":{"type":"blocked","conditions":[]},"interactions":{"content":null,"transition":null}},{"map_id":742,"name":"Forest","skin":"forest_2","x":4,"y":9,"layer":"overworld","access":{"type":"standard","conditions":[]},"interactions":{"content":null,"transition":null}},{"map_id":743,"name":"Empty","skin":"underground","x":4,"y":9,"layer":"underground","access":{"type":"blocked","conditions":[]},"interactions":{"content":null,"transition":null}},{"map_id":744,"name":"Empty","skin":"interior","x":4,"y":9,"layer":"interior","access":{"type":"blocked","conditions":[]},"interactions":{"content":null,"transition":null}},{"map_id":745,"name":"Forest","skin":"forest_3","x":5,"y":9,"layer":"overworld","access":{"type":"standard","conditions":[]},"interactions":{"content":null,"transition":null}},{"map_id":746,"name":"Empty","skin":"underground","x":5,"y":9,"layer":"underground","access":{"type":"blocked","conditions":[]},"interactions":{"content":null,"transition":null}},{"map_id":747,"name":"Empty","skin":"interior","x":5,"y":9,"layer":"interior","access":{"type":"blocked","conditions":[]},"interactions":{"content":null,"transition":null}},{"map_id":748,"name":"Forest","skin":"forest_1","x":6,"y":9,"layer":"overworld","access":{"type":"standard","conditions":[]},"interactions":{"content":null,"transition":null}},{"map_id":749,"name":"Empty","skin":"underground","x":6,"y":9,"layer":"underground","access":{"type":"blocked","conditions":[]},"interactions":{"content":null,"transition":null}},{"map_id":750,"name":"Empty","skin":"interior","x":6,"y":9,"layer":"interior","access":{"type":"blocked","conditions":[]},"interactions":{"content":null,"transition":null}}],"total":1428,"page":15,"size":50,"pages":29}