{"data":[{"map_id":1051,"name":"Forest","skin":"forest_2","x":5,"y":15,"layer":"overworld","access":{"type":"standard","conditions":[]},"interactions":{"content":null,"transition":null}},{"map_id":1052,"name":"Empty","skin":"underground","x":5,"y":15,"layer":"underground","access":{"type":"blocked","conditions":[]},"interactions":{"content":null,"transition":null}},{"map_id":1053,"name":"Empty","skin":"interior","x":5,"y":15,"layer":"interior","access":{"type":"blocked","conditions":[]},"interactions":{"content":null,"transition":null}},{"map_id":1054,"name":"Forest","skin":"forest_3","x":6,"y":15,"layer":"overworld","access":{"type":"standard","conditions":[]},"interactions":{"content":null,"transition":null}},{"map_id":1055,"name":"Empty","skin":"underground","x":6,"y":15,"layer":"underground","access":{"type":"blocked","conditions":[]},"interactions":{"content":null,"transition":null}},{"map_id":1056,"name":"Empty","skin":"interior","x":6,"y":15,"layer":"interior","access":{"type":"blocked","conditions":[]},"interactions":{"content":null,"transition":null}},{"map_id":1057,"name":"Forest","skin":"forest_2","x":7,"y":15,"layer":"overworld","access":{"type":"standard","conditions":[]},"interactions":{"content":null,"transition":null}},{"map_id":1058,"name":"Empty","skin":"underground","x":7,"y":15,"layer":"underground","access":{"type":"blocked","conditions":[]},"interactions":{"content":null,"transition":null}},{"map_id":1059,"name":"Empty","skin":"interior","x":7,"y":15,"layer":"interior","access":{"type":"blocked","conditions":[]},"interactions":{"content":null,"transition":null}},{"map_id":1060,"name":"Forest","skin":"forest_2","x":8,"y":15,"layer":"overworld","access":{"type":"standard","conditions":[]},"interactions":{"content":null,"transition":null}},{"map_id":1061,"name":"Empty","skin":"underground","x":8,"y":15,"layer":"underground","access":{"type":"blocked","conditions":[]},"interactions":{"content":null,"transition":null}},{"map_id":1062,"name":"Empty","skin":"interior","x":8,"y":15,"layer":"interior","access":{"type":"blocked","conditions":[]},"interactions":{"content":null,"transition":null}},{"map_id":1063,"name":"Forest","skin":"forest_2","x":9,"y":15,"layer":"overworld","access":{"type":"standard","conditions":[]},"interactions":{"content":null,"transition":null}},{"map_id":1064,"name":"Empty","skin":"underground","x":9,"y":15,"layer":"underground","access":{"type":"blocked","conditions":[]},"interactions":{"content":null,"transition":null}},{"map_id":1065,"name":"Empty","skin":"interior","x":9,"y":15,"layer":"interior","access":{"type":"blocked","conditions":[]},"interactions":{"content":null,"transition":null}},{"map_id":1066,"name":"Forest","skin":"forest_3","x":10,"y":15,"layer":"overworld","access":{"type":"standard","conditions":[]},"interactions":{"content":null,"transition":null}},{"map_id":1067,"name":"Empty","skin":"underground","x":10,"y":15,"layer":"underground","access":{"type":"blocked","conditions":[]},"interactions":{"content":null,"transition":null}},{"map_id":1068,"name":"Empty","skin":"interior","x":10,"y":15,"layer":"interior","access":{"type":"blocked","conditions":[]},"interactions":{"content":null,"transition":null}},{"map_id":1069,"name":"Forest","skin":"forest_3","x":11,"y":15,"layer":"overworld","access":{"type":"standard","conditions":[]},"interactions":{"content":null,"transition":null}},{"map_id":1070,"name":"Empty","skin":"underground","x":11,"y":15,"layer":"underground","access":{"type":"blocked","conditions":[]},"interactions":{"content":null,"transition":null}},{"map_id":1071,"name":"Empty","skin":"interior","x":11,"y":15,"layer":"interior","access":{"type":"blocked","conditions":[]},"interactions":{"content":null,"transition":null}},{"map_id":1072,"name":"Sea","skin":"water","x":-5,"y":16,"layer":"overworld","access":{"type":"blocked","conditions":[]},"interactions":{"content":null,"transition":null}},{"map_id":1073,"name":"Empty","skin":"underground","x":-5,"y":16,"layer":"underground","access":{"type":"blocked","conditions":[]},"interactions":{"content":null,"transition":null}},{"map_id":1074,"name":"Empty","skin":"interior","x":-5,"y":16,"layer":"interior","access":{"type":"blocked","conditions":[]},"interactions":{"content":null,"transition":null}},{"map_id":1075,"name":"Sea","skin":"water","x":-4,"y":16,"layer":"overworld","access":{"type":"blocked","conditions":[]},"interactions":{"content":null,"transition":null}},{"map_id":1076,"name":"Empty","skin":"underground","x":-4,"y":16,"layer":"underground","access":{"type":"blocked","conditions":[]},"interactions":{"content":null,"transition":null}},{"map_id":1077,"name":"Empty","skin":"interior","x":-4,"y":16,"layer":"interior","access":{"type":"blocked","conditions":[]},"interactions":{"content":null,"transition":null}},{"map_id":1078,"name":"Sea","skin":"forest_coastline6","x":-3,"y":16,"layer":"overworld","access":{"type":"blocked","conditions":[]},"interactions":{"content":null,"transition":null}},{"map_id":1079,"name":"Empty","skin":"underground","x":-3,"y":16,"layer":"underground","access":{"type":"blocked","conditions":[]},"interactions":{"content":null,"transition":null}},{"map_id":1080,"name":"Empty","skin":"interior","x":-3,"y":16,"layer":"interior","access":{"type":"blocked","conditions":[]},"interactions":{"content":null,"transition":null}},{"map_id":1081,"name":"Sea","skin":"forest_coastline2","x":-2,"y":16,"layer":"overworld","access":{"type":"blocked","conditions":[]},"interactions":{"content":null,"transition":null}},{"map_id":1082,"name":"Empty","skin":"underground","x":-2,"y":16,"layer":"underground","access":{"type":"blocked","conditions":[]},"interactions":{"content":null,"transition":null}},{"map_id":1083,"name":"Empty","skin":"interior","x":-2,"y":16,"layer":"interior","access":{"type":"blocked","conditions":[]},"interactions":{"content":null,"transition":null}},{"map_id":1084,"name":"Sea","skin":"forest_coastline7","x":-1,"y":16,"layer":"overworld","access":{"type":"blocked","conditions":[]},"interactions":{"content":null,"transition":null}},{"map_id":1085,"name":"Empty","skin":"underground","x":-1,"y":16,"layer":"underground","access":{"type":"blocked","conditions":[]},"interactions":{"content":null,"transition":null}},{"map_id":1086,"name":"Empty","skin":"interior","x":-1,"y":16,"layer":"interior","access":{"type":"blocked","conditions":[]},"interactions":{"content":null,"transition":null}},{"map_id":1087,"name":"Sea","skin":"forest_coastline8","x":0,"y":16,"layer":"overworld","access":{"type":"blocked","conditions":[]},"interactions":{"content":null,"transition":null}},{"map_id":1088,"name":"Empty","skin":"underground","x":0,"y":16,"layer":"underground","access":{"type":"blocked","conditions":[]},"interactions":{"content":null,"transition":null}},{"map_id":1089,"name":"Empty","skin":"interior","x":0,"y":16,"layer":"interior","access":{"type":"blocked","conditions":[]},"interactions":{"content":null,"transition":null}},{"map_id":1090,"name":"Sea","skin":"forest_coastline9","x":1,"y":16,"layer":"overworld","access":{"type":"blocked","conditions":[]},"interactions":{"content":null,"transition":null}},{"map_id":1091,"name":"Empty","skin":"underground","x":1,"y":16,"layer":"underground","access":{"type":"blocked","conditions":[]},"interactions":{"content":null,"transition":null}},{"map_id":1092,"name":"Empty","skin":"interior","x":1,"y":16,"layer":"interior","access":{"type":"blocked","conditions":[]},"interactions":{"content":null,"transition":null}},{"map_id":1093,"name":"Forest","skin":"forest_coastline1","x":2,"y":16,"layer":"overworld","access":{"type":"standard","conditions":[]},"interactions":{"content":null,"transition":{"map_id":1336,"x":-2,"y":21,"layer":"overworld","conditions":[{"code":"gold","operator":"cost","value":1000}]}}},{"map_id":1094,"name":"Empty","skin":"underground","x":2,"y":16,"layer":"underground","access":{"type":"blocked","conditions":[]},"interactions":{"content":null,"transition":null}},{"map_id":1095,"name":"Empty","skin":"interior","x":2,"y":16,"layer":"interior","access":{"type":"blocked","conditions":[]},"interactions":{"content":null,"transition":null}},{"map_id":1096,"name":"Sea","skin":"forest_coastline10","x":3,"y":16,"layer":"overworld","access":{"type":"blocked","conditions":[]},"interactions":{"content":null,"transition":null}},{"map_id":1097,"name":"Empty","skin":"underground","x":3,"y":16,"layer":"underground","access":{"type":"blocked","conditions":[]},"interactions":{"content":null,"transition":null}},{"map_id":1098,"name":"Empty","skin":"interior","x":3,"y":16,"layer":"interior","access":{"type":"blocked","conditions":[]},"interactions":{"content":null,"transition":null}},{"map_id":1099,"name":"Sea","skin":"forest_coastline11","x":4,"y":16,"layer":"overworld","access":{"type":"blocked","conditions":[]},"interactions":{"content":null,"transition":null}},{"map_id":1100,"name":"Empty","skin":"underground","x":4,"y":16,"layer":"underground","access":{"type":"blocked","conditions":[]},"interactions":{"content":null,"transition":null}}],"total":1428,"page":22,"size":50,"pages":29}