{"data":[{"map_id":801,"name":"Empty","skin":"interior","x":6,"y":10,"layer":"interior","access":{"type":"blocked","conditions":[]},"interactions":{"content":null,"transition":null}},{"map_id":802,"name":"Forest","skin":"forest_1","x":7,"y":10,"layer":"overworld","access":{"type":"standard","conditions":[]},"interactions":{"content":null,"transition":null}},{"map_id":803,"name":"Empty","skin":"underground","x":7,"y":10,"layer":"underground","access":{"type":"blocked","conditions":[]},"interactions":{"content":null,"transition":null}},{"map_id":804,"name":"Empty","skin":"interior","x":7,"y":10,"layer":"interior","access":{"type":"blocked","conditions":[]},"interactions":{"content":null,"transition":null}},{"map_id":805,"name":"Forest","skin":"forest_3","x":8,"y":10,"layer":"overworld","access":{"type":"standard","conditions":[]},"interactions":{"content":null,"transition":null}},{"map_id":806,"name":"Empty","skin":"underground","x":8,"y":10,"layer":"underground","access":{"type":"blocked","conditions":[]},"interactions":{"content":null,"transition":null}},{"map_id":807,"name":"Empty","skin":"interior","x":8,"y":10,"layer":"interior","access":{"type":"blocked","conditions":[]},"interactions":{"content":null,"transition":null}},{"map_id":808,"name":"Forest","skin":"forest_4","x":9,"y":10,"layer":"overworld","access":{"type":"standard","conditions":[]},"interactions":{"content":null,"transition":null}},{"map_id":809,"name":"Empty","skin":"underground","x":9,"y":10,"layer":"underground","access":{"type":"blocked","conditions":[]},"interactions":{"content":null,"transition":null}},{"map_id":810,"name":"Empty","skin":"interior","x":9,"y":10,"layer":"interior","access":{"type":"blocked","conditions":[]},"interactions":{"content":null,"transition":null}},{"map_id":811,"name":"Forest","skin":"forest_2","x":10,"y":10,"layer":"overworld","access":{"type":"standard","conditions":[]},"interactions":{"content":null,"transition":null}},{"map_id":812,"name":"Empty","skin":"underground","x":10,"y":10,"layer":"underground","access":{"type":"blocked","conditions":[]},"interactions":{"content":null,"transition":null}},{"map_id":813,"name":"Empty","skin":"interior","x":10,"y":10,"layer":"interior","access":{"type":"blocked","conditions":[]},"interactions":{"content":null,"transition":null}},{"map_id":814,"name":"Forest","skin":"forest_3","x":11,"y":10,"layer":"overworld","access":{"type":"standard","conditions":[]},"interactions":{"content":null,"transition":null}},{"map_id":815,"name":"Empty","skin":"underground","x":11,"y":10,"layer":"underground","access":{"type":"blocked","conditions":[]},"interactions":{"content":null,"transition":null}},{"map_id":816,"name":"Empty","skin":"interior","x":11,"y":10,"layer":"interior","access":{"type":"blocked","conditions":[]},"interactions":{"content":null,"transition":null}},{"map_id":817,"name":"Forest","skin":"forest_3","x":-5,"y":11,"layer":"overworld","access":{"type":"standard","conditions":[]},"interactions":{"content":null,"transition":null}},{"map_id":818,"name":"Empty","skin":"underground","x":-5,"y":11,"layer":"underground","access":{"type":"blocked","conditions":[]},"interactions":{"content":null,"transition":null}},{"map_id":819,"name":"Empty","skin":"interior","x":-5,"y":11,"layer":"interior","access":{"type":"blocked","conditions":[]},"interactions":{"content":null,"transition":null}},{"map_id":820,"name":"Forest","skin":"forest_4","x":-4,"y":11,"layer":"overworld","access":{"type":"standard","conditions":[]},"interactions":{"content":null,"transition":null}},{"map_id":821,"name":"Empty","skin":"underground","x":-4,"y":11,"layer":"underground","access":{"type":"blocked","conditions":[]},"interactions":{"content":null,"transition":null}},{"map_id":822,"name":"Empty","skin":"interior","x":-4,"y":11,"layer":"interior","access":{"type":"blocked","conditions":[]},"interactions":{"content":null,"transition":null}},{"map_id":823,"name":"Forest","skin":"forest_3","x":-3,"y":11,"layer":"overworld","access":{"type":"standard","conditions":[]},"interactions":{"content":null,"transition":null}},{"map_id":824,"name":"Empty","skin":"underground","x":-3,"y":11,"layer":"underground","access":{"type":"blocked","conditions":[]},"interactions":{"content":null,"transition":null}},{"map_id":825,"name":"Empty","skin":"interior","x":-3,"y":11,"layer":"interior","access":{"type":"blocked","conditions":[]},"interactions":{"content":null,"transition":null}},{"map_id":826,"name":"Forest","skin":"forest_3","x":-2,"y":11,"layer":"overworld","access":{"type":"standard","conditions":[]},"interactions":{"content":null,"transition":null}},{"map_id":827,"name":"Empty","skin":"underground","x":-2,"y":11,"layer":"underground","access":{"type":"blocked","conditions":[]},"interactions":{"content":null,"transition":null}},{"map_id":828,"name":"Empty","skin":"interior","x":-2,"y":11,"layer":"interior","access":{"type":"blocked","conditions":[]},"interactions":{"content":null,"transition":null}},{"map_id":829,"name":"Forest","skin":"forest_1","x":-1,"y":11,"layer":"overworld","access":{"type":"standard","conditions":[]},"interactions":{"content":null,"transition":null}},{"map_id":830,"name":"Empty","skin":"underground","x":-1,"y":11,"layer":"underground","access":{"type":"blocked","conditions":[]},"interactions":{"content":null,"transition":null}},{"map_id":831,"name":"Empty","skin":"interior","x":-1,"y":11,"layer":"interior","access":{"type":"blocked","conditions":[]},"interactions":{"content":null,"transition":null}},{"map_id":832,"name":"Forest","skin":"forest_3","x":0,"y":11,"layer":"overworld","access":{"type":"standard","conditions":[]},"interactions":{"content":null,"transition":null}},{"map_id":833,"name":"Empty","skin":"underground","x":0,"y":11,"layer":"underground","access":{"type":"blocked","conditions":[]},"interactions":{"content":null,"transition":null}},{"map_id":834,"name":"Empty","skin":"interior","x":0,"y":11,"layer":"interior","access":{"type":"blocked","conditions":[]},"interactions":{"content":null,"transition":null}},{"map_id":835,"name":"Forest","skin":"forest_1","x":1,"y":11,"layer":"overworld","access":{"type":"standard","conditions":[]},"interactions":{"content":null,"transition":null}},{"map_id":836,"name":"Empty","skin":"underground","x":1,"y":11,"layer":"underground","access":{"type":"blocked","conditions":[]},"interactions":{"content":null,"transition":null}},{"map_id":837,"name":"Empty","skin":"interior","x":1,"y":11,"layer":"interior","access":{"type":"blocked","conditions":[]},"interactions":{"content":null,"transition":null}},{"map_id":838,"name":"Forest","skin":"forest_road3","x":2,"y":11,"layer":"overworld","access":{"type":"standard","conditions":[]},"interactions":{"content":null,"transition":null}},{"map_id":839,"name":"Empty","skin":"underground","x":2,"y":11,"layer":"underground","access":{"type":"blocked","conditions":[]},"interactions":{"content":null,"transition":null}},{"map_id":840,"name":"Empty","skin":"interior","x":2,"y":11,"layer":"interior","access":{"type":"blocked","conditions":[]},"interactions":{"content":null,"transition":null}},{"map_id":841,"name":"Forest","skin":"forest_2","x":3,"y":11,"layer":"overworld","access":{"type":"standard","conditions":[]},"interactions":{"content":null,"transition":null}},{"map_id":842,"name":"Empty","skin":"underground","x":3,"y":11,"layer":"underground","access":{"type":"blocked","conditions":[]},"interactions":{"content":null,"transition":null}},{"map_id":843,"name":"Empty","skin":"interior","x":3,"y":11,"layer":"interior","access":{"type":"blocked","conditions":[]},"interactions":{"content":null,"transition":null}},{"map_id":844,"name":"Forest","skin":"forest_2","x":4,"y":11,"layer":"overworld","access":{"type":"standard","conditions":[]},"interactions":{"content":null,"transition":null}},{"map_id":845,"name":"Empty","skin":"underground","x":4,"y":11,"layer":"underground","access":{"type":"blocked","conditions":[]},"interactions":{"content":null,"transition":null}},{"map_id":846,"name":"Empty","skin":"interior","x":4,"y":11,"layer":"interior","access":{"type":"blocked","conditions":[]},"interactions":{"content":null,"transition":null}},{"map_id":847,"name":"Forest","skin":"forest_taskstrader1","x":5,"y":11,"layer":"overworld","access":{"type":"standard","conditions":[{"code":"tasks_farmer","operator":"achievement_unlocked","value":1}]},"interactions":{"content":{"type":"npc","code":"tasks_trader"},"transition":null}},{"map_id":848,"name":"Empty","skin":"underground","x":5,"y":11,"layer":"underground","access":{"type":"blocked","conditions":[]},"interactions":{"content":null,"transition":null}},{"map_id":849,"name":"Empty","skin":"interior","x":5,"y":11,"layer":"interior","access":{"type":"blocked","conditions":[]},"interactions":{"content":null,"transition":null}},{"map_id":850,"name":"Forest","skin":"forest_3","x":6,"y":11,"layer":"overworld","access":{"type":"standard","conditions":[]},"interactions":{"content":null,"transition":null}}],"total":1428,"page":17,"size":50,"pages":29}