{"data":[{"map_id":1401,"name":"Empty","skin":"interior","x":2,"y":22,"layer":"interior","access":{"type":"blocked","conditions":[]},"interactions":{"content":null,"transition":null}},{"map_id":1402,"name":"Sea","skin":"water","x":3,"y":22,"layer":"overworld","access":{"type":"blocked","conditions":[]},"interactions":{"content":null,"transition":null}},{"map_id":1403,"name":"Empty","skin":"underground","x":3,"y":22,"layer":"underground","access":{"type":"blocked","conditions":[]},"interactions":{"content":null,"transition":null}},{"map_id":1404,"name":"Empty","skin":"interior","x":3,"y":22,"layer":"interior","access":{"type":"blocked","conditions":[]},"interactions":{"content":null,"transition":null}},{"map_id":1405,"name":"Sea","skin":"water","x":4,"y":22,"layer":"overworld","access":{"type":"blocked","conditions":[]},"interactions":{"content":null,"transition":null}},{"map_id":1406,"name":"Empty","skin":"underground","x":4,"y":22,"layer":"underground","access":{"type":"blocked","conditions":[]},"interactions":{"content":null,"transition":null}},{"map_id":1407,"name":"Empty","skin":"interior","x":4,"y":22,"layer":"interior","access":{"type":"blocked","conditions":[]},"interactions":{"content":null,"transition":null}},{"map_id":1408,"name":"Sea","skin":"water","x":5,"y":22,"layer":"overworld","access":{"type":"blocked","conditions":[]},"interactions":{"content":null,"transition":null}},{"map_id":1409,"name":"Empty","skin":"underground","x":5,"y":22,"layer":"underground","access":{"type":"blocked","conditions":[]},"interactions":{"content":null,"transition":null}},{"map_id":1410,"name":"Empty","skin":"interior","x":5,"y":22,"layer":"interior","access":{"type":"blocked","conditions":[]},"interactions":{"content":null,"transition":null}},{"map_id":1411,"name":"Sea","skin":"water","x":6,"y":22,"layer":"overworld","access":{"type":"blocked","conditions":[]},"interactions":{"content":null,"transition":null}},{"map_id":1412,"name":"Empty","skin":"underground","x":6,"y":22,"layer":"underground","access":{"type":"blocked","conditions":[]},"interactions":{"content":null,"transition":null}},{"map_id":1413,"name":"Empty","skin":"interior","x":6,"y":22,"layer":"interior","access":{"type":"blocked","conditions":[]},"interactions":{"content":null,"transition":null}},{"map_id":1414,"name":"Sea","skin":"water","x":7,"y":22,"layer":"overworld","access":{"type":"blocked","conditions":[]},"interactions":{"content":null,"transition":null}},{"map_id":1415,"name":"Empty","skin":"underground","x":7,"y":22,"layer":"underground","access":{"type":"blocked","conditions":[]},"interactions":{"content":null,"transition":null}},{"map_id":1416,"name":"Empty","skin":"interior","x":7,"y":22,"layer":"interior","access":{"type":"blocked","conditions":[]},"interactions":{"content":null,"transition":null}},{"map_id":1417,"name":"Sea","skin":"water","x":8,"y":22,"layer":"overworld","access":{"type":"blocked","conditions":[]},"interactions":{"content":null,"transition":null}},{"map_id":1418,"name":"Empty","skin":"underground","x":8,"y":22,"layer":"underground","access":{"type":"blocked","conditions":[]},"interactions":{"content":null,"transition":null}},{"map_id":1419,"name":"Empty","skin":"interior","x":8,"y":22,"layer":"interior","access":{"type":"blocked","conditions":[]},"interactions":{"content":null,"transition":null}},{"map_id":1420,"name":"Sea","skin":"water","x":9,"y":22,"layer":"overworld","access":{"type":"blocked","conditions":[]},"interactions":{"content":null,"transition":null}},{"map_id":1421,"name":"Empty","skin":"underground","x":9,"y":22,"layer":"underground","access":{"type":"blocked","conditions":[]},"interactions":{"content":null,"transition":null}},{"map_id":1422,"name":"Empty","skin":"interior","x":9,"y":22,"layer":"interior","access":{"type":"blocked","conditions":[]},"interactions":{"content":null,"transition":null}},{"map_id":1423,"name":"Sea","skin":"water","x":10,"y":22,"layer":"overworld","access":{"type":"blocked","conditions":[]},"interactions":{"content":null,"transition":null}},{"map_id":1424,"name":"Empty","skin":"underground","x":10,"y":22,"layer":"underground","access":{"type":"blocked","conditions":[]},"interactions":{"content":null,"transition":null}},{"map_id":1425,"name":"Empty","skin":"interior","x":10,"y":22,"layer":"interior","access":{"type":"blocked","conditions":[]},"interactions":{"content":null,"transition":null}},{"map_id":1426,"name":"Sea","skin":"water","x":11,"y":22,"layer":"overworld","access":{"type":"blocked","conditions":[]},"interactions":{"content":null,"transition":null}},{"map_id":1427,"name":"Empty","skin":"underground","x":11,"y":22,"layer":"underground","access":{"type":"blocked","conditions":[]},"interactions":{"content":null,"transition":null}},{"map_id":1428,"name":"Empty","skin":"interior","x":11,"y":22,"layer":"interior","access":{"type":"blocked","conditions":[]},"interactions":{"content":null,"transition":null}}],"total":1428,"page":29,"size":50,"pages":29}