{"data":[{"code":"strange_ore","level":35,"type":"items","min_quantity":100,"max_quantity":400,"skill":"mining","rewards":{"items":[{"code":"tasks_coin","quantity":4}],"gold":350}},{"code":"magic_wood","level":35,"type":"items","min_quantity":100,"max_quantity":400,"skill":"woodcutting","rewards":{"items":[{"code":"tasks_coin","quantity":4}],"gold":350}},{"code":"strangold_bar","level":35,"type":"items","min_quantity":10,"max_quantity":30,"skill":"mining","rewards":{"items":[{"code":"tasks_coin","quantity":4}],"gold":350}},{"code":"magical_plank","level":35,"type":"items","min_quantity":10,"max_quantity":30,"skill":"woodcutting","rewards":{"items":[{"code":"tasks_coin","quantity":4}],"gold":350}},{"code":"bat","level":38,"type":"monsters","min_quantity":50,"max_quantity":400,"skill":null,"rewards":{"items":[{"code":"tasks_coin","quantity":5}],"gold":500}},{"code":"goblin_wolfrider","level":40,"type":"monsters","min_quantity":50,"max_quantity":400,"skill":null,"rewards":{"items":[{"code":"tasks_coin","quantity":5}],"gold":500}},{"code":"hellhound","level":40,"type":"monsters","min_quantity":50,"max_quantity":400,"skill":null,"rewards":{"items":[{"code":"tasks_coin","quantity":5}],"gold":500}},{"code":"mithril_ore","level":40,"type":"items","min_quantity":100,"max_quantity":400,"skill":"mining","rewards":{"items":[{"code":"tasks_coin","quantity":4}],"gold":350}},{"code":"maple_wood","level":40,"type":"items","min_quantity":100,"max_quantity":400,"skill":"woodcutting","rewards":{"items":[{"code":"tasks_coin","quantity":4}],"gold":350}},{"code":"glowstem_leaf","level":40,"type":"items","min_quantity":100,"max_quantity":400,"skill":"alchemy","rewards":{"items":[{"code":"tasks_coin","quantity":4}],"gold":350}},{"code":"mithril_bar","level":40,"type":"items","min_quantity":10,"max_quantity":30,"skill":"mining","rewards":{"items":[{"code":"tasks_coin","quantity":4}],"gold":350}},{"code":"maple_plank","level":40,"type":"items","min_quantity":10,"max_quantity":30,"skill":"woodcutting","rewards":{"items":[{"code":"tasks_coin","quantity":4}],"gold":350}},{"code":"salmon","level":40,"type":"items","min_quantity":100,"max_quantity":400,"skill":"fishing","rewards":{"items":[{"code":"tasks_coin","quantity":4}],"gold":350}},{"code":"cooked_salmon","level":40,"type":"items","min_quantity":60,"max_quantity":240,"skill":"cooking","rewards":{"items":[{"code":"tasks_coin","quantity":4}],"gold":350}},{"code":"cultist_alchemist","level":40,"type":"monsters","min_quantity":50,"max_quantity":400,"skill":null,"rewards":{"items":[{"code":"tasks_coin","quantity":5}],"gold":500}},{"code":"sand_snake","level":44,"type":"monsters","min_quantity":50,"max_quantity":400,"skill":null,"rewards":{"items":[{"code":"tasks_coin","quantity":5}],"gold":500}},{"code":"dusk_beetle","level":47,"type":"monsters","min_quantity":50,"max_quantity":400,"skill":null,"rewards":{"items":[{"code":"tasks_coin","quantity":5}],"gold":500}},{"code":"sandwarden","level":50,"type":"monsters","min_quantity":50,"max_quantity":400,"skill":null,"rewards":{"items":[{"code":"tasks_coin","quantity":5}],"gold":500}},{"code":"swordfish","level":50,"type":"items","min_quantity":100,"max_quantity":400,"skill":"fishing","rewards":{"items":[{"code":"tasks_coin","quantity":4}],"gold":300}},{"code":"palm_plank","level":50,"type":"items","min_quantity":10,"max_quantity":30,"skill":"woodcutting","rewards":{"items":[{"code":"tasks_coin","quantity":4}],"gold":300}},{"code":"cooked_swordfish","level":50,"type":"items","min_quantity":60,"max_quantity":240,"skill":"cooking","rewards":{"items":[{"code":"tasks_coin","quantity":4}],"gold":300}},{"code":"palm_wood","level":50,"type":"items","min_quantity":100,"max_quantity":400,"skill":"woodcutting","rewards":{"items":[{"code":"tasks_coin","quantity":4}],"gold":300}},{"code":"adamantite_bar","level":50,"type":"items","min_quantity":10,"max_quantity":30,"skill":"mining","rewards":{"items":[{"code":"tasks_coin","quantity":4}],"gold":300}},{"code":"adamantite_ore","level":50,"type":"items","min_quantity":100,"max_quantity":400,"skill":"mining","rewards":{"items":[{"code":"tasks_coin","quantity":4}],"gold":300}},{"code":"torch_cactus_flower","level":50,"type":"items","min_quantity":100,"max_quantity":400,"skill":"alchemy","rewards":{"items":[{"code":"tasks_coin","quantity":4}],"gold":300}},{"code":"desert_scorpion","level":50,"type":"monsters","min_quantity":50,"max_quantity":400,"skill":null,"rewards":{"items":[{"code":"tasks_coin","quantity":5}],"gold":500}}],"total":76,"page":2,"size":50,"pages":2}