{
    "data": [
        {
            "code": "chicken",
            "level": 1,
            "type": "monsters",
            "min_quantity": 50,
            "max_quantity": 400,
            "skill": null,
            "rewards": {
                "items": [
                    {
                        "code": "tasks_coin",
                        "quantity": 3
                    }
                ],
                "gold": 200
            }
        },
        {
            "code": "copper_ore",
            "level": 1,
            "type": "items",
            "min_quantity": 100,
            "max_quantity": 400,
            "skill": "mining",
            "rewards": {
                "items": [
                    {
                        "code": "tasks_coin",
                        "quantity": 2
                    }
                ],
                "gold": 150
            }
        },
        {
            "code": "ash_wood",
            "level": 1,
            "type": "items",
            "min_quantity": 100,
            "max_quantity": 400,
            "skill": "woodcutting",
            "rewards": {
                "items": [
                    {
                        "code": "tasks_coin",
                        "quantity": 2
                    }
                ],
                "gold": 150
            }
        },
        {
            "code": "sunflower",
            "level": 1,
            "type": "items",
            "min_quantity": 100,
            "max_quantity": 400,
            "skill": "alchemy",
            "rewards": {
                "items": [
                    {
                        "code": "tasks_coin",
                        "quantity": 2
                    }
                ],
                "gold": 150
            }
        },
        {
            "code": "copper",
            "level": 1,
            "type": "items",
            "min_quantity": 10,
            "max_quantity": 30,
            "skill": "mining",
            "rewards": {
                "items": [
                    {
                        "code": "tasks_coin",
                        "quantity": 2
                    }
                ],
                "gold": 150
            }
        },
        {
            "code": "small_health_potion",
            "level": 1,
            "type": "items",
            "min_quantity": 10,
            "max_quantity": 30,
            "skill": "alchemy",
            "rewards": {
                "items": [
                    {
                        "code": "tasks_coin",
                        "quantity": 2
                    }
                ],
                "gold": 150
            }
        },
        {
            "code": "ash_plank",
            "level": 1,
            "type": "items",
            "min_quantity": 10,
            "max_quantity": 30,
            "skill": "woodcutting",
            "rewards": {
                "items": [
                    {
                        "code": "tasks_coin",
                        "quantity": 2
                    }
                ],
                "gold": 150
            }
        },
        {
            "code": "gudgeon",
            "level": 1,
            "type": "items",
            "min_quantity": 100,
            "max_quantity": 400,
            "skill": "fishing",
            "rewards": {
                "items": [
                    {
                        "code": "tasks_coin",
                        "quantity": 2
                    }
                ],
                "gold": 150
            }
        },
        {
            "code": "cooked_gudgeon",
            "level": 1,
            "type": "items",
            "min_quantity": 60,
            "max_quantity": 240,
            "skill": "cooking",
            "rewards": {
                "items": [
                    {
                        "code": "tasks_coin",
                        "quantity": 2
                    }
                ],
                "gold": 150
            }
        },
        {
            "code": "yellow_slime",
            "level": 2,
            "type": "monsters",
            "min_quantity": 50,
            "max_quantity": 400,
            "skill": null,
            "rewards": {
                "items": [
                    {
                        "code": "tasks_coin",
                        "quantity": 3
                    }
                ],
                "gold": 200
            }
        },
        {
            "code": "green_slime",
            "level": 4,
            "type": "monsters",
            "min_quantity": 50,
            "max_quantity": 400,
            "skill": null,
            "rewards": {
                "items": [
                    {
                        "code": "tasks_coin",
                        "quantity": 3
                    }
                ],
                "gold": 200
            }
        },
        {
            "code": "blue_slime",
            "level": 6,
            "type": "monsters",
            "min_quantity": 50,
            "max_quantity": 400,
            "skill": null,
            "rewards": {
                "items": [
                    {
                        "code": "tasks_coin",
                        "quantity": 3
                    }
                ],
                "gold": 200
            }
        },
        {
            "code": "red_slime",
            "level": 7,
            "type": "monsters",
            "min_quantity": 50,
            "max_quantity": 400,
            "skill": null,
            "rewards": {
                "items": [
                    {
                        "code": "tasks_coin",
                        "quantity": 3
                    }
                ],
                "gold": 200
            }
        },
        {
            "code": "cow",
            "level": 8,
            "type": "monsters",
            "min_quantity": 50,
            "max_quantity": 400,
            "skill": null,
            "rewards": {
                "items": [
                    {
                        "code": "tasks_coin",
                        "quantity": 3
                    }
                ],
                "gold": 200
            }
        },
        {
            "code": "mushmush",
            "level": 10,
            "type": "monsters",
            "min_quantity": 50,
            "max_quantity": 400,
            "skill": null,
            "rewards": {
                "items": [
                    {
                        "code": "tasks_coin",
                        "quantity": 3
                    }
                ],
                "gold": 200
            }
        },
        {
            "code": "iron_ore",
            "level": 10,
            "type": "items",
            "min_quantity": 100,
            "max_quantity": 400,
            "skill": "mining",
            "rewards": {
                "items": [
                    {
                        "code": "tasks_coin",
                        "quantity": 2
                    }
                ],
                "gold": 150
            }
        },
        {
            "code": "spruce_wood",
            "level": 10,
            "type": "items",
            "min_quantity": 100,
            "max_quantity": 400,
            "skill": "woodcutting",
            "rewards": {
                "items": [
                    {
                        "code": "tasks_coin",
                        "quantity": 2
                    }
                ],
                "gold": 150
            }
        },
        {
            "code": "iron",
            "level": 10,
            "type": "items",
            "min_quantity": 10,
            "max_quantity": 30,
            "skill": "mining",
            "rewards": {
                "items": [
                    {
                        "code": "tasks_coin",
                        "quantity": 2
                    }
                ],
                "gold": 150
            }
        },
        {
            "code": "spruce_plank",
            "level": 10,
            "type": "items",
            "min_quantity": 10,
            "max_quantity": 30,
            "skill": "woodcutting",
            "rewards": {
                "items": [
                    {
                        "code": "tasks_coin",
                        "quantity": 2
                    }
                ],
                "gold": 150
            }
        },
        {
            "code": "shrimp",
            "level": 10,
            "type": "items",
            "min_quantity": 100,
            "max_quantity": 400,
            "skill": "fishing",
            "rewards": {
                "items": [
                    {
                        "code": "tasks_coin",
                        "quantity": 2
                    }
                ],
                "gold": 150
            }
        },
        {
            "code": "cooked_shrimp",
            "level": 10,
            "type": "items",
            "min_quantity": 60,
            "max_quantity": 240,
            "skill": "cooking",
            "rewards": {
                "items": [
                    {
                        "code": "tasks_coin",
                        "quantity": 2
                    }
                ],
                "gold": 150
            }
        },
        {
            "code": "flying_serpent",
            "level": 12,
            "type": "monsters",
            "min_quantity": 50,
            "max_quantity": 400,
            "skill": null,
            "rewards": {
                "items": [
                    {
                        "code": "tasks_coin",
                        "quantity": 3
                    }
                ],
                "gold": 200
            }
        },
        {
            "code": "wolf",
            "level": 15,
            "type": "monsters",
            "min_quantity": 50,
            "max_quantity": 400,
            "skill": null,
            "rewards": {
                "items": [
                    {
                        "code": "tasks_coin",
                        "quantity": 4
                    }
                ],
                "gold": 300
            }
        },
        {
            "code": "highwayman",
            "level": 15,
            "type": "monsters",
            "min_quantity": 50,
            "max_quantity": 400,
            "skill": null,
            "rewards": {
                "items": [
                    {
                        "code": "tasks_coin",
                        "quantity": 4
                    }
                ],
                "gold": 300
            }
        },
        {
            "code": "skeleton",
            "level": 18,
            "type": "monsters",
            "min_quantity": 50,
            "max_quantity": 400,
            "skill": null,
            "rewards": {
                "items": [
                    {
                        "code": "tasks_coin",
                        "quantity": 4
                    }
                ],
                "gold": 300
            }
        },
        {
            "code": "pig",
            "level": 19,
            "type": "monsters",
            "min_quantity": 50,
            "max_quantity": 400,
            "skill": null,
            "rewards": {
                "items": [
                    {
                        "code": "tasks_coin",
                        "quantity": 4
                    }
                ],
                "gold": 300
            }
        },
        {
            "code": "ogre",
            "level": 20,
            "type": "monsters",
            "min_quantity": 50,
            "max_quantity": 400,
            "skill": null,
            "rewards": {
                "items": [
                    {
                        "code": "tasks_coin",
                        "quantity": 4
                    }
                ],
                "gold": 300
            }
        },
        {
            "code": "coal",
            "level": 20,
            "type": "items",
            "min_quantity": 100,
            "max_quantity": 400,
            "skill": "mining",
            "rewards": {
                "items": [
                    {
                        "code": "tasks_coin",
                        "quantity": 3
                    }
                ],
                "gold": 250
            }
        },
        {
            "code": "birch_wood",
            "level": 20,
            "type": "items",
            "min_quantity": 100,
            "max_quantity": 400,
            "skill": "woodcutting",
            "rewards": {
                "items": [
                    {
                        "code": "tasks_coin",
                        "quantity": 3
                    }
                ],
                "gold": 250
            }
        },
        {
            "code": "nettle_leaf",
            "level": 20,
            "type": "items",
            "min_quantity": 100,
            "max_quantity": 400,
            "skill": "alchemy",
            "rewards": {
                "items": [
                    {
                        "code": "tasks_coin",
                        "quantity": 3
                    }
                ],
                "gold": 250
            }
        },
        {
            "code": "steel",
            "level": 20,
            "type": "items",
            "min_quantity": 10,
            "max_quantity": 30,
            "skill": "mining",
            "rewards": {
                "items": [
                    {
                        "code": "tasks_coin",
                        "quantity": 3
                    }
                ],
                "gold": 250
            }
        },
        {
            "code": "hardwood_plank",
            "level": 20,
            "type": "items",
            "min_quantity": 10,
            "max_quantity": 30,
            "skill": "woodcutting",
            "rewards": {
                "items": [
                    {
                        "code": "tasks_coin",
                        "quantity": 3
                    }
                ],
                "gold": 250
            }
        },
        {
            "code": "trout",
            "level": 20,
            "type": "items",
            "min_quantity": 100,
            "max_quantity": 400,
            "skill": "fishing",
            "rewards": {
                "items": [
                    {
                        "code": "tasks_coin",
                        "quantity": 3
                    }
                ],
                "gold": 250
            }
        },
        {
            "code": "cooked_trout",
            "level": 20,
            "type": "items",
            "min_quantity": 60,
            "max_quantity": 240,
            "skill": "cooking",
            "rewards": {
                "items": [
                    {
                        "code": "tasks_coin",
                        "quantity": 3
                    }
                ],
                "gold": 250
            }
        },
        {
            "code": "spider",
            "level": 20,
            "type": "monsters",
            "min_quantity": 50,
            "max_quantity": 400,
            "skill": null,
            "rewards": {
                "items": [
                    {
                        "code": "tasks_coin",
                        "quantity": 4
                    }
                ],
                "gold": 300
            }
        },
        {
            "code": "vampire",
            "level": 24,
            "type": "monsters",
            "min_quantity": 50,
            "max_quantity": 400,
            "skill": null,
            "rewards": {
                "items": [
                    {
                        "code": "tasks_coin",
                        "quantity": 4
                    }
                ],
                "gold": 300
            }
        },
        {
            "code": "cyclops",
            "level": 25,
            "type": "monsters",
            "min_quantity": 50,
            "max_quantity": 400,
            "skill": null,
            "rewards": {
                "items": [
                    {
                        "code": "tasks_coin",
                        "quantity": 4
                    }
                ],
                "gold": 300
            }
        },
        {
            "code": "death_knight",
            "level": 28,
            "type": "monsters",
            "min_quantity": 50,
            "max_quantity": 400,
            "skill": null,
            "rewards": {
                "items": [
                    {
                        "code": "tasks_coin",
                        "quantity": 4
                    }
                ],
                "gold": 300
            }
        },
        {
            "code": "imp",
            "level": 28,
            "type": "monsters",
            "min_quantity": 50,
            "max_quantity": 400,
            "skill": null,
            "rewards": {
                "items": [
                    {
                        "code": "tasks_coin",
                        "quantity": 4
                    }
                ],
                "gold": 300
            }
        },
        {
            "code": "owlbear",
            "level": 30,
            "type": "monsters",
            "min_quantity": 50,
            "max_quantity": 400,
            "skill": null,
            "rewards": {
                "items": [
                    {
                        "code": "tasks_coin",
                        "quantity": 5
                    }
                ],
                "gold": 500
            }
        },
        {
            "code": "gold_ore",
            "level": 30,
            "type": "items",
            "min_quantity": 100,
            "max_quantity": 400,
            "skill": "mining",
            "rewards": {
                "items": [
                    {
                        "code": "tasks_coin",
                        "quantity": 4
                    }
                ],
                "gold": 350
            }
        },
        {
            "code": "dead_wood",
            "level": 30,
            "type": "items",
            "min_quantity": 100,
            "max_quantity": 400,
            "skill": "woodcutting",
            "rewards": {
                "items": [
                    {
                        "code": "tasks_coin",
                        "quantity": 4
                    }
                ],
                "gold": 350
            }
        },
        {
            "code": "gold",
            "level": 30,
            "type": "items",
            "min_quantity": 10,
            "max_quantity": 30,
            "skill": "mining",
            "rewards": {
                "items": [
                    {
                        "code": "tasks_coin",
                        "quantity": 4
                    }
                ],
                "gold": 350
            }
        },
        {
            "code": "dead_wood_plank",
            "level": 30,
            "type": "items",
            "min_quantity": 10,
            "max_quantity": 30,
            "skill": "woodcutting",
            "rewards": {
                "items": [
                    {
                        "code": "tasks_coin",
                        "quantity": 4
                    }
                ],
                "gold": 350
            }
        },
        {
            "code": "bass",
            "level": 30,
            "type": "items",
            "min_quantity": 100,
            "max_quantity": 400,
            "skill": "fishing",
            "rewards": {
                "items": [
                    {
                        "code": "tasks_coin",
                        "quantity": 4
                    }
                ],
                "gold": 350
            }
        },
        {
            "code": "cooked_bass",
            "level": 30,
            "type": "items",
            "min_quantity": 60,
            "max_quantity": 240,
            "skill": "cooking",
            "rewards": {
                "items": [
                    {
                        "code": "tasks_coin",
                        "quantity": 4
                    }
                ],
                "gold": 350
            }
        },
        {
            "code": "cultist_acolyte",
            "level": 33,
            "type": "monsters",
            "min_quantity": 50,
            "max_quantity": 400,
            "skill": null,
            "rewards": {
                "items": [
                    {
                        "code": "tasks_coin",
                        "quantity": 5
                    }
                ],
                "gold": 500
            }
        },
        {
            "code": "goblin",
            "level": 35,
            "type": "monsters",
            "min_quantity": 50,
            "max_quantity": 400,
            "skill": null,
            "rewards": {
                "items": [
                    {
                        "code": "tasks_coin",
                        "quantity": 5
                    }
                ],
                "gold": 500
            }
        },
        {
            "code": "strange_ore",
            "level": 35,
            "type": "items",
            "min_quantity": 100,
            "max_quantity": 400,
            "skill": "mining",
            "rewards": {
                "items": [
                    {
                        "code": "tasks_coin",
                        "quantity": 4
                    }
                ],
                "gold": 350
            }
        },
        {
            "code": "magic_wood",
            "level": 35,
            "type": "items",
            "min_quantity": 100,
            "max_quantity": 400,
            "skill": "woodcutting",
            "rewards": {
                "items": [
                    {
                        "code": "tasks_coin",
                        "quantity": 4
                    }
                ],
                "gold": 350
            }
        }
    ],
    "total": 63,
    "page": 1,
    "size": 50,
    "pages": 2
}